# Command line was: maicos density_planar -s in.lammpsdata -top data -f out.dcd -sel "type 13" -shift True -nbins 800 -dz 0.5 -dens number -o data/number_density_type_13.dat -b 50000 -e -1
# number density profile [nm^(-3)]
# statistics over 82836.0 picoseconds 
# positions [nm]
6.027337551125877373e-03 0.000000000000000000e+00 0.000000000000000000e+00
1.808201265337763125e-02 0.000000000000000000e+00 0.000000000000000000e+00
3.013668775562938773e-02 0.000000000000000000e+00 0.000000000000000000e+00
4.219136285788113727e-02 0.000000000000000000e+00 0.000000000000000000e+00
5.424603796013289375e-02 0.000000000000000000e+00 0.000000000000000000e+00
6.630071306238465023e-02 0.000000000000000000e+00 0.000000000000000000e+00
7.835538816463639977e-02 0.000000000000000000e+00 0.000000000000000000e+00
9.041006326688816319e-02 0.000000000000000000e+00 0.000000000000000000e+00
1.024647383691399127e-01 0.000000000000000000e+00 0.000000000000000000e+00
1.145194134713916623e-01 0.000000000000000000e+00 0.000000000000000000e+00
1.265740885736434396e-01 0.000000000000000000e+00 0.000000000000000000e+00
1.386287636758951891e-01 0.000000000000000000e+00 0.000000000000000000e+00
1.506834387781469387e-01 0.000000000000000000e+00 0.000000000000000000e+00
1.627381138803986882e-01 0.000000000000000000e+00 0.000000000000000000e+00
1.747927889826504655e-01 0.000000000000000000e+00 0.000000000000000000e+00
1.868474640849022150e-01 0.000000000000000000e+00 0.000000000000000000e+00
1.989021391871539646e-01 0.000000000000000000e+00 0.000000000000000000e+00
2.109568142894057141e-01 0.000000000000000000e+00 0.000000000000000000e+00
2.230114893916574637e-01 0.000000000000000000e+00 0.000000000000000000e+00
2.350661644939092410e-01 0.000000000000000000e+00 0.000000000000000000e+00
2.471208395961609905e-01 0.000000000000000000e+00 0.000000000000000000e+00
2.591755146984127123e-01 0.000000000000000000e+00 0.000000000000000000e+00
2.712301898006644896e-01 0.000000000000000000e+00 0.000000000000000000e+00
2.832848649029162669e-01 0.000000000000000000e+00 0.000000000000000000e+00
2.953395400051679887e-01 0.000000000000000000e+00 0.000000000000000000e+00
3.073942151074197660e-01 0.000000000000000000e+00 0.000000000000000000e+00
3.194488902096714877e-01 0.000000000000000000e+00 0.000000000000000000e+00
3.315035653119232650e-01 0.000000000000000000e+00 0.000000000000000000e+00
3.435582404141750423e-01 0.000000000000000000e+00 0.000000000000000000e+00
3.556129155164267641e-01 0.000000000000000000e+00 0.000000000000000000e+00
3.676675906186785414e-01 0.000000000000000000e+00 0.000000000000000000e+00
3.797222657209302632e-01 0.000000000000000000e+00 0.000000000000000000e+00
3.917769408231820405e-01 0.000000000000000000e+00 0.000000000000000000e+00
4.038316159254338178e-01 0.000000000000000000e+00 0.000000000000000000e+00
4.158862910276855396e-01 0.000000000000000000e+00 0.000000000000000000e+00
4.279409661299373169e-01 0.000000000000000000e+00 0.000000000000000000e+00
4.399956412321890387e-01 0.000000000000000000e+00 0.000000000000000000e+00
4.520503163344408160e-01 0.000000000000000000e+00 0.000000000000000000e+00
4.641049914366925933e-01 0.000000000000000000e+00 0.000000000000000000e+00
4.761596665389443150e-01 0.000000000000000000e+00 0.000000000000000000e+00
4.882143416411960923e-01 0.000000000000000000e+00 0.000000000000000000e+00
5.002690167434478141e-01 0.000000000000000000e+00 0.000000000000000000e+00
5.123236918456994804e-01 0.000000000000000000e+00 0.000000000000000000e+00
5.243783669479512577e-01 0.000000000000000000e+00 0.000000000000000000e+00
5.364330420502030350e-01 0.000000000000000000e+00 0.000000000000000000e+00
5.484877171524548123e-01 0.000000000000000000e+00 0.000000000000000000e+00
5.605423922547065896e-01 0.000000000000000000e+00 0.000000000000000000e+00
5.725970673569582559e-01 0.000000000000000000e+00 0.000000000000000000e+00
5.846517424592100332e-01 0.000000000000000000e+00 0.000000000000000000e+00
5.967064175614618105e-01 0.000000000000000000e+00 0.000000000000000000e+00
6.087610926637135877e-01 0.000000000000000000e+00 0.000000000000000000e+00
6.208157677659653650e-01 0.000000000000000000e+00 0.000000000000000000e+00
6.328704428682170313e-01 0.000000000000000000e+00 0.000000000000000000e+00
6.449251179704688086e-01 0.000000000000000000e+00 0.000000000000000000e+00
6.569797930727205859e-01 0.000000000000000000e+00 0.000000000000000000e+00
6.690344681749723632e-01 0.000000000000000000e+00 0.000000000000000000e+00
6.810891432772241405e-01 0.000000000000000000e+00 0.000000000000000000e+00
6.931438183794758068e-01 0.000000000000000000e+00 0.000000000000000000e+00
7.051984934817275841e-01 0.000000000000000000e+00 0.000000000000000000e+00
7.172531685839793614e-01 0.000000000000000000e+00 0.000000000000000000e+00
7.293078436862311387e-01 0.000000000000000000e+00 0.000000000000000000e+00
7.413625187884829160e-01 0.000000000000000000e+00 0.000000000000000000e+00
7.534171938907345822e-01 0.000000000000000000e+00 0.000000000000000000e+00
7.654718689929863595e-01 0.000000000000000000e+00 0.000000000000000000e+00
7.775265440952381368e-01 0.000000000000000000e+00 0.000000000000000000e+00
7.895812191974899141e-01 0.000000000000000000e+00 0.000000000000000000e+00
8.016358942997416914e-01 0.000000000000000000e+00 0.000000000000000000e+00
8.136905694019933577e-01 0.000000000000000000e+00 0.000000000000000000e+00
8.257452445042451350e-01 0.000000000000000000e+00 0.000000000000000000e+00
8.377999196064969123e-01 0.000000000000000000e+00 0.000000000000000000e+00
8.498545947087486896e-01 0.000000000000000000e+00 0.000000000000000000e+00
8.619092698110004669e-01 0.000000000000000000e+00 0.000000000000000000e+00
8.739639449132521332e-01 0.000000000000000000e+00 0.000000000000000000e+00
8.860186200155039105e-01 0.000000000000000000e+00 0.000000000000000000e+00
8.980732951177556878e-01 0.000000000000000000e+00 0.000000000000000000e+00
9.101279702200074651e-01 0.000000000000000000e+00 0.000000000000000000e+00
9.221826453222592423e-01 0.000000000000000000e+00 0.000000000000000000e+00
9.342373204245109086e-01 0.000000000000000000e+00 0.000000000000000000e+00
9.462919955267626859e-01 0.000000000000000000e+00 0.000000000000000000e+00
9.583466706290144632e-01 0.000000000000000000e+00 0.000000000000000000e+00
9.704013457312662405e-01 0.000000000000000000e+00 0.000000000000000000e+00
9.824560208335180178e-01 0.000000000000000000e+00 0.000000000000000000e+00
9.945106959357696841e-01 0.000000000000000000e+00 0.000000000000000000e+00
1.006565371038021572e+00 0.000000000000000000e+00 0.000000000000000000e+00
1.018620046140273239e+00 0.000000000000000000e+00 0.000000000000000000e+00
1.030674721242525127e+00 0.000000000000000000e+00 0.000000000000000000e+00
1.042729396344776793e+00 0.000000000000000000e+00 0.000000000000000000e+00
1.054784071447028682e+00 0.000000000000000000e+00 0.000000000000000000e+00
1.066838746549280348e+00 0.000000000000000000e+00 0.000000000000000000e+00
1.078893421651532014e+00 0.000000000000000000e+00 0.000000000000000000e+00
1.090948096753783902e+00 0.000000000000000000e+00 0.000000000000000000e+00
1.103002771856035569e+00 0.000000000000000000e+00 0.000000000000000000e+00
1.115057446958287457e+00 0.000000000000000000e+00 0.000000000000000000e+00
1.127112122060539123e+00 0.000000000000000000e+00 0.000000000000000000e+00
1.139166797162790790e+00 0.000000000000000000e+00 0.000000000000000000e+00
1.151221472265042678e+00 0.000000000000000000e+00 0.000000000000000000e+00
1.163276147367294344e+00 0.000000000000000000e+00 0.000000000000000000e+00
1.175330822469546233e+00 0.000000000000000000e+00 0.000000000000000000e+00
1.187385497571797899e+00 0.000000000000000000e+00 0.000000000000000000e+00
1.199440172674049565e+00 0.000000000000000000e+00 0.000000000000000000e+00
1.211494847776301453e+00 0.000000000000000000e+00 0.000000000000000000e+00
1.223549522878553120e+00 0.000000000000000000e+00 0.000000000000000000e+00
1.235604197980805008e+00 0.000000000000000000e+00 0.000000000000000000e+00
1.247658873083056674e+00 0.000000000000000000e+00 0.000000000000000000e+00
1.259713548185308341e+00 0.000000000000000000e+00 0.000000000000000000e+00
1.271768223287560229e+00 0.000000000000000000e+00 0.000000000000000000e+00
1.283822898389811895e+00 0.000000000000000000e+00 0.000000000000000000e+00
1.295877573492063783e+00 0.000000000000000000e+00 0.000000000000000000e+00
1.307932248594315450e+00 0.000000000000000000e+00 0.000000000000000000e+00
1.319986923696567116e+00 0.000000000000000000e+00 0.000000000000000000e+00
1.332041598798819004e+00 0.000000000000000000e+00 0.000000000000000000e+00
1.344096273901070671e+00 0.000000000000000000e+00 0.000000000000000000e+00
1.356150949003322559e+00 0.000000000000000000e+00 0.000000000000000000e+00
1.368205624105574225e+00 0.000000000000000000e+00 0.000000000000000000e+00
1.380260299207825891e+00 0.000000000000000000e+00 0.000000000000000000e+00
1.392314974310077780e+00 0.000000000000000000e+00 0.000000000000000000e+00
1.404369649412329446e+00 0.000000000000000000e+00 0.000000000000000000e+00
1.416424324514581334e+00 0.000000000000000000e+00 0.000000000000000000e+00
1.428478999616833001e+00 0.000000000000000000e+00 0.000000000000000000e+00
1.440533674719084667e+00 0.000000000000000000e+00 0.000000000000000000e+00
1.452588349821336555e+00 0.000000000000000000e+00 0.000000000000000000e+00
1.464643024923588221e+00 0.000000000000000000e+00 0.000000000000000000e+00
1.476697700025840110e+00 0.000000000000000000e+00 0.000000000000000000e+00
1.488752375128091776e+00 0.000000000000000000e+00 0.000000000000000000e+00
1.500807050230343442e+00 0.000000000000000000e+00 0.000000000000000000e+00
1.512861725332595331e+00 0.000000000000000000e+00 0.000000000000000000e+00
1.524916400434846997e+00 0.000000000000000000e+00 0.000000000000000000e+00
1.536971075537098885e+00 0.000000000000000000e+00 0.000000000000000000e+00
1.549025750639350552e+00 0.000000000000000000e+00 0.000000000000000000e+00
1.561080425741602218e+00 0.000000000000000000e+00 0.000000000000000000e+00
1.573135100843854106e+00 0.000000000000000000e+00 0.000000000000000000e+00
1.585189775946105772e+00 0.000000000000000000e+00 0.000000000000000000e+00
1.597244451048357661e+00 0.000000000000000000e+00 0.000000000000000000e+00
1.609299126150609327e+00 0.000000000000000000e+00 0.000000000000000000e+00
1.621353801252860993e+00 0.000000000000000000e+00 0.000000000000000000e+00
1.633408476355112882e+00 0.000000000000000000e+00 0.000000000000000000e+00
1.645463151457364548e+00 0.000000000000000000e+00 0.000000000000000000e+00
1.657517826559616436e+00 0.000000000000000000e+00 0.000000000000000000e+00
1.669572501661868102e+00 0.000000000000000000e+00 0.000000000000000000e+00
1.681627176764119769e+00 0.000000000000000000e+00 0.000000000000000000e+00
1.693681851866371657e+00 0.000000000000000000e+00 0.000000000000000000e+00
1.705736526968623323e+00 0.000000000000000000e+00 0.000000000000000000e+00
1.717791202070875212e+00 0.000000000000000000e+00 0.000000000000000000e+00
1.729845877173126878e+00 0.000000000000000000e+00 0.000000000000000000e+00
1.741900552275378544e+00 0.000000000000000000e+00 0.000000000000000000e+00
1.753955227377630433e+00 0.000000000000000000e+00 0.000000000000000000e+00
1.766009902479882099e+00 0.000000000000000000e+00 0.000000000000000000e+00
1.778064577582133987e+00 0.000000000000000000e+00 0.000000000000000000e+00
1.790119252684385653e+00 2.420975454881101497e-04 1.397725519779491094e-04
1.802173927786637320e+00 2.420975454881101497e-04 1.397725519779491094e-04
1.814228602888889208e+00 1.049089363781810459e-03 2.909422055463973741e-04
1.826283277991140874e+00 8.876910001230704133e-04 2.676311355421857104e-04
1.838337953093392763e+00 2.985869727686691222e-03 4.907643189323041564e-04
1.850392628195644429e+00 4.034959091468505801e-03 5.704571444772862715e-04
1.862447303297896095e+00 7.424324728302050987e-03 7.736094058506093850e-04
1.874501978400147983e+00 8.876910001230704783e-03 8.458180080310081757e-04
1.886556653502399650e+00 1.371886091099288642e-02 1.051108370171858911e-03
1.898611328604651538e+00 1.194347891074675275e-02 9.808705005823193084e-04
1.910666003706903204e+00 1.355746254733414778e-02 1.044919726758481576e-03
1.922720678809154871e+00 1.194347891074675275e-02 9.808705005823193084e-04
1.934775353911406759e+00 1.355746254733414778e-02 1.044919726758481576e-03
1.946830029013658425e+00 1.694682818416767475e-02 1.167958962463058227e-03
1.958884704115910314e+00 2.195017745758859329e-02 1.328738095285126458e-03
1.970939379218161980e+00 3.615323345955766265e-02 1.703454583209915553e-03
1.982994054320413646e+00 4.591783446091139004e-02 1.918353042837910765e-03
1.995048729422665534e+00 5.398775264384867573e-02 2.078841347283276030e-03
2.007103404524916979e+00 6.568913400910807165e-02 2.293903322883475079e-03
2.019158079627168867e+00 6.197697164495681588e-02 2.231853457691755378e-03
2.031212754729420311e+00 6.520493891813182452e-02 2.285537882514233812e-03
2.043267429831672199e+00 6.996619064606494909e-02 2.371959651895291961e-03
2.055322104933924088e+00 8.077988101120123221e-02 2.550533098637935286e-03
2.067376780036175976e+00 9.675831901341749863e-02 2.781073669086780997e-03
2.079431455138427420e+00 1.124139602883162808e-01 2.999551582756392228e-03
2.091486130240679309e+00 1.333150483821244348e-01 3.261139839039387586e-03
2.103540805342931197e+00 1.455813240201894454e-01 3.411115889765266394e-03
2.115595480445182641e+00 1.551038274760556945e-01 3.526290946385311331e-03
2.127650155547434530e+00 1.686612900233906143e-01 3.708009380405651815e-03
2.139704830649686418e+00 1.822187525707257005e-01 3.835079420669014298e-03
2.151759505751937862e+00 2.034426373918497843e-01 4.059318709562049869e-03
2.163814180854189750e+00 2.223262459399185098e-01 4.242177892118055398e-03
2.175868855956441639e+00 2.433080332155505843e-01 4.437180053549591614e-03
2.187923531058693527e+00 2.688896738554558685e-01 4.658218943334045854e-03
2.199978206160944971e+00 2.897100627674298323e-01 4.831458239804935738e-03
2.212032881263196860e+00 2.940678185862143357e-01 4.848468690394196548e-03
2.224087556365448748e+00 3.268316864089323426e-01 5.117873313240361814e-03
2.236142231467700192e+00 3.466836851389532570e-01 5.269108430197023615e-03
2.248196906569952080e+00 3.369997833194310344e-01 5.225841174099007079e-03
2.260251581672203969e+00 3.616130337773840187e-01 5.377618749735690873e-03
2.272306256774455413e+00 3.664549846871454908e-01 5.441103775058424644e-03
2.284360931876707301e+00 3.700057486876370261e-01 5.444186393872741878e-03
2.296415606978959190e+00 3.855806907807023953e-01 5.553841657221244774e-03
2.308470282081211078e+00 3.949417958729074529e-01 5.635588277497898327e-03
2.320524957183462522e+00 3.921173245088797610e-01 5.581665789345677774e-03
2.332579632285714411e+00 4.038187058741359303e-01 5.668343950840314636e-03
2.344634307387966299e+00 3.892121539630231664e-01 5.564258719289365794e-03
2.356688982490217743e+00 3.890507555993641398e-01 5.555024189151863863e-03
2.368743657592469631e+00 3.934085114181495868e-01 5.585234788800364121e-03
2.380798332694721520e+00 4.118886240570716062e-01 5.734478041548965975e-03
2.392853007796972964e+00 4.061589821471877637e-01 5.711542348249011233e-03
2.404907682899224852e+00 4.250425906952571276e-01 5.850610474837082860e-03
2.416962358001476741e+00 4.140675019664652456e-01 5.767128115021414106e-03
2.429017033103728629e+00 4.281898587866009298e-01 5.847282521516715750e-03
2.441071708205980073e+00 4.416666221521028390e-01 5.915529224449614376e-03
2.453126383308231961e+00 4.318213219689226445e-01 5.880162749370561673e-03
2.465181058410483850e+00 4.438455000614956458e-01 5.961272436823391793e-03
2.477235733512735294e+00 4.447331910616187933e-01 5.945705439482629022e-03
2.489290408614987182e+00 4.474769632438175826e-01 5.984713840296284823e-03
2.501345083717239071e+00 4.376316630606361668e-01 5.915846741016707842e-03
2.513399758819490515e+00 4.474769632438173050e-01 5.979270538347851612e-03
2.525454433921742403e+00 4.405368336064925949e-01 5.912141692356957454e-03
2.537509109023994291e+00 4.434420041523488010e-01 5.930420445399294319e-03
2.549563784126246180e+00 4.369053704241722125e-01 5.902719840346294135e-03
2.561618459228497624e+00 4.421508172430800299e-01 5.931584158689183484e-03
2.573673134330749512e+00 4.357755818785613022e-01 5.922450848806947582e-03
2.585727809433001401e+00 4.364211753331957433e-01 5.932863864383786795e-03
2.597782484535252845e+00 4.498172395168681392e-01 5.990754112209163013e-03
2.609837159637504733e+00 4.390035491517355060e-01 5.927268217865299012e-03
2.621891834739756622e+00 4.419894188794215029e-01 5.963483047591664442e-03
2.633946509842008066e+00 4.462664755163770480e-01 5.986348840303093444e-03
2.646001184944259954e+00 4.523996133354077909e-01 6.001441929439833844e-03
2.658055860046511842e+00 4.457015812435713986e-01 5.977603622362254350e-03
2.670110535148763731e+00 4.536908002446781163e-01 6.061814131482701901e-03
2.682165210251015175e+00 4.504628329715040791e-01 6.019450615204078626e-03
2.694219885353267063e+00 4.574836617906565817e-01 6.038452850667596836e-03
2.706274560455518952e+00 4.530452067900432866e-01 6.063471122136883905e-03
2.718329235557770396e+00 4.477997599711349141e-01 5.997466766184796939e-03
2.730383910660022284e+00 4.658763767009094225e-01 6.080172486872631628e-03
2.742438585762274172e+00 4.614379217002959610e-01 6.079438534264275558e-03
2.754493260864525617e+00 4.610344257911486721e-01 6.074986012551293439e-03
2.766547935966777505e+00 4.511891256079674783e-01 6.004169093712748671e-03
2.778602611069029393e+00 4.687815472467664613e-01 6.118059901370619114e-03
2.790657286171281282e+00 4.583713527907801732e-01 6.075810704415384594e-03
2.802711961273532726e+00 4.635361004278588104e-01 6.093563380858342884e-03
2.814766636375784614e+00 4.550626863357766227e-01 6.017978397383295756e-03
2.826821311478036503e+00 4.712025227016471418e-01 6.142377614602018664e-03
2.838875986580287947e+00 4.637781979733467397e-01 6.124788454707782645e-03
2.850930661682539835e+00 4.610344257911491161e-01 6.071769174219837639e-03
2.862985336784791723e+00 4.512698247897976023e-01 6.020884521642309861e-03
2.875040011887043168e+00 4.595818405182202082e-01 6.095575737168824025e-03
2.887094686989295056e+00 4.571608650633402493e-01 6.062426971248653651e-03
2.899149362091546944e+00 4.444103943343024055e-01 5.976585149393868340e-03
2.911204037193798833e+00 4.555468814267526478e-01 6.031588727677493836e-03
2.923258712296050277e+00 4.492523452440637111e-01 6.018919855759926642e-03
2.935313387398302165e+00 4.611151249729781298e-01 6.074376044726760744e-03
2.947368062500554053e+00 4.591783446090736409e-01 6.070785620026036139e-03
2.959422737602805498e+00 4.620835151549302355e-01 6.078846543872803293e-03
2.971477412705057386e+00 4.566766699723636136e-01 6.031637058636022536e-03
2.983532087807309274e+00 4.561117756995574091e-01 6.044555776604753662e-03
2.995586762909560719e+00 4.642623930643231533e-01 6.098771665424850864e-03
3.007641438011812607e+00 4.426350123340562215e-01 5.960720274278839305e-03
3.019696113114064495e+00 4.666026693373740986e-01 6.109953031558595579e-03
3.031750788216316383e+00 4.590976454272444607e-01 6.054209241204451010e-03
3.043805463318567828e+00 4.629712061550541047e-01 6.118078868041283702e-03
3.055860138420819716e+00 4.541749953356534752e-01 6.026897458541190071e-03
3.067914813523071604e+00 4.499786378805268328e-01 6.015559003837554590e-03
3.079969488625323049e+00 4.498172395168683058e-01 6.022196575497275328e-03
3.092024163727574937e+00 4.539328977901648798e-01 6.048150873068536271e-03
3.104078838829826825e+00 4.542556945174825445e-01 6.024122026404126959e-03
3.116133513932078269e+00 4.580485560634618980e-01 6.069670381588306192e-03
3.128188189034330158e+00 4.566766699723626144e-01 6.048887588759206506e-03
3.140242864136582046e+00 4.610344257911483390e-01 6.074986012551287368e-03
3.152297539238833490e+00 4.553854830630936767e-01 6.047909406283689601e-03
3.164352214341085379e+00 4.467506706073520739e-01 5.978292359865373246e-03
3.176406889443337267e+00 4.463471746982053401e-01 5.962840888204279724e-03
3.188461564545589155e+00 4.475576624256457081e-01 5.983008501570860095e-03
3.200516239647840600e+00 4.408596303338099265e-01 5.944806660162904773e-03
3.212570914750092488e+00 4.506242313351618289e-01 6.032273751577148062e-03
3.224625589852344376e+00 4.423929147885679036e-01 6.008273289683728133e-03
3.236680264954595820e+00 4.521575157899193065e-01 5.995691199950452070e-03
3.248734940056847709e+00 4.429578090613732755e-01 5.961523287801029358e-03
3.260789615159099597e+00 4.390035491517352284e-01 5.941534299586442511e-03
3.272844290261351041e+00 4.495751419713802655e-01 6.025117588833084695e-03
3.284898965363602930e+00 4.452980853344244982e-01 5.980689503230466816e-03
3.296953640465854818e+00 4.389228499699051045e-01 5.957477947358779183e-03
3.309008315568106706e+00 4.336774031509975091e-01 5.917710571276142348e-03
3.321062990670358150e+00 4.557889789722404661e-01 6.048080868711486376e-03
3.333117665772610039e+00 4.440875976069842412e-01 5.972514838691500745e-03
3.345172340874861927e+00 4.448138902434480291e-01 5.947275312813860883e-03
3.357227015977113371e+00 4.482032558802806488e-01 5.985689905510574275e-03
3.369281691079365260e+00 4.384386548789293014e-01 5.938200651956044088e-03
3.381336366181617148e+00 4.434420041523486344e-01 5.946869546042510279e-03
3.393391041283868592e+00 4.440068984251546724e-01 5.950192602592141965e-03
3.405445716386120480e+00 4.438455000614959234e-01 5.956901056962995641e-03
3.417500391488372369e+00 4.501400362441862479e-01 6.018660189568265061e-03
3.429555066590624257e+00 4.389228499699054376e-01 5.925692088886018970e-03
3.441609741692875701e+00 4.377123622424657357e-01 5.939395700835594510e-03
3.453664416795127590e+00 4.420701180612508496e-01 5.962864785186927641e-03
3.465719091897379478e+00 4.478804591529638168e-01 5.975092330681191187e-03
3.477773766999630922e+00 4.436034025160079941e-01 5.950008673821883393e-03
3.489828442101882811e+00 4.443296951524713378e-01 5.944426527713538716e-03
3.501883117204134699e+00 4.376316630606351676e-01 5.894893812544599321e-03
3.513937792306386143e+00 4.475576624256468738e-01 6.005822988041057894e-03
3.525992467408638031e+00 4.406175327883222193e-01 5.953233391383754014e-03
3.538047142510889920e+00 4.494137436077217385e-01 6.018774398616859311e-03
3.550101817613141808e+00 4.402947360610043881e-01 5.951333559324244529e-03
3.562156492715393252e+00 4.503821337896741217e-01 6.039504992955454198e-03
3.574211167817645141e+00 4.445717926979602663e-01 5.967716499664619222e-03
3.586265842919897029e+00 4.466699714255227271e-01 5.958178636976443551e-03
3.598320518022148473e+00 4.375509638788065425e-01 5.915368366540639695e-03
3.610375193124400361e+00 4.539328977901652129e-01 6.029818306812396826e-03
3.622429868226652250e+00 4.368246712423425326e-01 5.939636410390277191e-03
3.634484543328903694e+00 4.468313697891824754e-01 5.977674853207617066e-03
3.646539218431155582e+00 4.342422974238035471e-01 5.908950356776762267e-03
3.658593893533407471e+00 4.348878908784381547e-01 5.920489212154698457e-03
3.670648568635659359e+00 4.279477612411133336e-01 5.859178659336247534e-03
3.682703243737910803e+00 4.282705579684309982e-01 5.879975139233115447e-03
3.694757918840162692e+00 4.373895655151482376e-01 5.949542322412347192e-03
3.706812593942414580e+00 4.237514037859868021e-01 5.829440709844435804e-03
3.718867269044666024e+00 4.344036957874614080e-01 5.884510012901372593e-03
3.730921944146917912e+00 4.415859229702739919e-01 5.937030270569189708e-03
3.742976619249169801e+00 4.356948826967307897e-01 5.896625494568637736e-03
3.755031294351421245e+00 4.552240846994344281e-01 6.034041855950211287e-03
3.767085969453673133e+00 4.523996133354067362e-01 5.994927600652345291e-03
3.779140644555925022e+00 4.452980853344241652e-01 5.968699612076038344e-03
3.791195319658176910e+00 4.540135969719945042e-01 6.022720617339682482e-03
3.803249994760428354e+00 4.563538732450458935e-01 6.040562990910523095e-03
3.815304669862680242e+00 4.617607184276130150e-01 6.113326939112062076e-03
3.827359344964932131e+00 4.644237914279811252e-01 6.112489482494951575e-03
3.839414020067183575e+00 4.651500840644452461e-01 6.126190576938301061e-03
3.851468695169435463e+00 4.659570758827390469e-01 6.116938970795484515e-03
3.863523370271687352e+00 4.582906536089506599e-01 6.057098001825435112e-03
3.875578045373938796e+00 4.624063118822477336e-01 6.092462067423132926e-03
3.887632720476190684e+00 4.632133037005405907e-01 6.103470200825874756e-03
3.899687395578442572e+00 4.582099544271209246e-01 6.064156142103569597e-03
3.911742070680694461e+00 4.581292552452921329e-01 6.074423200466034199e-03
3.923796745782945905e+00 4.571608650633392501e-01 6.062426971248646712e-03
3.935851420885197793e+00 4.460243779708888967e-01 5.990372840150500269e-03
3.947906095987449682e+00 4.603888323365138424e-01 6.109781272424379822e-03
3.959960771089701126e+00 4.544977920629711399e-01 6.068600824259752849e-03
3.972015446191953014e+00 4.490102476985748381e-01 6.029407624695185854e-03
3.984070121294204903e+00 4.354527851512429715e-01 5.920537952094724263e-03
3.996124796396456347e+00 4.549012879721170965e-01 6.051578568080791774e-03
4.008179471498708679e+00 4.492523452440624898e-01 5.995069013810599805e-03
4.020234146600960123e+00 4.574029626088277900e-01 6.055219831892449597e-03
4.032288821703212456e+00 4.498979386986975415e-01 6.024826709320013803e-03
4.044343496805463900e+00 4.583713527907801177e-01 6.054335752002136008e-03
4.056398171907715344e+00 4.476383616074759431e-01 5.998697942604164744e-03
4.068452847009967677e+00 4.598239380637078599e-01 6.060532421655881637e-03
4.080507522112219121e+00 4.545784912448002091e-01 6.037866008384981317e-03
4.092562197214471453e+00 4.447331910616195705e-01 5.981741284747829970e-03
4.104616872316722898e+00 4.515926215171137126e-01 5.983702181160507200e-03
4.116671547418974342e+00 4.366632728786840612e-01 5.910102813805415828e-03
4.128726222521226674e+00 4.386000532425876064e-01 5.923782309184005487e-03
4.140780897623478118e+00 4.376316630606353342e-01 5.922448054527204228e-03
4.152835572725729563e+00 4.394877442427107539e-01 5.924637045010032986e-03
4.164890247827981895e+00 4.340808990601444095e-01 5.893644046307604419e-03
4.176944922930233339e+00 4.336774031509969540e-01 5.893450148740084216e-03
4.188999598032484784e+00 4.319827203325806164e-01 5.874479324714416972e-03
4.201054273134737116e+00 4.348071916966082529e-01 5.902383582891672191e-03
4.213108948236988560e+00 4.388421507880756467e-01 5.926313711964071793e-03
4.225163623339240004e+00 4.497365403350373492e-01 5.961950705164420494e-03
4.237218298441492337e+00 4.307722326051408590e-01 5.900438198732313629e-03
4.249272973543743781e+00 4.445717926979604329e-01 5.963349843568282668e-03
4.261327648645995225e+00 4.283512571502598454e-01 5.846025938924461103e-03
4.273382323748247558e+00 4.299652407868473358e-01 5.874603228853680741e-03
4.285436998850499002e+00 4.210883307856176927e-01 5.815555101776797957e-03
4.297491673952750446e+00 4.344036957874612970e-01 5.911011019566542700e-03
4.309546349055002779e+00 4.206848348764715140e-01 5.801893870798500823e-03
4.321601024157254223e+00 4.220567209675699094e-01 5.796760210818529060e-03
4.333655699259506555e+00 4.186673553307370121e-01 5.777225473864562588e-03
4.345710374361757999e+00 4.256074849680618333e-01 5.852897040755330668e-03
4.357765049464009444e+00 4.276249645137952249e-01 5.823788943946844182e-03
4.369819724566261776e+00 4.247197939679391854e-01 5.857567975883553810e-03
4.381874399668513220e+00 4.216532250584236197e-01 5.814500990378977836e-03
4.393929074770764664e+00 4.256881841498913466e-01 5.828854350734572962e-03
4.405983749873016997e+00 4.266565743318435633e-01 5.851418441833742060e-03
4.418038424975268441e+00 4.281091596047720271e-01 5.863480662290371757e-03
4.430093100077519885e+00 4.258495825135502066e-01 5.828712027428013635e-03
4.442147775179772218e+00 4.146323962392690632e-01 5.743440498391652431e-03
4.454202450282023662e+00 4.148744937847578251e-01 5.773200100675137530e-03
4.466257125384275106e+00 4.173761684214675194e-01 5.781733300472414148e-03
4.478311800486527439e+00 4.238321029678162044e-01 5.826576308640608708e-03
4.490366475588778883e+00 4.263337776045265093e-01 5.867262372795305735e-03
4.502421150691030327e+00 4.168919733304924380e-01 5.810243914029610338e-03
4.514475825793282660e+00 4.180217618761031262e-01 5.801411385026828370e-03
4.526530500895534104e+00 4.168919733304919384e-01 5.774265618401237983e-03
4.538585175997785548e+00 4.171340708759805893e-01 5.821791504538525314e-03
4.550639851100037880e+00 4.128570142390239894e-01 5.744984240158015724e-03
4.562694526202289325e+00 4.099518436931672283e-01 5.720236687197685979e-03
4.574749201304541657e+00 3.966364786913243456e-01 5.653191020011089259e-03
4.586803876406793101e+00 3.988153566007169859e-01 5.662276956404663740e-03
4.598858551509044545e+00 3.981697631460812126e-01 5.643241229206744959e-03
4.610913226611296878e+00 4.056747870562120162e-01 5.721071497051451529e-03
4.622967901713548322e+00 4.022854214193783973e-01 5.671382645341157235e-03
4.635022576815799766e+00 3.985732590552285570e-01 5.640011421012880270e-03
4.647077251918052099e+00 4.105974371478013363e-01 5.702573275150742312e-03
4.659131927020303543e+00 3.927629179635142020e-01 5.586949032718609848e-03
4.671186602122554987e+00 4.098711445113376595e-01 5.726564622006355236e-03
4.683241277224807320e+00 3.952645926002251175e-01 5.636470585369340869e-03
4.695295952327058764e+00 3.921173245088798165e-01 5.582832408361168043e-03
4.707350627429310208e+00 4.025275189648668817e-01 5.694667297500574134e-03
4.719405302531562540e+00 3.997837467826684255e-01 5.676386672360797525e-03
4.731459977633813985e+00 3.955873893275421715e-01 5.646586694402486346e-03
4.743514652736065429e+00 3.952645926002243404e-01 5.614475136440843714e-03
4.755569327838317761e+00 4.003486410554743524e-01 5.644265188711986014e-03
4.767624002940569206e+00 3.935699097818083358e-01 5.617651318450769642e-03
4.779678678042820650e+00 4.009135353282798908e-01 5.680012669017441181e-03
4.791733353145072982e+00 4.018012263284024277e-01 5.670648680854393185e-03
4.803788028247324426e+00 4.050291936015765759e-01 5.696528210643898339e-03
4.815842703349575871e+00 4.093869494203616344e-01 5.716739339445988007e-03
4.827897378451828203e+00 4.047870960560884246e-01 5.703019934338350756e-03
4.839952053554079647e+00 4.105974371478018359e-01 5.715121506435178605e-03
4.852006728656331980e+00 4.160849815121979711e-01 5.787359519112104597e-03
4.864061403758583424e+00 4.116465265115835104e-01 5.737526215455189017e-03
4.876116078860834868e+00 4.126956158753651849e-01 5.736048701521842021e-03
4.888170753963087201e+00 4.138254044209762617e-01 5.752073768720073615e-03
4.900225429065338645e+00 4.059168846017000565e-01 5.699765772571331428e-03
4.912280104167590089e+00 4.139061036028060525e-01 5.776294456917838160e-03
4.924334779269842421e+00 4.158428839667099863e-01 5.755411123748627004e-03
4.936389454372093866e+00 4.168112741486623141e-01 5.771515731533923346e-03
4.948444129474345310e+00 4.054326895107236983e-01 5.693322763372619250e-03
4.960498804576597642e+00 4.084185592384098618e-01 5.731227249113187740e-03
4.972553479678849087e+00 4.114851281479250944e-01 5.752402296116461422e-03
4.984608154781100531e+00 4.021240230557198703e-01 5.643895396492367919e-03
4.996662829883352863e+00 4.045449985106002733e-01 5.672886986753496001e-03
5.008717504985604307e+00 4.080957625110925302e-01 5.715575348577701942e-03
5.020772180087855752e+00 4.063203805108465683e-01 5.690842474366000249e-03
5.032826855190108084e+00 4.130991117845129179e-01 5.760057606864345953e-03
5.044881530292359528e+00 4.185059569670792623e-01 5.777366643327955069e-03
5.056936205394610973e+00 4.105167379659733773e-01 5.747574981612236893e-03
5.068990880496863305e+00 4.145516970574404936e-01 5.736135972926015639e-03
5.081045555599114749e+00 4.146323962392704510e-01 5.763814157716302608e-03
5.093100230701367082e+00 4.147130954210999088e-01 5.778977362595960447e-03
5.105154905803618526e+00 4.085799576020682777e-01 5.706034541118907948e-03
5.117209580905869970e+00 4.118079248752430921e-01 5.744192801672534307e-03
5.129264256008122302e+00 4.202006397854955999e-01 5.784331612105919965e-03
5.141318931110373747e+00 4.033345107831607379e-01 5.687111445351050211e-03
5.153373606212625191e+00 4.143095995119522867e-01 5.740319228586671964e-03
5.165428281314877523e+00 4.202813389673250022e-01 5.799440236979827579e-03
5.177482956417128968e+00 4.231865095131816523e-01 5.819314377319842815e-03
5.189537631519380412e+00 4.064010796926759150e-01 5.709623816298504961e-03
5.201592306621632744e+00 4.166498757850041201e-01 5.798673205450058724e-03
5.213646981723884188e+00 4.041415026014537615e-01 5.672660181571889844e-03
5.225701656826135633e+00 4.215725258765947725e-01 5.816251397167908517e-03
5.237756331928387965e+00 4.258495825135501511e-01 5.852128068702616356e-03
5.249811007030639409e+00 4.161656806940280395e-01 5.767563341061988404e-03
5.261865682132890853e+00 4.211690299674475391e-01 5.805958191892304082e-03
5.273920357235143186e+00 4.197971438763491436e-01 5.812201767423284988e-03
5.285975032337394630e+00 4.236707046041583991e-01 5.846801488692974537e-03
5.298029707439646074e+00 4.218953226039121041e-01 5.820446060127028309e-03
5.310084382541898407e+00 4.193129487853720638e-01 5.769892110674181181e-03
5.322139057644149851e+00 4.281898587866015404e-01 5.847282521516720954e-03
5.334193732746402183e+00 4.256074849680626659e-01 5.842874406199387999e-03
5.346248407848653628e+00 4.307722326051408590e-01 5.882752373058531756e-03
5.358303082950905072e+00 4.385193540607590923e-01 5.935386327523019950e-03
5.370357758053157404e+00 4.351299884239258620e-01 5.883308746226650204e-03
5.382412433155408849e+00 4.285126555139193161e-01 5.864790697706600761e-03
5.394467108257660293e+00 4.195550463308606037e-01 5.797267358162280261e-03
5.406521783359912625e+00 4.252846882407454454e-01 5.834235114432755921e-03
5.418576458462164069e+00 4.168112741486632578e-01 5.788416413647298926e-03
5.430631133564415514e+00 4.282705579684313313e-01 5.872217181502103166e-03
5.442685808666667846e+00 4.305301350596529852e-01 5.879090595519617136e-03
5.454740483768919290e+00 4.076922666019454078e-01 5.726736425490081168e-03
5.466795158871170734e+00 4.253653874225749587e-01 5.846986821977474998e-03
5.478849833973423067e+00 4.148744937847581027e-01 5.763038864988914538e-03
5.490904509075674511e+00 4.033345107831604048e-01 5.687111445351051078e-03
5.502959184177925955e+00 4.101939412386551576e-01 5.716040962365581679e-03
5.515013859280178288e+00 4.168112741486630912e-01 5.777154785776729765e-03
5.527068534382429732e+00 4.072887706927991736e-01 5.710571030678630866e-03
5.539123209484681176e+00 4.149551929665881711e-01 5.775949512295082931e-03
5.551177884586933509e+00 4.043836001469421904e-01 5.689074521426918697e-03
5.563232559689184953e+00 4.174568676032979209e-01 5.788979816274832102e-03
5.575287234791437285e+00 4.210883307856184699e-01 5.797610342845439454e-03
5.587341909893688729e+00 4.153586888757344053e-01 5.771651564886343469e-03
5.599396584995940174e+00 4.043836001469421904e-01 5.683348074055435788e-03
5.611451260098192506e+00 4.114044289660958031e-01 5.729216976427981521e-03
5.623505935200443950e+00 4.009135353282803349e-01 5.674277076484667698e-03
5.635560610302695395e+00 4.009942345101093486e-01 5.660994160566971099e-03
5.647615285404947727e+00 4.016398279647441782e-01 5.663892089160282688e-03
5.659669960507199171e+00 3.990574541462053038e-01 5.659194878079673412e-03
5.671724635609450615e+00 3.957487876912008651e-01 5.626808978547890791e-03
5.683779310711702948e+00 4.085799576020688884e-01 5.715157732872204986e-03
5.695833985813954392e+00 3.940541048727842499e-01 5.604474160966717300e-03
5.707888660916205836e+00 3.991381533280344840e-01 5.676935102582162523e-03
5.719943336018458169e+00 3.991381533280339844e-01 5.638951723003683518e-03
5.731998011120709613e+00 4.017205271465732475e-01 5.670143463618988570e-03
5.744052686222961057e+00 3.991381533280337623e-01 5.632018131983512581e-03
5.756107361325213390e+00 3.908261375996103237e-01 5.608363458533889567e-03
5.768162036427464834e+00 3.991381533280337623e-01 5.640106492812175382e-03
5.780216711529716278e+00 3.883244629629002964e-01 5.563251773508104750e-03
5.792271386631968610e+00 3.915524302360747222e-01 5.586226245895599581e-03
5.804326061734220055e+00 3.913103326905870705e-01 5.619556573077345504e-03
5.816380736836472387e+00 3.846929997805799140e-01 5.565711670333286371e-03
5.828435411938723831e+00 3.900998449631467579e-01 5.588618361224914621e-03
5.840490087040975276e+00 3.854192924170436463e-01 5.561007792815565558e-03
5.852544762143227608e+00 3.858227883261900470e-01 5.542487513641477029e-03
5.864599437245479052e+00 3.909875359632691283e-01 5.598930224915398164e-03
5.876654112347730496e+00 3.868718776899727207e-01 5.573828272796158348e-03
5.888708787449982829e+00 3.905840400541222279e-01 5.575376224013418001e-03
5.900763462552234273e+00 3.821106259620400403e-01 5.526769950680328683e-03
5.912818137654485717e+00 3.859034875080197269e-01 5.551225215129193882e-03
5.924872812756738050e+00 3.946189991455900659e-01 5.624294164460761150e-03
5.936927487858989494e+00 3.654058953233637608e-01 5.418569654120770386e-03
5.948982162961240938e+00 3.783177644160606312e-01 5.505724076090348466e-03
5.961036838063493271e+00 3.796089513253295133e-01 5.484502112788098779e-03
5.973091513165744715e+00 3.828369185985042167e-01 5.533817832639956885e-03
5.985146188267996159e+00 3.809808374164294631e-01 5.514736794259512444e-03
5.997200863370248491e+00 3.913910318724162507e-01 5.603821901384833243e-03
6.009255538472499936e+00 3.887279588720466417e-01 5.568177123456117400e-03
6.021310213574751380e+00 3.913910318724159731e-01 5.609629531610768084e-03
6.033364888677003712e+00 3.959101860548597251e-01 5.642852366362493578e-03
6.045419563779255157e+00 3.951031942365665350e-01 5.625041640740275836e-03
6.057474238881507489e+00 3.994609500553507608e-01 5.662877676029372427e-03
6.069528913983758933e+00 4.036573075104772368e-01 5.667333740149103558e-03
6.081583589086010377e+00 3.958294868730306559e-01 5.629633195147010737e-03
6.093638264188262710e+00 3.984118606915705851e-01 5.682710283822036725e-03
6.105692939290514154e+00 3.886472596902181831e-01 5.589839983799340696e-03
6.117747614392765598e+00 4.051905919652357135e-01 5.728311012912666415e-03
6.129802289495017931e+00 3.943769016001013594e-01 5.623920200347616236e-03
6.141856964597269375e+00 3.891314547811938196e-01 5.573097767852709314e-03
6.153911639699520819e+00 3.967978770549827061e-01 5.631123615451631530e-03
6.165966314801773152e+00 3.982504623279111700e-01 5.649516052945712311e-03
6.178020989904024596e+00 4.026889173285254087e-01 5.679643072593137942e-03
6.190075665006276040e+00 4.013170312374264026e-01 5.663018440517433860e-03
6.202130340108528372e+00 4.005907386009619486e-01 5.669959858108438062e-03
6.214185015210779817e+00 4.033345107831610155e-01 5.689401200797379772e-03
6.226239690313031261e+00 4.055133886925527675e-01 5.694968931844896290e-03
6.238294365415283593e+00 4.023661206012081881e-01 5.669590826602469158e-03
6.250349040517535038e+00 4.030117140558427402e-01 5.682805637348582739e-03
6.262403715619786482e+00 4.152779896939050586e-01 5.785808495354936680e-03
6.274458390722038814e+00 3.988960557825454445e-01 5.620071268853974594e-03
6.286513065824290258e+00 4.034959091468184322e-01 5.675510320461390860e-03
6.298567740926541703e+00 4.101132420568255332e-01 5.730334403755999242e-03
6.310622416028794035e+00 4.133412093299995704e-01 5.721845881086584477e-03
6.322677091131045479e+00 4.125342175117063248e-01 5.758850311385163567e-03
6.334731766233297812e+00 4.118079248752424815e-01 5.726024405156938078e-03
6.346786441335549256e+00 4.202813389673240585e-01 5.788200057301236094e-03
6.358841116437800700e+00 4.057554862380407523e-01 5.693045146151497031e-03
6.370895791540053033e+00 4.089834535112138458e-01 5.693688461696597321e-03
6.382950466642304477e+00 4.089834535112147895e-01 5.709679003359037497e-03
6.395005141744555921e+00 4.091448518748734831e-01 5.734577928931790247e-03
6.407059816846808253e+00 4.095483477840208830e-01 5.727980465544737880e-03
6.419114491949059698e+00 4.118079248752420374e-01 5.724886965919672582e-03
6.431169167051311142e+00 4.278670620592837648e-01 5.849794715657117075e-03
6.443223842153563474e+00 4.202006397854950448e-01 5.788833307531949732e-03
6.455278517255814918e+00 4.225409160585468227e-01 5.814283062640186392e-03
6.467333192358066363e+00 4.297231432413591845e-01 5.860944180245000225e-03
6.479387867460318695e+00 4.279477612411132226e-01 5.843597225979841464e-03
6.491442542562570139e+00 4.298038424231888088e-01 5.882500428311867452e-03
6.503497217664821584e+00 4.218953226039112159e-01 5.785656932974557118e-03
6.515551892767073916e+00 4.260916800590383580e-01 5.840218619301693580e-03
6.527606567869325360e+00 4.280284604229425138e-01 5.862996432882975652e-03
6.539661242971576804e+00 4.296424440595297267e-01 5.853788792587018112e-03
6.551715918073829137e+00 4.176182659669558372e-01 5.768554009424910894e-03
6.563770593176080581e+00 4.293196473322120621e-01 5.849623200057841796e-03
6.575825268278332913e+00 4.312564276961177723e-01 5.877893999326997375e-03
6.587879943380584358e+00 4.201199406036658646e-01 5.761276261976084126e-03
6.599934618482835802e+00 4.248811923315983230e-01 5.844069697701442974e-03
6.611989293585088134e+00 4.236707046041579550e-01 5.828952924312279585e-03
6.624043968687339579e+00 4.254460866044039724e-01 5.858599282178753379e-03
6.636098643789591023e+00 4.264951759681854249e-01 5.842650284105486980e-03
6.648153318891843355e+00 4.401333376973458056e-01 5.949288792457429163e-03
6.660207993994094799e+00 4.330318096963632901e-01 5.901752492372562553e-03
6.672262669096346244e+00 4.317406227870930757e-01 5.869703607830325555e-03
6.684317344198598576e+00 4.290775497867246324e-01 5.862626082056225651e-03
6.696372019300850020e+00 4.295617448777007130e-01 5.875513784218726158e-03
6.708426694403101465e+00 4.375509638788068756e-01 5.941731741956238211e-03
6.720481369505353797e+00 4.346457933329500589e-01 5.887060385846544334e-03
6.732536044607605241e+00 4.347264925147796277e-01 5.910724526841351807e-03
6.744590719709856685e+00 4.377123622424649585e-01 5.911920448864976634e-03
6.756645394812109018e+00 4.328704113327043190e-01 5.907410024022617320e-03
6.768700069914360462e+00 4.323862162417280719e-01 5.885750291510854007e-03
6.780754745016611906e+00 4.319827203325816711e-01 5.885554731327859689e-03
6.792809420118864239e+00 4.331932080600206514e-01 5.878390569471798541e-03
6.804864095221115683e+00 4.431999066068609272e-01 5.910289394441184570e-03
6.816918770323368015e+00 4.286740538775773990e-01 5.867978691657989819e-03
6.828973445425619460e+00 4.288354522412369252e-01 5.864505861475768217e-03
6.841028120527870904e+00 4.409403295156397173e-01 5.955132406124524769e-03
6.853082795630123236e+00 4.467506706073529066e-01 5.960837532234128378e-03
6.865137470732374680e+00 4.534487026991892988e-01 6.017284775743577362e-03
6.877192145834626125e+00 4.450559877889367355e-01 5.959636493461834689e-03
6.889246820936878457e+00 4.454594836980830808e-01 5.964188179125880403e-03
6.901301496039129901e+00 4.437648008796669652e-01 5.962983385318658749e-03
6.913356171141381346e+00 4.343229966056327274e-01 5.912734956388782624e-03
6.925410846243633678e+00 4.401333376973461942e-01 5.942717294359921125e-03
6.937465521345885122e+00 4.263337776045263428e-01 5.837216838702458284e-03
6.949520196448136566e+00 4.305301350596528187e-01 5.876874747562300071e-03
6.961574871550388899e+00 4.279477612411142218e-01 5.893533808742679007e-03
6.973629546652640343e+00 4.317406227870936308e-01 5.885215923508532732e-03
6.985684221754891787e+00 4.397298417881992383e-01 5.931560937556549541e-03
6.997738896857144120e+00 4.231058103313521945e-01 5.837820834517213654e-03
7.009793571959395564e+00 4.200392414218365178e-01 5.794596773923816474e-03
7.021848247061647008e+00 4.291582489685537016e-01 5.850879332557762380e-03
7.033902922163899341e+00 4.284319563320894142e-01 5.843168901119050185e-03
7.045957597266150785e+00 4.223795176948882957e-01 5.813304487701861575e-03
7.058012272368403117e+00 4.336774031509973981e-01 5.874634838477625111e-03
7.070066947470654561e+00 4.340808990601443540e-01 5.869284146713996640e-03
7.082121622572906006e+00 4.256881841498914021e-01 5.832205173839907775e-03
7.094176297675158338e+00 4.319827203325810050e-01 5.865603942419773779e-03
7.106230972777409782e+00 4.448945894252782085e-01 5.979418534236100036e-03
7.118285647879661227e+00 4.278670620592837093e-01 5.855358383123033909e-03
7.130340322981913559e+00 4.290775497867235777e-01 5.873723839010860752e-03
7.142394998084165003e+00 4.349685900602671129e-01 5.915465651311240143e-03
7.154449673186416447e+00 4.210883307856189139e-01 5.820032646419229065e-03
7.166504348288668780e+00 4.125342175117061583e-01 5.728236166548377785e-03
7.178559023390920224e+00 4.266565743318433412e-01 5.858092358166361660e-03
7.190613698493171668e+00 4.178603635124447657e-01 5.798183211182683476e-03
7.202668373595424001e+00 4.068852747836516071e-01 5.695502935723824670e-03
7.214723048697675445e+00 4.051905919652358246e-01 5.690670561198683981e-03
7.226777723799926889e+00 3.944576007819317054e-01 5.622114625309865624e-03
7.238832398902179222e+00 3.809808374164291300e-01 5.510011165721563631e-03
7.250887074004430666e+00 3.832404145076506174e-01 5.502204399574858566e-03
7.262941749106682110e+00 3.800124472344765247e-01 5.487132683196910103e-03
7.274996424208934442e+00 3.780756668705727019e-01 5.488747568125019669e-03
7.287051099311185887e+00 3.623393264138479175e-01 5.369150330089746820e-03
7.299105774413438219e+00 3.613709362318959784e-01 5.361442227148056558e-03
7.311160449515689663e+00 3.537852131399368272e-01 5.329801790702144715e-03
7.323215124617941107e+00 3.408733440472395682e-01 5.231528497334201645e-03
7.335269799720193440e+00 3.342560111372326337e-01 5.179158814421780561e-03
7.347324474822444884e+00 3.181968739531910173e-01 5.036632991768133852e-03
7.359379149924696328e+00 2.940678185862143357e-01 4.848468690394195681e-03
7.371433825026948661e+00 2.621916417636193652e-01 4.577548589647665624e-03
7.383488500129200105e+00 2.550901137626364057e-01 4.523746709258246249e-03
7.395543175231451549e+00 2.319294485776118575e-01 4.306862031329490928e-03
7.407597850333703882e+00 2.138528318478364887e-01 4.131627926379300222e-03
7.419652525435955326e+00 2.083652874834405477e-01 4.082707914074613399e-03
7.431707200538206770e+00 1.897237764808576976e-01 3.905603110595263529e-03
7.443761875640459102e+00 1.823801509343845606e-01 3.814554650873219419e-03
7.455816550742710547e+00 1.662403145685094619e-01 3.661619056211492130e-03
7.467871225844961991e+00 1.613176644769175883e-01 3.597011659317594662e-03
7.479925900947214323e+00 1.522793561120276140e-01 3.485993778085569230e-03
7.491980576049465768e+00 1.358974222006644750e-01 3.293639422628363844e-03
7.504035251151717212e+00 1.219364637441825300e-01 3.126963714612514961e-03
7.516089926253969544e+00 1.053124322873312674e-01 2.901178802496014869e-03
7.528144601356220988e+00 9.127077464901996173e-02 2.709808243098389257e-03
7.540199276458473321e+00 8.457274255718184863e-02 2.600894973562126612e-03
7.552253951560724765e+00 7.634142601058556410e-02 2.478393317765719729e-03
7.564308626662976209e+00 8.102197855668934190e-02 2.556815987281421589e-03
7.576363301765228542e+00 7.763261291985558421e-02 2.498845959667209387e-03
7.588417976867479986e+00 6.932059719142993903e-02 2.358422048948456175e-03
7.600472651969731430e+00 5.786131337165867361e-02 2.157543440224685312e-03
7.612527327071983763e+00 4.995279355237990798e-02 2.006757545786992929e-03
7.624582002174235207e+00 3.857420891443875260e-02 1.762943271257638202e-03
7.636636677276486651e+00 3.599183509589892055e-02 1.699668605706810545e-03
7.648691352378738983e+00 3.050429073150178264e-02 1.565387531462697100e-03
7.660746027480990428e+00 2.848681118576754101e-02 1.512965931371319924e-03
7.672800702583241872e+00 3.066568909516052474e-02 1.569504270605276246e-03
7.684855377685494204e+00 2.832541282210880237e-02 1.508692111403991346e-03
7.696910052787745649e+00 2.243437254856481267e-02 1.343264544254257811e-03
7.708964727889997093e+00 1.565564127489775872e-02 1.122692564440890516e-03
7.721019402992249425e+00 1.428375518379847511e-02 1.072485127920636298e-03
7.733074078094500869e+00 1.218557645623486244e-02 9.907439088244660800e-04
7.745128753196752314e+00 1.153998300159990442e-02 9.641885384160828144e-04
7.757183428299004646e+00 1.194347891074675275e-02 9.808705005823193084e-04
7.769238103401256090e+00 1.089438954696494641e-02 9.368754022361152831e-04
7.781292778503507535e+00 8.231316546595746769e-03 8.145198428398510654e-04
7.793347453605759867e+00 7.505023910131420305e-03 7.777977414044256934e-04
7.805402128708011311e+00 3.873560727809764563e-03 5.589383211198589285e-04
7.817456803810263644e+00 2.743772182198581100e-03 4.704564681429117615e-04
7.829511478912515088e+00 1.049089363781810459e-03 2.909422055463973741e-04
7.841566154014766532e+00 1.613983636587401269e-04 1.141244996743528723e-04
7.853620829117018864e+00 8.069918182937006344e-05 8.069869472578355268e-05
7.865675504219270309e+00 0.000000000000000000e+00 0.000000000000000000e+00
7.877730179321521753e+00 0.000000000000000000e+00 0.000000000000000000e+00
7.889784854423774085e+00 0.000000000000000000e+00 0.000000000000000000e+00
7.901839529526025530e+00 0.000000000000000000e+00 0.000000000000000000e+00
7.913894204628276974e+00 0.000000000000000000e+00 0.000000000000000000e+00
7.925948879730529306e+00 0.000000000000000000e+00 0.000000000000000000e+00
7.938003554832780750e+00 0.000000000000000000e+00 0.000000000000000000e+00
7.950058229935032195e+00 0.000000000000000000e+00 0.000000000000000000e+00
7.962112905037284527e+00 0.000000000000000000e+00 0.000000000000000000e+00
7.974167580139535971e+00 0.000000000000000000e+00 0.000000000000000000e+00
7.986222255241787416e+00 0.000000000000000000e+00 0.000000000000000000e+00
7.998276930344039748e+00 0.000000000000000000e+00 0.000000000000000000e+00
8.010331605446291192e+00 0.000000000000000000e+00 0.000000000000000000e+00
8.022386280548543525e+00 0.000000000000000000e+00 0.000000000000000000e+00
8.034440955650794081e+00 0.000000000000000000e+00 0.000000000000000000e+00
8.046495630753046413e+00 0.000000000000000000e+00 0.000000000000000000e+00
8.058550305855298745e+00 0.000000000000000000e+00 0.000000000000000000e+00
8.070604980957549301e+00 0.000000000000000000e+00 0.000000000000000000e+00
8.082659656059801634e+00 0.000000000000000000e+00 0.000000000000000000e+00
8.094714331162053966e+00 0.000000000000000000e+00 0.000000000000000000e+00
8.106769006264304522e+00 0.000000000000000000e+00 0.000000000000000000e+00
8.118823681366556855e+00 0.000000000000000000e+00 0.000000000000000000e+00
8.130878356468809187e+00 0.000000000000000000e+00 0.000000000000000000e+00
8.142933031571059743e+00 0.000000000000000000e+00 0.000000000000000000e+00
8.154987706673312076e+00 0.000000000000000000e+00 0.000000000000000000e+00
8.167042381775564408e+00 0.000000000000000000e+00 0.000000000000000000e+00
8.179097056877816740e+00 0.000000000000000000e+00 0.000000000000000000e+00
8.191151731980067296e+00 0.000000000000000000e+00 0.000000000000000000e+00
8.203206407082319629e+00 0.000000000000000000e+00 0.000000000000000000e+00
8.215261082184571961e+00 0.000000000000000000e+00 0.000000000000000000e+00
8.227315757286822517e+00 0.000000000000000000e+00 0.000000000000000000e+00
8.239370432389074850e+00 0.000000000000000000e+00 0.000000000000000000e+00
8.251425107491327182e+00 0.000000000000000000e+00 0.000000000000000000e+00
8.263479782593577738e+00 0.000000000000000000e+00 0.000000000000000000e+00
8.275534457695830071e+00 0.000000000000000000e+00 0.000000000000000000e+00
8.287589132798082403e+00 0.000000000000000000e+00 0.000000000000000000e+00
8.299643807900332959e+00 0.000000000000000000e+00 0.000000000000000000e+00
8.311698483002585292e+00 0.000000000000000000e+00 0.000000000000000000e+00
8.323753158104837624e+00 0.000000000000000000e+00 0.000000000000000000e+00
8.335807833207088180e+00 0.000000000000000000e+00 0.000000000000000000e+00
8.347862508309340512e+00 0.000000000000000000e+00 0.000000000000000000e+00
8.359917183411592845e+00 0.000000000000000000e+00 0.000000000000000000e+00
8.371971858513843401e+00 0.000000000000000000e+00 0.000000000000000000e+00
8.384026533616095733e+00 0.000000000000000000e+00 0.000000000000000000e+00
8.396081208718348066e+00 0.000000000000000000e+00 0.000000000000000000e+00
8.408135883820598622e+00 0.000000000000000000e+00 0.000000000000000000e+00
8.420190558922850954e+00 0.000000000000000000e+00 0.000000000000000000e+00
8.432245234025103287e+00 0.000000000000000000e+00 0.000000000000000000e+00
8.444299909127353843e+00 0.000000000000000000e+00 0.000000000000000000e+00
8.456354584229606175e+00 0.000000000000000000e+00 0.000000000000000000e+00
8.468409259331858507e+00 0.000000000000000000e+00 0.000000000000000000e+00
8.480463934434109063e+00 0.000000000000000000e+00 0.000000000000000000e+00
8.492518609536361396e+00 0.000000000000000000e+00 0.000000000000000000e+00
8.504573284638613728e+00 0.000000000000000000e+00 0.000000000000000000e+00
8.516627959740864284e+00 0.000000000000000000e+00 0.000000000000000000e+00
8.528682634843116617e+00 0.000000000000000000e+00 0.000000000000000000e+00
8.540737309945368949e+00 0.000000000000000000e+00 0.000000000000000000e+00
8.552791985047619505e+00 0.000000000000000000e+00 0.000000000000000000e+00
8.564846660149871838e+00 0.000000000000000000e+00 0.000000000000000000e+00
8.576901335252124170e+00 0.000000000000000000e+00 0.000000000000000000e+00
8.588956010354374726e+00 0.000000000000000000e+00 0.000000000000000000e+00
8.601010685456627058e+00 0.000000000000000000e+00 0.000000000000000000e+00
8.613065360558879391e+00 0.000000000000000000e+00 0.000000000000000000e+00
8.625120035661129947e+00 0.000000000000000000e+00 0.000000000000000000e+00
8.637174710763382279e+00 0.000000000000000000e+00 0.000000000000000000e+00
8.649229385865634612e+00 0.000000000000000000e+00 0.000000000000000000e+00
8.661284060967886944e+00 0.000000000000000000e+00 0.000000000000000000e+00
8.673338736070137500e+00 0.000000000000000000e+00 0.000000000000000000e+00
8.685393411172389833e+00 0.000000000000000000e+00 0.000000000000000000e+00
8.697448086274642165e+00 0.000000000000000000e+00 0.000000000000000000e+00
8.709502761376892721e+00 0.000000000000000000e+00 0.000000000000000000e+00
8.721557436479145053e+00 0.000000000000000000e+00 0.000000000000000000e+00
8.733612111581397386e+00 0.000000000000000000e+00 0.000000000000000000e+00
8.745666786683647942e+00 0.000000000000000000e+00 0.000000000000000000e+00
8.757721461785900274e+00 0.000000000000000000e+00 0.000000000000000000e+00
8.769776136888152607e+00 0.000000000000000000e+00 0.000000000000000000e+00
8.781830811990403163e+00 0.000000000000000000e+00 0.000000000000000000e+00
8.793885487092655495e+00 0.000000000000000000e+00 0.000000000000000000e+00
8.805940162194907828e+00 0.000000000000000000e+00 0.000000000000000000e+00
8.817994837297158384e+00 0.000000000000000000e+00 0.000000000000000000e+00
8.830049512399410716e+00 0.000000000000000000e+00 0.000000000000000000e+00
8.842104187501663048e+00 0.000000000000000000e+00 0.000000000000000000e+00
8.854158862603913605e+00 0.000000000000000000e+00 0.000000000000000000e+00
8.866213537706165937e+00 0.000000000000000000e+00 0.000000000000000000e+00
8.878268212808418269e+00 0.000000000000000000e+00 0.000000000000000000e+00
8.890322887910668825e+00 0.000000000000000000e+00 0.000000000000000000e+00
8.902377563012921158e+00 0.000000000000000000e+00 0.000000000000000000e+00
8.914432238115173490e+00 0.000000000000000000e+00 0.000000000000000000e+00
8.926486913217424046e+00 0.000000000000000000e+00 0.000000000000000000e+00
8.938541588319676379e+00 0.000000000000000000e+00 0.000000000000000000e+00
8.950596263421928711e+00 0.000000000000000000e+00 0.000000000000000000e+00
8.962650938524179267e+00 0.000000000000000000e+00 0.000000000000000000e+00
8.974705613626431600e+00 0.000000000000000000e+00 0.000000000000000000e+00
8.986760288728683932e+00 0.000000000000000000e+00 0.000000000000000000e+00
8.998814963830934488e+00 0.000000000000000000e+00 0.000000000000000000e+00
9.010869638933186820e+00 0.000000000000000000e+00 0.000000000000000000e+00
9.022924314035439153e+00 0.000000000000000000e+00 0.000000000000000000e+00
9.034978989137689709e+00 0.000000000000000000e+00 0.000000000000000000e+00
9.047033664239942041e+00 0.000000000000000000e+00 0.000000000000000000e+00
9.059088339342194374e+00 0.000000000000000000e+00 0.000000000000000000e+00
9.071143014444444930e+00 0.000000000000000000e+00 0.000000000000000000e+00
9.083197689546697262e+00 0.000000000000000000e+00 0.000000000000000000e+00
9.095252364648949595e+00 0.000000000000000000e+00 0.000000000000000000e+00
9.107307039751200151e+00 0.000000000000000000e+00 0.000000000000000000e+00
9.119361714853452483e+00 0.000000000000000000e+00 0.000000000000000000e+00
9.131416389955704815e+00 0.000000000000000000e+00 0.000000000000000000e+00
9.143471065057957148e+00 0.000000000000000000e+00 0.000000000000000000e+00
9.155525740160207704e+00 0.000000000000000000e+00 0.000000000000000000e+00
9.167580415262460036e+00 0.000000000000000000e+00 0.000000000000000000e+00
9.179635090364712369e+00 0.000000000000000000e+00 0.000000000000000000e+00
9.191689765466962925e+00 0.000000000000000000e+00 0.000000000000000000e+00
9.203744440569215257e+00 0.000000000000000000e+00 0.000000000000000000e+00
9.215799115671467590e+00 0.000000000000000000e+00 0.000000000000000000e+00
9.227853790773718146e+00 0.000000000000000000e+00 0.000000000000000000e+00
9.239908465875970478e+00 0.000000000000000000e+00 0.000000000000000000e+00
9.251963140978222810e+00 0.000000000000000000e+00 0.000000000000000000e+00
9.264017816080473366e+00 0.000000000000000000e+00 0.000000000000000000e+00
9.276072491182725699e+00 0.000000000000000000e+00 0.000000000000000000e+00
9.288127166284978031e+00 0.000000000000000000e+00 0.000000000000000000e+00
9.300181841387228587e+00 0.000000000000000000e+00 0.000000000000000000e+00
9.312236516489480920e+00 0.000000000000000000e+00 0.000000000000000000e+00
9.324291191591733252e+00 0.000000000000000000e+00 0.000000000000000000e+00
9.336345866693983808e+00 0.000000000000000000e+00 0.000000000000000000e+00
9.348400541796236141e+00 0.000000000000000000e+00 0.000000000000000000e+00
9.360455216898488473e+00 0.000000000000000000e+00 0.000000000000000000e+00
9.372509892000739029e+00 0.000000000000000000e+00 0.000000000000000000e+00
9.384564567102991361e+00 0.000000000000000000e+00 0.000000000000000000e+00
9.396619242205243694e+00 0.000000000000000000e+00 0.000000000000000000e+00
9.408673917307494250e+00 0.000000000000000000e+00 0.000000000000000000e+00
9.420728592409746582e+00 0.000000000000000000e+00 0.000000000000000000e+00
9.432783267511998915e+00 0.000000000000000000e+00 0.000000000000000000e+00
9.444837942614249471e+00 0.000000000000000000e+00 0.000000000000000000e+00
9.456892617716501803e+00 0.000000000000000000e+00 0.000000000000000000e+00
9.468947292818754136e+00 0.000000000000000000e+00 0.000000000000000000e+00
9.481001967921004692e+00 0.000000000000000000e+00 0.000000000000000000e+00
9.493056643023257024e+00 0.000000000000000000e+00 0.000000000000000000e+00
9.505111318125509356e+00 0.000000000000000000e+00 0.000000000000000000e+00
9.517165993227759913e+00 0.000000000000000000e+00 0.000000000000000000e+00
9.529220668330012245e+00 0.000000000000000000e+00 0.000000000000000000e+00
9.541275343432264577e+00 0.000000000000000000e+00 0.000000000000000000e+00
9.553330018534515133e+00 0.000000000000000000e+00 0.000000000000000000e+00
9.565384693636767466e+00 0.000000000000000000e+00 0.000000000000000000e+00
9.577439368739019798e+00 0.000000000000000000e+00 0.000000000000000000e+00
9.589494043841270354e+00 0.000000000000000000e+00 0.000000000000000000e+00
9.601548718943522687e+00 0.000000000000000000e+00 0.000000000000000000e+00
9.613603394045775019e+00 0.000000000000000000e+00 0.000000000000000000e+00
9.625658069148025575e+00 0.000000000000000000e+00 0.000000000000000000e+00
9.637712744250277908e+00 0.000000000000000000e+00 0.000000000000000000e+00
