# Command line was: maicos density_planar -s in.lammpsdata -top data -f out.dcd -sel "type 1" -shift True -nbins 800 -dz 0.5 -dens number -o data/number_density_type_1.dat -b 50000 -e -1
# number density profile [nm^(-3)]
# statistics over 150107.0 picoseconds 
# positions [nm]
6.027337551108340186e-03 0.000000000000000000e+00 0.000000000000000000e+00
1.808201265332502056e-02 0.000000000000000000e+00 0.000000000000000000e+00
3.013668775554169746e-02 0.000000000000000000e+00 0.000000000000000000e+00
4.219136285775837436e-02 0.000000000000000000e+00 0.000000000000000000e+00
5.424603795997505473e-02 0.000000000000000000e+00 0.000000000000000000e+00
6.630071306219173510e-02 0.000000000000000000e+00 0.000000000000000000e+00
7.835538816440840160e-02 0.000000000000000000e+00 0.000000000000000000e+00
9.041006326662509585e-02 0.000000000000000000e+00 0.000000000000000000e+00
1.024647383688417623e-01 0.000000000000000000e+00 0.000000000000000000e+00
1.145194134710584566e-01 0.000000000000000000e+00 0.000000000000000000e+00
1.265740885732751231e-01 0.000000000000000000e+00 0.000000000000000000e+00
1.386287636754918173e-01 0.000000000000000000e+00 0.000000000000000000e+00
1.506834387777084838e-01 0.000000000000000000e+00 0.000000000000000000e+00
1.627381138799251781e-01 0.000000000000000000e+00 0.000000000000000000e+00
1.747927889821418446e-01 0.000000000000000000e+00 0.000000000000000000e+00
1.868474640843585388e-01 0.000000000000000000e+00 0.000000000000000000e+00
1.989021391865752053e-01 0.000000000000000000e+00 0.000000000000000000e+00
2.109568142887918718e-01 0.000000000000000000e+00 0.000000000000000000e+00
2.230114893910085661e-01 0.000000000000000000e+00 0.000000000000000000e+00
2.350661644932252325e-01 0.000000000000000000e+00 0.000000000000000000e+00
2.471208395954419268e-01 0.000000000000000000e+00 0.000000000000000000e+00
2.591755146976585933e-01 0.000000000000000000e+00 0.000000000000000000e+00
2.712301897998752875e-01 0.000000000000000000e+00 0.000000000000000000e+00
2.832848649020919818e-01 0.000000000000000000e+00 0.000000000000000000e+00
2.953395400043086205e-01 0.000000000000000000e+00 0.000000000000000000e+00
3.073942151065253148e-01 0.000000000000000000e+00 0.000000000000000000e+00
3.194488902087420090e-01 0.000000000000000000e+00 0.000000000000000000e+00
3.315035653109586478e-01 0.000000000000000000e+00 0.000000000000000000e+00
3.435582404131753420e-01 0.000000000000000000e+00 0.000000000000000000e+00
3.556129155153920363e-01 0.000000000000000000e+00 0.000000000000000000e+00
3.676675906176087305e-01 0.000000000000000000e+00 0.000000000000000000e+00
3.797222657198253692e-01 0.000000000000000000e+00 0.000000000000000000e+00
3.917769408220420635e-01 0.000000000000000000e+00 0.000000000000000000e+00
4.038316159242587577e-01 0.000000000000000000e+00 0.000000000000000000e+00
4.158862910264753965e-01 0.000000000000000000e+00 0.000000000000000000e+00
4.279409661286920907e-01 0.000000000000000000e+00 0.000000000000000000e+00
4.399956412309087850e-01 0.000000000000000000e+00 0.000000000000000000e+00
4.520503163331254792e-01 0.000000000000000000e+00 0.000000000000000000e+00
4.641049914353421180e-01 0.000000000000000000e+00 0.000000000000000000e+00
4.761596665375588122e-01 0.000000000000000000e+00 0.000000000000000000e+00
4.882143416397755065e-01 0.000000000000000000e+00 0.000000000000000000e+00
5.002690167419920897e-01 0.000000000000000000e+00 0.000000000000000000e+00
5.123236918442087839e-01 0.000000000000000000e+00 0.000000000000000000e+00
5.243783669464254782e-01 0.000000000000000000e+00 0.000000000000000000e+00
5.364330420486421724e-01 0.000000000000000000e+00 0.000000000000000000e+00
5.484877171508588667e-01 0.000000000000000000e+00 0.000000000000000000e+00
5.605423922530755609e-01 0.000000000000000000e+00 0.000000000000000000e+00
5.725970673552921442e-01 0.000000000000000000e+00 0.000000000000000000e+00
5.846517424575088384e-01 0.000000000000000000e+00 0.000000000000000000e+00
5.967064175597255327e-01 0.000000000000000000e+00 0.000000000000000000e+00
6.087610926619422269e-01 0.000000000000000000e+00 0.000000000000000000e+00
6.208157677641589212e-01 0.000000000000000000e+00 0.000000000000000000e+00
6.328704428663756154e-01 0.000000000000000000e+00 0.000000000000000000e+00
6.449251179685923097e-01 0.000000000000000000e+00 0.000000000000000000e+00
6.569797930708088929e-01 0.000000000000000000e+00 0.000000000000000000e+00
6.690344681730255871e-01 0.000000000000000000e+00 0.000000000000000000e+00
6.810891432752422814e-01 0.000000000000000000e+00 0.000000000000000000e+00
6.931438183774589756e-01 0.000000000000000000e+00 0.000000000000000000e+00
7.051984934796756699e-01 0.000000000000000000e+00 0.000000000000000000e+00
7.172531685818923641e-01 0.000000000000000000e+00 0.000000000000000000e+00
7.293078436841090584e-01 0.000000000000000000e+00 0.000000000000000000e+00
7.413625187863256416e-01 0.000000000000000000e+00 0.000000000000000000e+00
7.534171938885423359e-01 0.000000000000000000e+00 0.000000000000000000e+00
7.654718689907590301e-01 0.000000000000000000e+00 0.000000000000000000e+00
7.775265440929757244e-01 0.000000000000000000e+00 0.000000000000000000e+00
7.895812191951924186e-01 0.000000000000000000e+00 0.000000000000000000e+00
8.016358942974091129e-01 0.000000000000000000e+00 0.000000000000000000e+00
8.136905693996258071e-01 0.000000000000000000e+00 0.000000000000000000e+00
8.257452445018423903e-01 0.000000000000000000e+00 0.000000000000000000e+00
8.377999196040590846e-01 0.000000000000000000e+00 0.000000000000000000e+00
8.498545947062757788e-01 0.000000000000000000e+00 0.000000000000000000e+00
8.619092698084924731e-01 0.000000000000000000e+00 0.000000000000000000e+00
8.739639449107091673e-01 0.000000000000000000e+00 0.000000000000000000e+00
8.860186200129258616e-01 0.000000000000000000e+00 0.000000000000000000e+00
8.980732951151425558e-01 0.000000000000000000e+00 0.000000000000000000e+00
9.101279702173591390e-01 0.000000000000000000e+00 0.000000000000000000e+00
9.221826453195758333e-01 0.000000000000000000e+00 0.000000000000000000e+00
9.342373204217925275e-01 0.000000000000000000e+00 0.000000000000000000e+00
9.462919955240092218e-01 0.000000000000000000e+00 0.000000000000000000e+00
9.583466706262259160e-01 0.000000000000000000e+00 0.000000000000000000e+00
9.704013457284426103e-01 0.000000000000000000e+00 0.000000000000000000e+00
9.824560208306593045e-01 0.000000000000000000e+00 0.000000000000000000e+00
9.945106959328758878e-01 0.000000000000000000e+00 0.000000000000000000e+00
1.006565371035092804e+00 0.000000000000000000e+00 0.000000000000000000e+00
1.018620046137309387e+00 0.000000000000000000e+00 0.000000000000000000e+00
1.030674721239526193e+00 0.000000000000000000e+00 0.000000000000000000e+00
1.042729396341742776e+00 0.000000000000000000e+00 0.000000000000000000e+00
1.054784071443959359e+00 0.000000000000000000e+00 0.000000000000000000e+00
1.066838746546176164e+00 0.000000000000000000e+00 0.000000000000000000e+00
1.078893421648392748e+00 0.000000000000000000e+00 0.000000000000000000e+00
1.090948096750609553e+00 0.000000000000000000e+00 0.000000000000000000e+00
1.103002771852826136e+00 0.000000000000000000e+00 0.000000000000000000e+00
1.115057446955042941e+00 0.000000000000000000e+00 0.000000000000000000e+00
1.127112122057259525e+00 0.000000000000000000e+00 0.000000000000000000e+00
1.139166797159476108e+00 0.000000000000000000e+00 0.000000000000000000e+00
1.151221472261692913e+00 0.000000000000000000e+00 0.000000000000000000e+00
1.163276147363909496e+00 0.000000000000000000e+00 0.000000000000000000e+00
1.175330822466126302e+00 0.000000000000000000e+00 0.000000000000000000e+00
1.187385497568342885e+00 0.000000000000000000e+00 0.000000000000000000e+00
1.199440172670559690e+00 0.000000000000000000e+00 0.000000000000000000e+00
1.211494847772776273e+00 0.000000000000000000e+00 0.000000000000000000e+00
1.223549522874992856e+00 0.000000000000000000e+00 0.000000000000000000e+00
1.235604197977209662e+00 0.000000000000000000e+00 0.000000000000000000e+00
1.247658873079426245e+00 0.000000000000000000e+00 0.000000000000000000e+00
1.259713548181643050e+00 0.000000000000000000e+00 0.000000000000000000e+00
1.271768223283859633e+00 0.000000000000000000e+00 0.000000000000000000e+00
1.283822898386076439e+00 0.000000000000000000e+00 0.000000000000000000e+00
1.295877573488293022e+00 0.000000000000000000e+00 0.000000000000000000e+00
1.307932248590509605e+00 0.000000000000000000e+00 0.000000000000000000e+00
1.319986923692726410e+00 0.000000000000000000e+00 0.000000000000000000e+00
1.332041598794942994e+00 4.453354890856321056e-05 4.453340056896852703e-05
1.344096273897159799e+00 1.781341956342528423e-04 8.906591109443950537e-05
1.356150948999376382e+00 6.680032336284479890e-04 1.724690753177339747e-04
1.368205624101593187e+00 9.797380759883904562e-04 2.088655520699882488e-04
1.380260299203809771e+00 2.182143896519598680e-03 3.116839578107580516e-04
1.392314974306026354e+00 3.384549717050809939e-03 3.881361835095969754e-04
1.404369649408243159e+00 6.457364591741657570e-03 5.359958734020076662e-04
1.416424324510459742e+00 2.591852546478369199e-02 1.072272655331112925e-03
1.428478999612676548e+00 1.075930541630936849e-01 2.183104351957320440e-03
1.440533674714893131e+00 3.179695392071038573e-01 3.728705057348413471e-03
1.452588349817109936e+00 6.486311398531177108e-01 5.262076793547325153e-03
1.464643024919326519e+00 9.880658496341171437e-01 6.431296116265363197e-03
1.476697700021543103e+00 1.194256181080722179e+00 7.049264714825961842e-03
1.488752375123759908e+00 1.290983049310101771e+00 7.320126076083444816e-03
1.500807050225976491e+00 1.312314619237299862e+00 7.408251871583670066e-03
1.512861725328193296e+00 1.300914030716710190e+00 7.399958476538117010e-03
1.524916400430409880e+00 1.266845865801668136e+00 7.344656569331680512e-03
1.536971075532626685e+00 1.263505849633526745e+00 7.383355680667295397e-03
1.549025750634843268e+00 1.424004759899955896e+00 7.821748139433095173e-03
1.561080425737059851e+00 1.677845988678714040e+00 8.505970689814510918e-03
1.573135100839276657e+00 2.017191631362844628e+00 9.295632012332527214e-03
1.585189775941493240e+00 2.307149568307369947e+00 9.888719709117775591e-03
1.597244451043710045e+00 2.542242172996254546e+00 1.038463513342396255e-02
1.609299126145926628e+00 2.658474735647912812e+00 1.060548667431456850e-02
1.621353801248143434e+00 2.745092488275271858e+00 1.076867843361903158e-02
1.633408476350360017e+00 2.859053839932550911e+00 1.102994391904003890e-02
1.645463151452576600e+00 2.988245665316594302e+00 1.126227262343396270e-02
1.657517826554793405e+00 3.211715013740285229e+00 1.166688740710209934e-02
1.669572501657009989e+00 3.450993772026441864e+00 1.210715898861324143e-02
1.681627176759226794e+00 3.846763421176431219e+00 1.278308712919721396e-02
1.693681851861443377e+00 4.358810166526416729e+00 1.358838756847834464e-02
1.705736526963660182e+00 5.089605704115469642e+00 1.467096795781127130e-02
1.717791202065876766e+00 6.014879249788672055e+00 1.601744060619000182e-02
1.729845877168093349e+00 7.093481804354343723e+00 1.739751701303974760e-02
1.741900552270310154e+00 8.241244960371357564e+00 1.870209993354628869e-02
1.753955227372526737e+00 9.408157542419138153e+00 1.979312150062482664e-02
1.766009902474743543e+00 1.071454919964888575e+01 2.116256189716611558e-02
1.778064577576960126e+00 1.199208311718663289e+01 2.236612785449512697e-02
1.790119252679176931e+00 1.316411705736130600e+01 2.337761808486644999e-02
1.802173927781393514e+00 1.418495959899308012e+01 2.424972562389633018e-02
1.814228602883610098e+00 1.500197208727423792e+01 2.493282732400945931e-02
1.826283277985826903e+00 1.592742376714688923e+01 2.579346283113913285e-02
1.838337953088043486e+00 1.681030137426246895e+01 2.652189835697801520e-02
1.850392628190260291e+00 1.781742758283269623e+01 2.737824536131274605e-02
1.862447303292476875e+00 1.888200206949315785e+01 2.815383013997147660e-02
1.874501978394693680e+00 2.016251973481123372e+01 2.909880586628122226e-02
1.886556653496910263e+00 2.155450487304649698e+01 2.989351959762414843e-02
1.898611328599126846e+00 2.308547921742619735e+01 3.104755626417163641e-02
1.910666003701343651e+00 2.437338945186223427e+01 3.181326048009334995e-02
1.922720678803560235e+00 2.552894597894138684e+01 3.264433508009360191e-02
1.934775353905777040e+00 2.663916735323183360e+01 3.329651659511364409e-02
1.946830029007993623e+00 2.786343914627653362e+01 3.418666532928411189e-02
1.958884704110210428e+00 2.941383011797874403e+01 3.517267807422561066e-02
1.970939379212427012e+00 3.100781943406169106e+01 3.604282977816292838e-02
1.982994054314643595e+00 3.265640688110705980e+01 3.699708516853217333e-02
1.995048729416860400e+00 3.412111530470890841e+01 3.773275625510936343e-02
2.007103404519077205e+00 3.554178004844131777e+01 3.848428480800588497e-02
2.019158079621293567e+00 3.683454443970845205e+01 3.916444325717915315e-02
2.031212754723510372e+00 3.774187096517194817e+01 3.958589932950157264e-02
2.043267429825727177e+00 3.811381516565516847e+01 3.984740073941961391e-02
2.055322104927943982e+00 3.775246994981141313e+01 3.970710910191515425e-02
2.067376780030160344e+00 3.700826981400022930e+01 3.944788236663804293e-02
2.079431455132377149e+00 3.614935125620097267e+01 3.889494563516331105e-02
2.091486130234593954e+00 3.546406900559575348e+01 3.856537451264152594e-02
2.103540805336810315e+00 3.471675152136185005e+01 3.825914273550629074e-02
2.115595480439027121e+00 3.413563324165355795e+01 3.802849081047415813e-02
2.127650155541243926e+00 3.362982119315019958e+01 3.754211671505854053e-02
2.139704830643460731e+00 3.329337023114583616e+01 3.744362389133577829e-02
2.151759505745677092e+00 3.303814846235189151e+01 3.734763867502320644e-02
2.163814180847893898e+00 3.277499972185051291e+01 3.725678388335097735e-02
2.175868855950110703e+00 3.270802126429244083e+01 3.724956769167971082e-02
2.187923531052327064e+00 3.261512428126945196e+01 3.710655634672654912e-02
2.199978206154543869e+00 3.263302676793134083e+01 3.722081617262279485e-02
2.212032881256760675e+00 3.291510226671688599e+01 3.735881996775259478e-02
2.224087556358977480e+00 3.309586394173681612e+01 3.746302164016802189e-02
2.236142231461193841e+00 3.331634954238298008e+01 3.764015181219078354e-02
2.248196906563410646e+00 3.349003038312687863e+01 3.759165334636575123e-02
2.260251581665627452e+00 3.357228384796082565e+01 3.751401397689117095e-02
2.272306256767843813e+00 3.368700226994874214e+01 3.774799859222435772e-02
2.284360931870060618e+00 3.370392501853419276e+01 3.772800582243788364e-02
2.296415606972277423e+00 3.367016858846213978e+01 3.769391819648321845e-02
2.308470282074494229e+00 3.360710908320699986e+01 3.759932897723234496e-02
2.320524957176710590e+00 3.349243519476671338e+01 3.768136345494602774e-02
2.332579632278927395e+00 3.340644091182519304e+01 3.751028244642823362e-02
2.344634307381144200e+00 3.337442129015962422e+01 3.754388809779828778e-02
2.356688982483360562e+00 3.314391564100854026e+01 3.749802859814826278e-02
2.368743657585577367e+00 3.317054670325644850e+01 3.758502877991819202e-02
2.380798332687794172e+00 3.311862058522906693e+01 3.742937535763452006e-02
2.392853007790010977e+00 3.300118561675738960e+01 3.746845219921857845e-02
2.404907682892227339e+00 3.296448997245654766e+01 3.736295126229492725e-02
2.416962357994444144e+00 3.304923731602971770e+01 3.740301841413219003e-02
2.429017033096660949e+00 3.297780550358064744e+01 3.728488170900175896e-02
2.441071708198877310e+00 3.293790344375855739e+01 3.726192368311562197e-02
2.453126383301094116e+00 3.295340111877895595e+01 3.738508863080638317e-02
2.465181058403310921e+00 3.295500432653874157e+01 3.720276756895660869e-02
2.477235733505527726e+00 3.294182239606264773e+01 3.729157763463809144e-02
2.489290408607744087e+00 3.287266179460723237e+01 3.724498515384536135e-02
2.501345083709960893e+00 3.279744463050072767e+01 3.720607741133642038e-02
2.513399758812177698e+00 3.273082244133362195e+01 3.725542191378179713e-02
2.525454433914394059e+00 3.272329627156821630e+01 3.728335269246832451e-02
2.537509109016610864e+00 3.263966226671772830e+01 3.706410362979682682e-02
2.549563784118827670e+00 3.259401537908564706e+01 3.710863524332058683e-02
2.561618459221044475e+00 3.267978699428422829e+01 3.724151438195150154e-02
2.573673134323260836e+00 3.261124986251432034e+01 3.712124859203153049e-02
2.585727809425477641e+00 3.256391070002393207e+01 3.717829018594167451e-02
2.597782484527694447e+00 3.266825280511725538e+01 3.715767600741066989e-02
2.609837159629910808e+00 3.261507974771963347e+01 3.714925624940117882e-02
2.621891834732127613e+00 3.277014556502027887e+01 3.715154966972193662e-02
2.633946509834344418e+00 3.278586590778524368e+01 3.728634177223837803e-02
2.646001184936561224e+00 3.275553856097767635e+01 3.719692684219360473e-02
2.658055860038777585e+00 3.274088702338715251e+01 3.728050053331593422e-02
2.670110535140994390e+00 3.276805248822156358e+01 3.715399960179194966e-02
2.682165210243211195e+00 3.282407569274757719e+01 3.725736631349515354e-02
2.694219885345427556e+00 3.275558309452663508e+01 3.725625359413247545e-02
2.706274560447644362e+00 3.277081356825361524e+01 3.713013538283255199e-02
2.718329235549861167e+00 3.268143473559437240e+01 3.709080131411061215e-02
2.730383910652077972e+00 3.278573230713826803e+01 3.733732687937355021e-02
2.742438585754294333e+00 3.267337416324127020e+01 3.722435750184982517e-02
2.754493260856511139e+00 3.272895203227965055e+01 3.708546629943505063e-02
2.766547935958727944e+00 3.260902318506852282e+01 3.700904017634775584e-02
2.778602611060944305e+00 3.264611963130949590e+01 3.723426763873734918e-02
2.790657286163161110e+00 3.270592818749319974e+01 3.722780983456926845e-02
2.802711961265377916e+00 3.261583681805196733e+01 3.727405211935902463e-02
2.814766636367594721e+00 3.261361014060570795e+01 3.714575949282049316e-02
2.826821311469811082e+00 3.265671861594932324e+01 3.708720926274183122e-02
2.838875986572027887e+00 3.259842420042771494e+01 3.718768884526447993e-02
2.850930661674244693e+00 3.267662511231252154e+01 3.718489381628944240e-02
2.862985336776461054e+00 3.267301789485009778e+01 3.718086270181203412e-02
2.875040011878677859e+00 3.260782077924832123e+01 3.707651047139114142e-02
2.887094686980894664e+00 3.262576779945798933e+01 3.722428606511304222e-02
2.899149362083111470e+00 3.267653604521432698e+01 3.725085147924613038e-02
2.911204037185327831e+00 3.265600607916692155e+01 3.722625956082886711e-02
2.923258712287544636e+00 3.263547611312063879e+01 3.703926433191568474e-02
2.935313387389761441e+00 3.267275069355642358e+01 3.702035281299177749e-02
2.947368062491977803e+00 3.261659388838317852e+01 3.722179579648721842e-02
2.959422737594194608e+00 3.267983152783293832e+01 3.721938695217393706e-02
2.971477412696411413e+00 3.252316250277309706e+01 3.708444566859025321e-02
2.983532087798628218e+00 3.255834400641042237e+01 3.704963482484063819e-02
2.995586762900844580e+00 3.263908333058195410e+01 3.701821723385683577e-02
3.007641438003061385e+00 3.263868252864166664e+01 3.713549077595031805e-02
3.019696113105278190e+00 3.258292652540838219e+01 3.710491417870122322e-02
3.031750788207494551e+00 3.265355673397753833e+01 3.720804410490787667e-02
3.043805463309711357e+00 3.259695459331430101e+01 3.719997527188958347e-02
3.055860138411928162e+00 3.259352551004758425e+01 3.717362693322716349e-02
3.067914813514144967e+00 3.265613967981354193e+01 3.726059795948578890e-02
3.079969488616361328e+00 3.260777624569939093e+01 3.716564551088104296e-02
3.092024163718578134e+00 3.268334967819671277e+01 3.715182805158499801e-02
3.104078838820794939e+00 3.271247461918265742e+01 3.720581321685371284e-02
3.116133513923011300e+00 3.267119201934485773e+01 3.706348291205547457e-02
3.128188189025228105e+00 3.272935283421956143e+01 3.715665325736272617e-02
3.140242864127444911e+00 3.272899656582832506e+01 3.708282463050446842e-02
3.152297539229661716e+00 3.267462110261010366e+01 3.714057110153762969e-02
3.164352214331878077e+00 3.265645141465603984e+01 3.716548411707548683e-02
3.176406889434094882e+00 3.265253246235207740e+01 3.714524735721225213e-02
3.188461564536311688e+00 3.263338303632197324e+01 3.710944506007075872e-02
3.200516239638528049e+00 3.274712172023419754e+01 3.723382975078401436e-02
3.212570914740744854e+00 3.259900313656444837e+01 3.714772844757333742e-02
3.224625589842961659e+00 3.266268611150351830e+01 3.713521584156882771e-02
3.236680264945178465e+00 3.264277961514141424e+01 3.715277834281520419e-02
3.248734940047394826e+00 3.257486595305518762e+01 3.713144864696577702e-02
3.260789615149611631e+00 3.262826167819762446e+01 3.717169953375445285e-02
3.272844290251828436e+00 3.266847547286173636e+01 3.729321459130336552e-02
3.284898965354044797e+00 3.259490605006450181e+01 3.700231529288248999e-02
3.296953640456261603e+00 3.263293770083297574e+01 3.722384057125901341e-02
3.309008315558478408e+00 3.262897421497957851e+01 3.715963456732035430e-02
3.321062990660695213e+00 3.262973128531167788e+01 3.715838144520692415e-02
3.333117665762911574e+00 3.270909006946598652e+01 3.714920830873397195e-02
3.345172340865128380e+00 3.266722853349219946e+01 3.724099999448503284e-02
3.357227015967345185e+00 3.265239886170628125e+01 3.721113551664233243e-02
3.369281691069561546e+00 3.257526675499603641e+01 3.707937050029069120e-02
3.381336366171778351e+00 3.266892080835059176e+01 3.714033596859893371e-02
3.393391041273995157e+00 3.275019453510842027e+01 3.724445291903035610e-02
3.405445716376211962e+00 3.267747124974103201e+01 3.709906614901187921e-02
3.417500391478428323e+00 3.262946408401709419e+01 3.715145768804581361e-02
3.429555066580645128e+00 3.271238555208550736e+01 3.729838322129647166e-02
3.441609741682861934e+00 3.277856240576321056e+01 3.728188717335517016e-02
3.453664416785078295e+00 3.269751134674972803e+01 3.724214173410659440e-02
3.465719091887295100e+00 3.269546280349986489e+01 3.722248604965194135e-02
3.477773766989511905e+00 3.269951535645049745e+01 3.720177489699188350e-02
3.489828442091728711e+00 3.270708605976554395e+01 3.710383909285968479e-02
3.501883117193945072e+00 3.270860020042808713e+01 3.717078712473457364e-02
3.513937792296161877e+00 3.270806579784130008e+01 3.718357486890942060e-02
3.525992467398378682e+00 3.270454764747812959e+01 3.725662826153244150e-02
3.538047142500595044e+00 3.269773401449465666e+01 3.722989395183055189e-02
3.550101817602811849e+00 3.273670086978959404e+01 3.730997982134246632e-02
3.562156492705028654e+00 3.268459661756663337e+01 3.709627460857588960e-02
3.574211167807245459e+00 3.268517555370202388e+01 3.708450777639512447e-02
3.586265842909461821e+00 3.268909450600558841e+01 3.722476891668859145e-02
3.598320518011678626e+00 3.268352781239229898e+01 3.728097170959015355e-02
3.610375193113895431e+00 3.260470343082465661e+01 3.730301566458445878e-02
3.622429868216111792e+00 3.264807910746166897e+01 3.722825439687110771e-02
3.634484543318328598e+00 3.269354786089719056e+01 3.728454925590171665e-02
3.646539218420545403e+00 3.270557191910301498e+01 3.719759926996027422e-02
3.658593893522762208e+00 3.265578341142249741e+01 3.718259758529451203e-02
3.670648568624978569e+00 3.263133449307235878e+01 3.724396038691542288e-02
3.682703243727195375e+00 3.267221629096982127e+01 3.712320928163827249e-02
3.694757918829412180e+00 3.273380618911082962e+01 3.723627595079000152e-02
3.706812593931628541e+00 3.261298667092190584e+01 3.711436864834616323e-02
3.718867269033845346e+00 3.270053962807575942e+01 3.709040246025980397e-02
3.730921944136062152e+00 3.268406221497914288e+01 3.730119858158158913e-02
3.742976619238278957e+00 3.275112973963597085e+01 3.723367453371981273e-02
3.755031294340495318e+00 3.271336529016079453e+01 3.723075814874834272e-02
3.767085969442712123e+00 3.272432054319294537e+01 3.720842913160720550e-02
3.779140644544928929e+00 3.272249466768752768e+01 3.724775512563600899e-02
3.791195319647145290e+00 3.269858015192436795e+01 3.713081642244889929e-02
3.803249994749362095e+00 3.273915021497884226e+01 3.721434420148316685e-02
3.815304669851578900e+00 3.275010546801078704e+01 3.706621665403016935e-02
3.827359344953795706e+00 3.271247461918324007e+01 3.723543871968194169e-02
3.839414020056012067e+00 3.271474583017737103e+01 3.728099890861319432e-02
3.851468695158228872e+00 3.274115422468032932e+01 3.731748719935365499e-02
3.863523370260445677e+00 3.271826398054128049e+01 3.725539496525142463e-02
3.875578045362662039e+00 3.262478806138211240e+01 3.728626988483443178e-02
3.887632720464878844e+00 3.265226526105883664e+01 3.718965887271553916e-02
3.899687395567095649e+00 3.266669413090470897e+01 3.718966176776489913e-02
3.911742070669312454e+00 3.269537373640205402e+01 3.714828714542732502e-02
3.923796745771528816e+00 3.264139907512483063e+01 3.718307943361977286e-02
3.935851420873745621e+00 3.261913230067052893e+01 3.713385044538784763e-02
3.947906095975962426e+00 3.268535368789846984e+01 3.716498325173645673e-02
3.959960771078178787e+00 3.266295331279630432e+01 3.700246177088045013e-02
3.972015446180395593e+00 3.271158394820579218e+01 3.728392198334760238e-02
3.984070121282612398e+00 3.268530915434867268e+01 3.719711470496617906e-02
3.996124796384829203e+00 3.273349445426777038e+01 3.718083148196766469e-02
4.008179471487046008e+00 3.277005649792211273e+01 3.717315279658073984e-02
4.020234146589262814e+00 3.270721966041162432e+01 3.716348637599283661e-02
4.032288821691478731e+00 3.271194021659570694e+01 3.716088890826715896e-02
4.044343496793695536e+00 3.271091594497146104e+01 3.719172593648033959e-02
4.056398171895912341e+00 3.267742671619198092e+01 3.721949240180904422e-02
4.068452846998129147e+00 3.260790984634621736e+01 3.720633138899882841e-02
4.080507522100345952e+00 3.271234101853671206e+01 3.715226660446068613e-02
4.092562197202562757e+00 3.273108964262703324e+01 3.717989334564831411e-02
4.104616872304779562e+00 3.265645141465641643e+01 3.710903726431269423e-02
4.116671547406995479e+00 3.275304468223860965e+01 3.728502998014580211e-02
4.128726222509212285e+00 3.273915021497933964e+01 3.719334111917601410e-02
4.140780897611429090e+00 3.261374374125271203e+01 3.717083736253062182e-02
4.152835572713645895e+00 3.273122324327311361e+01 3.720793039860033347e-02
4.164890247815862701e+00 3.269706601126124923e+01 3.720121669379888862e-02
4.176944922918079506e+00 3.278524243809975758e+01 3.726147611713646196e-02
4.188999598020296311e+00 3.271038154238361528e+01 3.717560342884198427e-02
4.201054273122512228e+00 3.267715951489895332e+01 3.712293906632323226e-02
4.213108948224729033e+00 3.272089145992717363e+01 3.718696518137477175e-02
4.225163623326945839e+00 3.275300014868908249e+01 3.714468135996806808e-02
4.237218298429162644e+00 3.269684334351645560e+01 3.719470983840466455e-02
4.249272973531379449e+00 3.271781864505214088e+01 3.711710070492117708e-02
4.261327648633596255e+00 3.265520447528707138e+01 3.718643800018096163e-02
4.273382323735813060e+00 3.275460335645107790e+01 3.728066851218102273e-02
4.285436998838028977e+00 3.262741554076809081e+01 3.713306423736704304e-02
4.297491673940245782e+00 3.267778298458333097e+01 3.714860357075642355e-02
4.309546349042462587e+00 3.271746237666063450e+01 3.726120222049638525e-02
4.321601024144679393e+00 3.270178656744500501e+01 3.726058394829541431e-02
4.333655699246896198e+00 3.257036806461616152e+01 3.712667533623566912e-02
4.345710374349113003e+00 3.263921693122902212e+01 3.719186597749581796e-02
4.357765049451329809e+00 3.259495058361390818e+01 3.711852673745420078e-02
4.369819724553545726e+00 3.263240329824527919e+01 3.712090126442883081e-02
4.381874399655762531e+00 3.273162404521347923e+01 3.713694148570356734e-02
4.393929074757979336e+00 3.270053962807591574e+01 3.718929771361663417e-02
4.405983749860196141e+00 3.264772283906995654e+01 3.713389981554982011e-02
4.418038424962412947e+00 3.263592144860901811e+01 3.706892552685016329e-02
4.430093100064629752e+00 3.274213396275619203e+01 3.722315498198635469e-02
4.442147775166846557e+00 3.268971797569121662e+01 3.709724631068361117e-02
4.454202450269062474e+00 3.271759597730738989e+01 3.719694742359967721e-02
4.466257125371279280e+00 3.268210273882719719e+01 3.712902136203961173e-02
4.478311800473496085e+00 3.263511984472877003e+01 3.714929781745951454e-02
4.490366475575712890e+00 3.264821270810753617e+01 3.712571562017490806e-02
4.502421150677929695e+00 3.262607953430096330e+01 3.707851620820418193e-02
4.514475825780146501e+00 3.265293326429214460e+01 3.705680804195172345e-02
4.526530500882363306e+00 3.265578341142214214e+01 3.708502144089097230e-02
4.538585175984579223e+00 3.262100270972504035e+01 3.711061350676584519e-02
4.550639851086796028e+00 3.269029691182682740e+01 3.712588619582320865e-02
4.562694526189012834e+00 3.266313144699211080e+01 3.714542235009060667e-02
4.574749201291229639e+00 3.265609514626439847e+01 3.706690420646260170e-02
4.586803876393446444e+00 3.264019666930415298e+01 3.709113726312115306e-02
4.598858551495663249e+00 3.260002740818926981e+01 3.707319561635866179e-02
4.610913226597880055e+00 3.263618864990270652e+01 3.713161392054346865e-02
4.622967901700095972e+00 3.261414454319291423e+01 3.710363462099181692e-02
4.635022576802312777e+00 3.268593262403360455e+01 3.715889594275127716e-02
4.647077251904529582e+00 3.267733764909434768e+01 3.717309371438861504e-02
4.659131927006746388e+00 3.270468124812484234e+01 3.716446707871830235e-02
4.671186602108963193e+00 3.270797673074336842e+01 3.721176769662797035e-02
4.683241277211179998e+00 3.269296892476042160e+01 3.712372656963013051e-02
4.695295952313396803e+00 3.273741340657188204e+01 3.728901168041377084e-02
4.707350627415612720e+00 3.273834861109889971e+01 3.723422516240493252e-02
4.719405302517829526e+00 3.269296892476096872e+01 3.716040960517920377e-02
4.731459977620046331e+00 3.266130557148807156e+01 3.721912661071326289e-02
4.743514652722263136e+00 3.273206938070267569e+01 3.723342469734137322e-02
4.755569327824479942e+00 3.270579458684666463e+01 3.717482824287431098e-02
4.767624002926696747e+00 3.267747124974093964e+01 3.717521890979440941e-02
4.779678678028913552e+00 3.271986718830171981e+01 3.725921673869170975e-02
4.791733353131129469e+00 3.266682773155164909e+01 3.714557846625439474e-02
4.803788028233346274e+00 3.274921479703279203e+01 3.727935636663710223e-02
4.815842703335563080e+00 3.263008755370263003e+01 3.713937330920029367e-02
4.827897378437779885e+00 3.271532476631301023e+01 3.709887990161329918e-02
4.839952053539996690e+00 3.264910337908668936e+01 3.705456316663502392e-02
4.852006728642213496e+00 3.272414240899687599e+01 3.718910692728492201e-02
4.864061403744430301e+00 3.262144804521409469e+01 3.712366160909137680e-02
4.876116078846646218e+00 3.266967787868189532e+01 3.715285148744542493e-02
4.888170753948863023e+00 3.267128108644361362e+01 3.723811213239258677e-02
4.900225429051079828e+00 3.270147483260257104e+01 3.723357485926114679e-02
4.912280104153296634e+00 3.269341426025070518e+01 3.723915807069256428e-02
4.924334779255513439e+00 3.266495732249792638e+01 3.706054882774305337e-02
4.936389454357730244e+00 3.265934609533508848e+01 3.711801196760496774e-02
4.948444129459947050e+00 3.268005419557743352e+01 3.721128975510092085e-02
4.960498804562162967e+00 3.270748686170512087e+01 3.711059815264956124e-02
4.972553479664379772e+00 3.270802126429256163e+01 3.718402251303572215e-02
4.984608154766596577e+00 3.272084692637781700e+01 3.715011590740531500e-02
4.996662829868813382e+00 3.268392861433269303e+01 3.711347680216626338e-02
5.008717504971030188e+00 3.271835304763952479e+01 3.724332023152363697e-02
5.020772180073246993e+00 3.273064430713754547e+01 3.720879132507542292e-02
5.032826855175463798e+00 3.278969579299045023e+01 3.709223706605409288e-02
5.044881530277679715e+00 3.272169306380730092e+01 3.722848149939571305e-02
5.056936205379896521e+00 3.278965125944088754e+01 3.728945800248697345e-02
5.068990880482113326e+00 3.274498410988640273e+01 3.715876486913865379e-02
5.081045555584330131e+00 3.271911011797052993e+01 3.717649940192770119e-02
5.093100230686546936e+00 3.268833743567439143e+01 3.729740193132431020e-02
5.105154905788763742e+00 3.263267049953880417e+01 3.714951132824336616e-02
5.117209580890980547e+00 3.270748686170573905e+01 3.721833964816107648e-02
5.129264255993196464e+00 3.273340538717059900e+01 3.718679409820882520e-02
5.141318931095413269e+00 3.267181548902954091e+01 3.723440254812732803e-02
5.153373606197630075e+00 3.262434272589276674e+01 3.702139248052885301e-02
5.165428281299846880e+00 3.270178656744572265e+01 3.720289538291596254e-02
5.177482956402063685e+00 3.266526905733999087e+01 3.720077206587885099e-02
5.189537631504280490e+00 3.265849995790661353e+01 3.712844685495310382e-02
5.201592306606497296e+00 3.269310252540840622e+01 3.725043267462485597e-02
5.213646981708713213e+00 3.264790097326487484e+01 3.711389133430935405e-02
5.225701656810930018e+00 3.267399763292630865e+01 3.719262076310309723e-02
5.237756331913146823e+00 3.268370594658904338e+01 3.723207514041131788e-02
5.249811007015363629e+00 3.269822388353225762e+01 3.732261186822242310e-02
5.261865682117580434e+00 3.264790097326589802e+01 3.713184166216284415e-02
5.273920357219797239e+00 3.271100501206871058e+01 3.703704067806752598e-02
5.285975032322014044e+00 3.265841089080818449e+01 3.712485560427659925e-02
5.298029707424229962e+00 3.275522682613559766e+01 3.731535846330270162e-02
5.310084382526446767e+00 3.270027242678239077e+01 3.720067356655665930e-02
5.322139057628663572e+00 3.268820383502886529e+01 3.712622456008084215e-02
5.334193732730880377e+00 3.269782308159221884e+01 3.720816501915731600e-02
5.346248407833097183e+00 3.270214283583652559e+01 3.720544686584525279e-02
5.358303082935313988e+00 3.273278191748496369e+01 3.725215089182781769e-02
5.370357758037530793e+00 3.273897208078347631e+01 3.715282552176425029e-02
5.382412433139746710e+00 3.266437838636183955e+01 3.710638274186254387e-02
5.394467108241963516e+00 3.262242778329029846e+01 3.712807615569207326e-02
5.406521783344180321e+00 3.268655609371809589e+01 3.722920254742378282e-02
5.418576458446397126e+00 3.271919918506859659e+01 3.719555047877312615e-02
5.430631133548613931e+00 3.261258586898117073e+01 3.715017517373797595e-02
5.442685808650830737e+00 3.261917683421932423e+01 3.708942171777152713e-02
5.454740483753047542e+00 3.262060190778550606e+01 3.712965607310344390e-02
5.466795158855263459e+00 3.272641361999125564e+01 3.725788131544326143e-02
5.478849833957480264e+00 3.270922367011282716e+01 3.727242217734325069e-02
5.490904509059697070e+00 3.261267493607954293e+01 3.722628958980780250e-02
5.502959184161913875e+00 3.267270616000794092e+01 3.705004030284493599e-02
5.515013859264130680e+00 3.270895646881937324e+01 3.707129980842730627e-02
5.527068534366347485e+00 3.267226082451898606e+01 3.714028004543028921e-02
5.539123209468564291e+00 3.271568103470443845e+01 3.730480901238031333e-02
5.551177884570780208e+00 3.270699699266756966e+01 3.719351691983873581e-02
5.563232559672997013e+00 3.268664516081603466e+01 3.724636360772289739e-02
5.575287234775213818e+00 3.276506874044410011e+01 3.731841151014263225e-02
5.587341909877430624e+00 3.269898095386357539e+01 3.714558068644634170e-02
5.599396584979647429e+00 3.277660292961152066e+01 3.720625898869365372e-02
5.611451260081864234e+00 3.267675871295808321e+01 3.720445364568341490e-02
5.623505935184081039e+00 3.272253920123676352e+01 3.739970334643102218e-02
5.635560610286296956e+00 3.274796785766343277e+01 3.722921797505954200e-02
5.647615285388513762e+00 3.281980047205232154e+01 3.728032053315487315e-02
5.659669960490730567e+00 3.273300458522960810e+01 3.719514331233340909e-02
5.671724635592947372e+00 3.262193791425149669e+01 3.720433908426551417e-02
5.683779310695164178e+00 3.272846216324144564e+01 3.717585905190867734e-02
5.695833985797380983e+00 3.270762046235184783e+01 3.722264609915602873e-02
5.707888660899597788e+00 3.275963564747718948e+01 3.724552953734942828e-02
5.719943336001813705e+00 3.270080682936923466e+01 3.715582718617607000e-02
5.731998011104030510e+00 3.264914791263512228e+01 3.714990333153062735e-02
5.744052686206247316e+00 3.266143917213354086e+01 3.702325845211115046e-02
5.756107361308464121e+00 3.268139020204402811e+01 3.714430676670191223e-02
5.768162036410680926e+00 3.261570321740559564e+01 3.722140060778779402e-02
5.780216711512897731e+00 3.269577453834236991e+01 3.711690797734343988e-02
5.792271386615114537e+00 3.273888301368619125e+01 3.724430292796539199e-02
5.804326061717330454e+00 3.264460549064694561e+01 3.711268314540803331e-02
5.816380736819547259e+00 3.272066879218191104e+01 3.723024379756026403e-02
5.828435411921764064e+00 3.277281757795416439e+01 3.721160200573641469e-02
5.840490087023980870e+00 3.275665189969970470e+01 3.734395165654823268e-02
5.852544762126197675e+00 3.275794337261888245e+01 3.725006695433887016e-02
5.864599437228414480e+00 3.271545836696007825e+01 3.719944898789370735e-02
5.876654112330631285e+00 3.272953096841477816e+01 3.721470211364287517e-02
5.888708787432847203e+00 3.271394422629609267e+01 3.723719679595998561e-02
5.900763462535064008e+00 3.267368589808356205e+01 3.716417328713478296e-02
5.912818137637280813e+00 3.267693684715367652e+01 3.710519509174930314e-02
5.924872812739497618e+00 3.272418694254577787e+01 3.718855255743806071e-02
5.936927487841714424e+00 3.272547841546489167e+01 3.724165898289599763e-02
5.948982162943931229e+00 3.267364136453520729e+01 3.729683410552771250e-02
5.961036838046148034e+00 3.269568547124492142e+01 3.709134695604399123e-02
5.973091513148363951e+00 3.273732433947449039e+01 3.727969211701551849e-02
5.985146188250580757e+00 3.269746681320096826e+01 3.718972523068241748e-02
5.997200863352797562e+00 3.277664746316008859e+01 3.729445744558287923e-02
6.009255538455014367e+00 3.270334524165690482e+01 3.723392286851092553e-02
6.021310213557231172e+00 3.274770065636947436e+01 3.732075247784551186e-02
6.033364888659447978e+00 3.272320720447026332e+01 3.722664719866677213e-02
6.045419563761664783e+00 3.273278191748481447e+01 3.723958456016444873e-02
6.057474238863880700e+00 3.276199592556894657e+01 3.726430833373315515e-02
6.069528913966097505e+00 3.275433615515729713e+01 3.714986048488669312e-02
6.081583589068314311e+00 3.271345435725871198e+01 3.717591550831744751e-02
6.093638264170531116e+00 3.273817047690345561e+01 3.726715904516543498e-02
6.105692939272747921e+00 3.271296448822138814e+01 3.732585692327947818e-02
6.117747614374964726e+00 3.273019897164888903e+01 3.724469635359373143e-02
6.129802289477181532e+00 3.277874053995896730e+01 3.728802471800710117e-02
6.141856964579397449e+00 3.275567216162446726e+01 3.737154675732055897e-02
6.153911639681614254e+00 3.274707718668497591e+01 3.714959798786023754e-02
6.165966314783831059e+00 3.274124329177849546e+01 3.716930136722006867e-02
6.178020989886047865e+00 3.268143473559391765e+01 3.726481155419877900e-02
6.190075664988264670e+00 3.273322725297433777e+01 3.728546489298779215e-02
6.202130340090481475e+00 3.266366584957965102e+01 3.704680426503132590e-02
6.214185015192698280e+00 3.265854449145448513e+01 3.716008821134955675e-02
6.226239690294914197e+00 3.271991172185059327e+01 3.709841929273827166e-02
6.238294365397131003e+00 3.269216732088075617e+01 3.725161473065130568e-02
6.250349040499347808e+00 3.273122324327345467e+01 3.719508252878556132e-02
6.262403715601564613e+00 3.270062869517338555e+01 3.717101320031442752e-02
6.274458390703781419e+00 3.277557865798691950e+01 3.736021624356090226e-02
6.286513065805998224e+00 3.272307360382369268e+01 3.721658680958329218e-02
6.298567740908215029e+00 3.272449867738815499e+01 3.721591279538931374e-02
6.310622416010430946e+00 3.271251915273241195e+01 3.725118000639950078e-02
6.322677091112647751e+00 3.270151936615106791e+01 3.730108574437484420e-02
6.334731766214864557e+00 3.276048178490700025e+01 3.730668149772321807e-02
6.346786441317081362e+00 3.267479923680607357e+01 3.711800077618122862e-02
6.358841116419298167e+00 3.268873823761490627e+01 3.726040081875504201e-02
6.370895791521514973e+00 3.272115866122067018e+01 3.719595743722659692e-02
6.382950466623731778e+00 3.272093599347568471e+01 3.724913003608797818e-02
6.395005141725947695e+00 3.273367258846371897e+01 3.712603263965975897e-02
6.407059816828164500e+00 3.274480597569068863e+01 3.718712625315257619e-02
6.419114491930381305e+00 3.266103837019409184e+01 3.713998369755656254e-02
6.431169167032598111e+00 3.272160399670949715e+01 3.721232537300373650e-02
6.443223842134814916e+00 3.271091594497149657e+01 3.723952745770874734e-02
6.455278517237031721e+00 3.273416245750174625e+01 3.719235379772598687e-02
6.467333192339248527e+00 3.272031252379119337e+01 3.727231136817926033e-02
6.479387867441464444e+00 3.275513775903695546e+01 3.723735131214173100e-02
6.491442542543681249e+00 3.264687670164072131e+01 3.716146358860401844e-02
6.503497217645898054e+00 3.270013882613552170e+01 3.713115259581347555e-02
6.515551892748114859e+00 3.277255037666106574e+01 3.737934229535568725e-02
6.527606567850331665e+00 3.274574118021811131e+01 3.717494510869287505e-02
6.539661242952548470e+00 3.267586804198033690e+01 3.715622072829207617e-02
6.551715918054765275e+00 3.276863142435705356e+01 3.716578244647057716e-02
6.563770593156981192e+00 3.273402885685497665e+01 3.708240777402087296e-02
6.575825268259197998e+00 3.266700586574752663e+01 3.711435583680286476e-02
6.587879943361414803e+00 3.275090707189098538e+01 3.730067421209327938e-02
6.599934618463631608e+00 3.275268841384720275e+01 3.725071631092780750e-02
6.611989293565848413e+00 3.266954427803559469e+01 3.719020766022804181e-02
6.624043968668065219e+00 3.268793663373500635e+01 3.731385602415118047e-02
6.636098643770282024e+00 3.270628445588442190e+01 3.709491536763066810e-02
6.648153318872497941e+00 3.269764494739597893e+01 3.713088156902503989e-02
6.660207993974714746e+00 3.270877833462383677e+01 3.728029261101074160e-02
6.672262669076931552e+00 3.271363249145519347e+01 3.712730696259126245e-02
6.684317344179148357e+00 3.278461896841427148e+01 3.725826447677108022e-02
6.696372019281365162e+00 3.271162848175407589e+01 3.723109635445664978e-02
6.708426694383581967e+00 3.278595497488262112e+01 3.726906137717241746e-02
6.720481369485798773e+00 3.272463227803566355e+01 3.726218314653809149e-02
6.732536044588014690e+00 3.273785874206068769e+01 3.717582199474216836e-02
6.744590719690231495e+00 3.269893642031559011e+01 3.706553573849385996e-02
6.756645394792448300e+00 3.268000966202815505e+01 3.708414062748154744e-02
6.768700069894665106e+00 3.268343874529444548e+01 3.725291453120287144e-02
6.780754744996881911e+00 3.274444970729931015e+01 3.723409142405573885e-02
6.792809420099098716e+00 3.269394866283732881e+01 3.717761221363168056e-02
6.804864095201315521e+00 3.271536929986248765e+01 3.730862369766502901e-02
6.816918770303531439e+00 3.274649825054910934e+01 3.730341227028951406e-02
6.828973445405748244e+00 3.265582794497089481e+01 3.716582520188526501e-02
6.841028120507965049e+00 3.267862912201280778e+01 3.725648107565249223e-02
6.853082795610181854e+00 3.264963778167243902e+01 3.716024649410516051e-02
6.865137470712398660e+00 3.273349445426817539e+01 3.724734069954994953e-02
6.877192145814615465e+00 3.276248579460705912e+01 3.707567342093456148e-02
6.889246820916832270e+00 3.264224521255415112e+01 3.726442141880408065e-02
6.901301496019048187e+00 3.270410231198822970e+01 3.722595004462301432e-02
6.913356171121264993e+00 3.279058646396799759e+01 3.734332155613873799e-02
6.925410846223481798e+00 3.284068670649070043e+01 3.730006007926586764e-02
6.937465521325698603e+00 3.285284436534264074e+01 3.737490513337561604e-02
6.949520196427915408e+00 3.293576583341113917e+01 3.735433950069682457e-02
6.961574871530132214e+00 3.289786778328963379e+01 3.731683389955758184e-02
6.973629546632349019e+00 3.285716411958668459e+01 3.728611791146793641e-02
6.985684221734564936e+00 3.285801025701654510e+01 3.732424127156690891e-02
6.997738896836781741e+00 3.286562549387941345e+01 3.731461618246686290e-02
7.009793571938998546e+00 3.281035935968387207e+01 3.729700442888307654e-02
7.021848247041215352e+00 3.285422490535876250e+01 3.731293656876664977e-02
7.033902922143432157e+00 3.279129900075168536e+01 3.716394342748673835e-02
7.045957597245648962e+00 3.278689017941003669e+01 3.720320419421358632e-02
7.058012272347865768e+00 3.282746024246511496e+01 3.731240888277122247e-02
7.070066947450081685e+00 3.282305142112333840e+01 3.717809776524904491e-02
7.082121622552298490e+00 3.277513332249716171e+01 3.727960212430626169e-02
7.094176297654515295e+00 3.281445644618387547e+01 3.721696677820730131e-02
7.106230972756732100e+00 3.280100731441356032e+01 3.718877496660090431e-02
7.118285647858948906e+00 3.286998978167263630e+01 3.727319824130505971e-02
7.130340322961165711e+00 3.297673669840660438e+01 3.723428337936964677e-02
7.142394998063382516e+00 3.292543405006394153e+01 3.716084037818766228e-02
7.154449673165598433e+00 3.296515797568997641e+01 3.738595610296544663e-02
7.166504348267815239e+00 3.293451889404048671e+01 3.736951835872785732e-02
7.178559023370032044e+00 3.292343004036258236e+01 3.721631006058524066e-02
7.190613698472248849e+00 3.292846233139007950e+01 3.740267197043958824e-02
7.202668373574465654e+00 3.292538951651479806e+01 3.720529287376878047e-02
7.214723048676682460e+00 3.290281100721797003e+01 3.717403371904713649e-02
7.226777723778899265e+00 3.289915925620806547e+01 3.733727776085563749e-02
7.238832398881115182e+00 3.298225885847065086e+01 3.723376379220098148e-02
7.250887073983331987e+00 3.304799037666039396e+01 3.735045792611232235e-02
7.262941749085548793e+00 3.303877193203555862e+01 3.739337442984776161e-02
7.274996424187765598e+00 3.319210094092825614e+01 3.744507209966187883e-02
7.287051099289982403e+00 3.331991222629564220e+01 3.757809929960043149e-02
7.299105774392199208e+00 3.346326572023301082e+01 3.760690950408950711e-02
7.311160449494416014e+00 3.362211688918888086e+01 3.761999416548528208e-02
7.323215124596631931e+00 3.370116393850165792e+01 3.767690705612317115e-02
7.335269799698848736e+00 3.377985471942380258e+01 3.781901606712116670e-02
7.347324474801065541e+00 3.377313015353813341e+01 3.785683080844860077e-02
7.359379149903282347e+00 3.371781948579270249e+01 3.765300322396761962e-02
7.371433825005499152e+00 3.355954725297218033e+01 3.756294032663422960e-02
7.383488500107715957e+00 3.346856521255215711e+01 3.762782687462785242e-02
7.395543175209932762e+00 3.325832232815527334e+01 3.747528728598780584e-02
7.407597850312148680e+00 3.315651863535013888e+01 3.743890963133034155e-02
7.419652525414365485e+00 3.298791461918250434e+01 3.727293723179278540e-02
7.431707200516582290e+00 3.300087388191499116e+01 3.735405581578925271e-02
7.443761875618799095e+00 3.301490194982029180e+01 3.730321696807162302e-02
7.455816550721015901e+00 3.300403576388768556e+01 3.725399966769276511e-02
7.467871225823232706e+00 3.299708853025737199e+01 3.732059736350164941e-02
7.479925900925449511e+00 3.321316530956219282e+01 3.751730675216070204e-02
7.491980576027665428e+00 3.338372880188126146e+01 3.746445661596915083e-02
7.504035251129882234e+00 3.362986572669899488e+01 3.772095749942106641e-02
7.516089926232099039e+00 3.410922484715096914e+01 3.798932886555779487e-02
7.528144601334315844e+00 3.436979064181542043e+01 3.809389272391288522e-02
7.540199276436532649e+00 3.467836360220203318e+01 3.814712634762376653e-02
7.552253951538749455e+00 3.499392832976766243e+01 3.825050123710603545e-02
7.564308626640966260e+00 3.531648482451268478e+01 3.841568270673371976e-02
7.576363301743182177e+00 3.539927269193302806e+01 3.844239988917907969e-02
7.588417976845398982e+00 3.559597737746252477e+01 3.852281333668653579e-02
7.600472651947615788e+00 3.558110317212798179e+01 3.874658181397746398e-02
7.612527327049832593e+00 3.518720393203194874e+01 3.844846558681339760e-02
7.624582002152049398e+00 3.461610570082714133e+01 3.820119934154737884e-02
7.636636677254266203e+00 3.374587562160557752e+01 3.754682522613071727e-02
7.648691352356483009e+00 3.298239245911852890e+01 3.714367502781883157e-02
7.660746027458698926e+00 3.251136111231263470e+01 3.686429082497367365e-02
7.672800702560915731e+00 3.210298846882110979e+01 3.673678300210393710e-02
7.684855377663132536e+00 3.182915167658246602e+01 3.640312137610212523e-02
7.696910052765349342e+00 3.152133578652578549e+01 3.630797437125195953e-02
7.708964727867566147e+00 3.088343723195977830e+01 3.588412040158973915e-02
7.721019402969782952e+00 2.985840853673262885e+01 3.532662707878223007e-02
7.733074078071999757e+00 2.828659692800547631e+01 3.430059715331323922e-02
7.745128753174215674e+00 2.648610554563285646e+01 3.320506469485692141e-02
7.757183428276432480e+00 2.447180859495006544e+01 3.196059435354114270e-02
7.769238103378649285e+00 2.256675243973863232e+01 3.058415656742298830e-02
7.781292778480866090e+00 2.068200358283018403e+01 2.939368942597030826e-02
7.793347453583082896e+00 1.872154769277489450e+01 2.789939310032201955e-02
7.805402128685299701e+00 1.674065090376832998e+01 2.651171566336037871e-02
7.817456803787516506e+00 1.486200314305355796e+01 2.494118529831132816e-02
7.829511478889732423e+00 1.319288572995657027e+01 2.348303938346073261e-02
7.841566153991949228e+00 1.182998099915984014e+01 2.227628146587060445e-02
7.853620829094166034e+00 1.074015599027141121e+01 2.120298685347698359e-02
7.865675504196382839e+00 9.748037587688232364e+00 2.020041857611521580e-02
7.877730179298599644e+00 8.876115233609775501e+00 1.927186279578796055e-02
7.889784854400816450e+00 7.956764649944129353e+00 1.839528255691405892e-02
7.901839529503033255e+00 7.028062021007946747e+00 1.719411394850586458e-02
7.913894204605249172e+00 6.168341859327679977e+00 1.613596414491758751e-02
7.925948879707465977e+00 5.543268966846746082e+00 1.529892918809781441e-02
7.938003554809682782e+00 5.108487928852476045e+00 1.462664003479133626e-02
7.950058229911899588e+00 4.772393235239615450e+00 1.416935166726319799e-02
7.962112905014116393e+00 4.427213697649572843e+00 1.364382269845602902e-02
7.974167580116333198e+00 4.080609086494894733e+00 1.304842002071294332e-02
7.986222255218550004e+00 3.837366842356692231e+00 1.259959404048129235e-02
7.998276930320765921e+00 3.622715136617898235e+00 1.222417932324752939e-02
8.010331605422983614e+00 3.346918868227098276e+00 1.174138493340528937e-02
8.022386280525200419e+00 2.830730502826705575e+00 1.083944384172637679e-02
8.034440955627417225e+00 2.131197516569095729e+00 9.469942176401239392e-03
8.046495630729632254e+00 1.578981510101720609e+00 8.214613716158647092e-03
8.058550305831849059e+00 1.195859388841430171e+00 7.161903369405100105e-03
8.070604980934065864e+00 9.523499434094565563e-01 6.416600609887867374e-03
8.082659656036282669e+00 7.414390557785447422e-01 5.636685937111350977e-03
8.094714331138499475e+00 5.550661535962454485e-01 4.900524605896608779e-03
8.106769006240716280e+00 3.871301406620877850e-01 4.097950646394616162e-03
8.118823681342933085e+00 2.558897720285793209e-01 3.355728291367399488e-03
8.130878356445149890e+00 1.844134260303497697e-01 2.842748535768024973e-03
8.142933031547366696e+00 1.617013160869872901e-01 2.666502998406781576e-03
8.154987706649583501e+00 1.590738367013825594e-01 2.650774875118388184e-03
8.167042381751800306e+00 1.560455553756009139e-01 2.618104920890281136e-03
8.179097056854017112e+00 1.652639999996715625e-01 2.691704109200507202e-03
8.191151731956233917e+00 1.733691059010284141e-01 2.758937171048580616e-03
8.203206407058450722e+00 1.956804139042138679e-01 2.916650608541031166e-03
8.215261082160665751e+00 2.277445691183727361e-01 3.138200221021620120e-03
8.227315757262882556e+00 2.490761390455699664e-01 3.272717251880807518e-03
8.239370432365099362e+00 2.410155666931217133e-01 3.220263456261022571e-03
8.251425107467316167e+00 2.138501018589037961e-01 3.039518803745545981e-03
8.263479782569532972e+00 1.463817752624445856e-01 2.526674473686625535e-03
8.275534457671749777e+00 7.539529830220047246e-02 1.822018352769555222e-03
8.287589132773966583e+00 2.854600485038899862e-02 1.125089454049868140e-03
8.299643807876183388e+00 7.837904607907111507e-03 5.904578295508203581e-04
8.311698482978400193e+00 3.250949070325119799e-03 3.804022763438583404e-04
8.323753158080616998e+00 1.558674211799712011e-03 2.634333110174124910e-04
8.335807833182833804e+00 1.336006467256895978e-03 2.438959171697530363e-04
8.347862508285050609e+00 1.068805173805516782e-03 2.181515007512134768e-04
8.359917183387267414e+00 3.562683912685056303e-04 1.259565411131922160e-04
8.371971858489484219e+00 4.453354890856321056e-05 4.453340056896852703e-05
8.384026533591699248e+00 0.000000000000000000e+00 0.000000000000000000e+00
8.396081208693916054e+00 0.000000000000000000e+00 0.000000000000000000e+00
8.408135883796132859e+00 0.000000000000000000e+00 0.000000000000000000e+00
8.420190558898349664e+00 0.000000000000000000e+00 0.000000000000000000e+00
8.432245234000566469e+00 0.000000000000000000e+00 0.000000000000000000e+00
8.444299909102783275e+00 0.000000000000000000e+00 0.000000000000000000e+00
8.456354584205000080e+00 0.000000000000000000e+00 0.000000000000000000e+00
8.468409259307216885e+00 0.000000000000000000e+00 0.000000000000000000e+00
8.480463934409433691e+00 0.000000000000000000e+00 0.000000000000000000e+00
8.492518609511650496e+00 0.000000000000000000e+00 0.000000000000000000e+00
8.504573284613867301e+00 0.000000000000000000e+00 0.000000000000000000e+00
8.516627959716084106e+00 0.000000000000000000e+00 0.000000000000000000e+00
8.528682634818300912e+00 0.000000000000000000e+00 0.000000000000000000e+00
8.540737309920517717e+00 0.000000000000000000e+00 0.000000000000000000e+00
8.552791985022732746e+00 0.000000000000000000e+00 0.000000000000000000e+00
8.564846660124949551e+00 0.000000000000000000e+00 0.000000000000000000e+00
8.576901335227166356e+00 0.000000000000000000e+00 0.000000000000000000e+00
8.588956010329383162e+00 0.000000000000000000e+00 0.000000000000000000e+00
8.601010685431599967e+00 0.000000000000000000e+00 0.000000000000000000e+00
8.613065360533816772e+00 0.000000000000000000e+00 0.000000000000000000e+00
8.625120035636033577e+00 0.000000000000000000e+00 0.000000000000000000e+00
8.637174710738250383e+00 0.000000000000000000e+00 0.000000000000000000e+00
8.649229385840467188e+00 0.000000000000000000e+00 0.000000000000000000e+00
8.661284060942683993e+00 0.000000000000000000e+00 0.000000000000000000e+00
8.673338736044900799e+00 0.000000000000000000e+00 0.000000000000000000e+00
8.685393411147117604e+00 0.000000000000000000e+00 0.000000000000000000e+00
8.697448086249334409e+00 0.000000000000000000e+00 0.000000000000000000e+00
8.709502761351551214e+00 0.000000000000000000e+00 0.000000000000000000e+00
8.721557436453766243e+00 0.000000000000000000e+00 0.000000000000000000e+00
8.733612111555983049e+00 0.000000000000000000e+00 0.000000000000000000e+00
8.745666786658199854e+00 0.000000000000000000e+00 0.000000000000000000e+00
8.757721461760416659e+00 0.000000000000000000e+00 0.000000000000000000e+00
8.769776136862633464e+00 0.000000000000000000e+00 0.000000000000000000e+00
8.781830811964850270e+00 0.000000000000000000e+00 0.000000000000000000e+00
8.793885487067067075e+00 0.000000000000000000e+00 0.000000000000000000e+00
8.805940162169283880e+00 0.000000000000000000e+00 0.000000000000000000e+00
8.817994837271500685e+00 0.000000000000000000e+00 0.000000000000000000e+00
8.830049512373717491e+00 0.000000000000000000e+00 0.000000000000000000e+00
8.842104187475934296e+00 0.000000000000000000e+00 0.000000000000000000e+00
8.854158862578151101e+00 0.000000000000000000e+00 0.000000000000000000e+00
8.866213537680367907e+00 0.000000000000000000e+00 0.000000000000000000e+00
8.878268212782584712e+00 0.000000000000000000e+00 0.000000000000000000e+00
8.890322887884799741e+00 0.000000000000000000e+00 0.000000000000000000e+00
8.902377562987016546e+00 0.000000000000000000e+00 0.000000000000000000e+00
8.914432238089233351e+00 0.000000000000000000e+00 0.000000000000000000e+00
8.926486913191450157e+00 0.000000000000000000e+00 0.000000000000000000e+00
8.938541588293666962e+00 0.000000000000000000e+00 0.000000000000000000e+00
8.950596263395883767e+00 0.000000000000000000e+00 0.000000000000000000e+00
8.962650938498100572e+00 0.000000000000000000e+00 0.000000000000000000e+00
8.974705613600317378e+00 0.000000000000000000e+00 0.000000000000000000e+00
8.986760288702534183e+00 0.000000000000000000e+00 0.000000000000000000e+00
8.998814963804750988e+00 0.000000000000000000e+00 0.000000000000000000e+00
9.010869638906967793e+00 0.000000000000000000e+00 0.000000000000000000e+00
9.022924314009184599e+00 0.000000000000000000e+00 0.000000000000000000e+00
9.034978989111401404e+00 0.000000000000000000e+00 0.000000000000000000e+00
9.047033664213618209e+00 0.000000000000000000e+00 0.000000000000000000e+00
9.059088339315833238e+00 0.000000000000000000e+00 0.000000000000000000e+00
9.071143014418050043e+00 0.000000000000000000e+00 0.000000000000000000e+00
9.083197689520266849e+00 0.000000000000000000e+00 0.000000000000000000e+00
9.095252364622483654e+00 0.000000000000000000e+00 0.000000000000000000e+00
9.107307039724700459e+00 0.000000000000000000e+00 0.000000000000000000e+00
9.119361714826917265e+00 0.000000000000000000e+00 0.000000000000000000e+00
9.131416389929134070e+00 0.000000000000000000e+00 0.000000000000000000e+00
9.143471065031350875e+00 0.000000000000000000e+00 0.000000000000000000e+00
9.155525740133567680e+00 0.000000000000000000e+00 0.000000000000000000e+00
9.167580415235784486e+00 0.000000000000000000e+00 0.000000000000000000e+00
9.179635090338001291e+00 0.000000000000000000e+00 0.000000000000000000e+00
9.191689765440218096e+00 0.000000000000000000e+00 0.000000000000000000e+00
9.203744440542434901e+00 0.000000000000000000e+00 0.000000000000000000e+00
9.215799115644651707e+00 0.000000000000000000e+00 0.000000000000000000e+00
9.227853790746866736e+00 0.000000000000000000e+00 0.000000000000000000e+00
9.239908465849083541e+00 0.000000000000000000e+00 0.000000000000000000e+00
9.251963140951300346e+00 0.000000000000000000e+00 0.000000000000000000e+00
9.264017816053517151e+00 0.000000000000000000e+00 0.000000000000000000e+00
9.276072491155733957e+00 0.000000000000000000e+00 0.000000000000000000e+00
9.288127166257950762e+00 0.000000000000000000e+00 0.000000000000000000e+00
9.300181841360167567e+00 0.000000000000000000e+00 0.000000000000000000e+00
9.312236516462384373e+00 0.000000000000000000e+00 0.000000000000000000e+00
9.324291191564601178e+00 0.000000000000000000e+00 0.000000000000000000e+00
9.336345866666817983e+00 0.000000000000000000e+00 0.000000000000000000e+00
9.348400541769034788e+00 0.000000000000000000e+00 0.000000000000000000e+00
9.360455216871251594e+00 0.000000000000000000e+00 0.000000000000000000e+00
9.372509891973468399e+00 0.000000000000000000e+00 0.000000000000000000e+00
9.384564567075685204e+00 0.000000000000000000e+00 0.000000000000000000e+00
9.396619242177900233e+00 0.000000000000000000e+00 0.000000000000000000e+00
9.408673917280117038e+00 0.000000000000000000e+00 0.000000000000000000e+00
9.420728592382333844e+00 0.000000000000000000e+00 0.000000000000000000e+00
9.432783267484550649e+00 0.000000000000000000e+00 0.000000000000000000e+00
9.444837942586767454e+00 0.000000000000000000e+00 0.000000000000000000e+00
9.456892617688984259e+00 0.000000000000000000e+00 0.000000000000000000e+00
9.468947292791201065e+00 0.000000000000000000e+00 0.000000000000000000e+00
9.481001967893417870e+00 0.000000000000000000e+00 0.000000000000000000e+00
9.493056642995634675e+00 0.000000000000000000e+00 0.000000000000000000e+00
9.505111318097851481e+00 0.000000000000000000e+00 0.000000000000000000e+00
9.517165993200068286e+00 0.000000000000000000e+00 0.000000000000000000e+00
9.529220668302285091e+00 0.000000000000000000e+00 0.000000000000000000e+00
9.541275343404501896e+00 0.000000000000000000e+00 0.000000000000000000e+00
9.553330018506718702e+00 0.000000000000000000e+00 0.000000000000000000e+00
9.565384693608933731e+00 0.000000000000000000e+00 0.000000000000000000e+00
9.577439368711150536e+00 0.000000000000000000e+00 0.000000000000000000e+00
9.589494043813367341e+00 0.000000000000000000e+00 0.000000000000000000e+00
9.601548718915584146e+00 0.000000000000000000e+00 0.000000000000000000e+00
9.613603394017800952e+00 0.000000000000000000e+00 0.000000000000000000e+00
9.625658069120017757e+00 0.000000000000000000e+00 0.000000000000000000e+00
9.637712744222234562e+00 0.000000000000000000e+00 0.000000000000000000e+00
