# Command line was: maicos velocity_planar2 -s in.lammpsdata -top data -f out.dcd -shift True -nbins 800 -dz 0.5 -zmin 0 -zmax -1 -d 2 -o data/velocities -b 50000 -e -1
# d, rho, drho, vx, dvx, vy, dvy, vz, dvz
5.000000000000000278e-02 0.000000000000000000e+00 0.000000000000000000e+00 0.000000000000000000e+00 0.000000000000000000e+00 0.000000000000000000e+00 0.000000000000000000e+00 0.000000000000000000e+00 0.000000000000000000e+00
1.502506265664160234e-01 0.000000000000000000e+00 0.000000000000000000e+00 0.000000000000000000e+00 0.000000000000000000e+00 0.000000000000000000e+00 0.000000000000000000e+00 0.000000000000000000e+00 0.000000000000000000e+00
2.505012531328320580e-01 0.000000000000000000e+00 0.000000000000000000e+00 0.000000000000000000e+00 0.000000000000000000e+00 0.000000000000000000e+00 0.000000000000000000e+00 0.000000000000000000e+00 0.000000000000000000e+00
3.507518796992480925e-01 0.000000000000000000e+00 0.000000000000000000e+00 0.000000000000000000e+00 0.000000000000000000e+00 0.000000000000000000e+00 0.000000000000000000e+00 0.000000000000000000e+00 0.000000000000000000e+00
4.510025062656641270e-01 0.000000000000000000e+00 0.000000000000000000e+00 0.000000000000000000e+00 0.000000000000000000e+00 0.000000000000000000e+00 0.000000000000000000e+00 0.000000000000000000e+00 0.000000000000000000e+00
5.512531328320802171e-01 0.000000000000000000e+00 0.000000000000000000e+00 0.000000000000000000e+00 0.000000000000000000e+00 0.000000000000000000e+00 0.000000000000000000e+00 0.000000000000000000e+00 0.000000000000000000e+00
6.515037593984962516e-01 0.000000000000000000e+00 0.000000000000000000e+00 0.000000000000000000e+00 0.000000000000000000e+00 0.000000000000000000e+00 0.000000000000000000e+00 0.000000000000000000e+00 0.000000000000000000e+00
7.517543859649122862e-01 0.000000000000000000e+00 0.000000000000000000e+00 0.000000000000000000e+00 0.000000000000000000e+00 0.000000000000000000e+00 0.000000000000000000e+00 0.000000000000000000e+00 0.000000000000000000e+00
8.520050125313283207e-01 0.000000000000000000e+00 0.000000000000000000e+00 0.000000000000000000e+00 0.000000000000000000e+00 0.000000000000000000e+00 0.000000000000000000e+00 0.000000000000000000e+00 0.000000000000000000e+00
9.522556390977443552e-01 0.000000000000000000e+00 0.000000000000000000e+00 0.000000000000000000e+00 0.000000000000000000e+00 0.000000000000000000e+00 0.000000000000000000e+00 0.000000000000000000e+00 0.000000000000000000e+00
1.052506265664160390e+00 0.000000000000000000e+00 0.000000000000000000e+00 0.000000000000000000e+00 0.000000000000000000e+00 0.000000000000000000e+00 0.000000000000000000e+00 0.000000000000000000e+00 0.000000000000000000e+00
1.152756892230576424e+00 0.000000000000000000e+00 0.000000000000000000e+00 0.000000000000000000e+00 0.000000000000000000e+00 0.000000000000000000e+00 0.000000000000000000e+00 0.000000000000000000e+00 0.000000000000000000e+00
1.253007518796992459e+00 0.000000000000000000e+00 0.000000000000000000e+00 0.000000000000000000e+00 0.000000000000000000e+00 0.000000000000000000e+00 0.000000000000000000e+00 0.000000000000000000e+00 0.000000000000000000e+00
1.353258145363408493e+00 0.000000000000000000e+00 0.000000000000000000e+00 0.000000000000000000e+00 0.000000000000000000e+00 0.000000000000000000e+00 0.000000000000000000e+00 0.000000000000000000e+00 0.000000000000000000e+00
1.453508771929824528e+00 0.000000000000000000e+00 0.000000000000000000e+00 0.000000000000000000e+00 0.000000000000000000e+00 0.000000000000000000e+00 0.000000000000000000e+00 0.000000000000000000e+00 0.000000000000000000e+00
1.553759398496240562e+00 0.000000000000000000e+00 0.000000000000000000e+00 0.000000000000000000e+00 0.000000000000000000e+00 0.000000000000000000e+00 0.000000000000000000e+00 0.000000000000000000e+00 0.000000000000000000e+00
1.654010025062656597e+00 0.000000000000000000e+00 0.000000000000000000e+00 0.000000000000000000e+00 0.000000000000000000e+00 0.000000000000000000e+00 0.000000000000000000e+00 0.000000000000000000e+00 0.000000000000000000e+00
1.754260651629072632e+00 0.000000000000000000e+00 0.000000000000000000e+00 0.000000000000000000e+00 0.000000000000000000e+00 0.000000000000000000e+00 0.000000000000000000e+00 0.000000000000000000e+00 0.000000000000000000e+00
1.854511278195488666e+00 0.000000000000000000e+00 0.000000000000000000e+00 0.000000000000000000e+00 0.000000000000000000e+00 0.000000000000000000e+00 0.000000000000000000e+00 0.000000000000000000e+00 0.000000000000000000e+00
1.954761904761904701e+00 0.000000000000000000e+00 0.000000000000000000e+00 0.000000000000000000e+00 0.000000000000000000e+00 0.000000000000000000e+00 0.000000000000000000e+00 0.000000000000000000e+00 0.000000000000000000e+00
2.055012531328320513e+00 0.000000000000000000e+00 0.000000000000000000e+00 0.000000000000000000e+00 0.000000000000000000e+00 0.000000000000000000e+00 0.000000000000000000e+00 0.000000000000000000e+00 0.000000000000000000e+00
2.155263157894736548e+00 0.000000000000000000e+00 0.000000000000000000e+00 0.000000000000000000e+00 0.000000000000000000e+00 0.000000000000000000e+00 0.000000000000000000e+00 0.000000000000000000e+00 0.000000000000000000e+00
2.255513784461152582e+00 0.000000000000000000e+00 0.000000000000000000e+00 0.000000000000000000e+00 0.000000000000000000e+00 0.000000000000000000e+00 0.000000000000000000e+00 0.000000000000000000e+00 0.000000000000000000e+00
2.355764411027568617e+00 0.000000000000000000e+00 0.000000000000000000e+00 0.000000000000000000e+00 0.000000000000000000e+00 0.000000000000000000e+00 0.000000000000000000e+00 0.000000000000000000e+00 0.000000000000000000e+00
2.456015037593984651e+00 0.000000000000000000e+00 0.000000000000000000e+00 0.000000000000000000e+00 0.000000000000000000e+00 0.000000000000000000e+00 0.000000000000000000e+00 0.000000000000000000e+00 0.000000000000000000e+00
2.556265664160400686e+00 0.000000000000000000e+00 0.000000000000000000e+00 0.000000000000000000e+00 0.000000000000000000e+00 0.000000000000000000e+00 0.000000000000000000e+00 0.000000000000000000e+00 0.000000000000000000e+00
2.656516290726816720e+00 0.000000000000000000e+00 0.000000000000000000e+00 0.000000000000000000e+00 0.000000000000000000e+00 0.000000000000000000e+00 0.000000000000000000e+00 0.000000000000000000e+00 0.000000000000000000e+00
2.756766917293232755e+00 0.000000000000000000e+00 0.000000000000000000e+00 0.000000000000000000e+00 0.000000000000000000e+00 0.000000000000000000e+00 0.000000000000000000e+00 0.000000000000000000e+00 0.000000000000000000e+00
2.857017543859648789e+00 0.000000000000000000e+00 0.000000000000000000e+00 0.000000000000000000e+00 0.000000000000000000e+00 0.000000000000000000e+00 0.000000000000000000e+00 0.000000000000000000e+00 0.000000000000000000e+00
2.957268170426064824e+00 0.000000000000000000e+00 0.000000000000000000e+00 0.000000000000000000e+00 0.000000000000000000e+00 0.000000000000000000e+00 0.000000000000000000e+00 0.000000000000000000e+00 0.000000000000000000e+00
3.057518796992480858e+00 0.000000000000000000e+00 0.000000000000000000e+00 0.000000000000000000e+00 0.000000000000000000e+00 0.000000000000000000e+00 0.000000000000000000e+00 0.000000000000000000e+00 0.000000000000000000e+00
3.157769423558896893e+00 0.000000000000000000e+00 0.000000000000000000e+00 0.000000000000000000e+00 0.000000000000000000e+00 0.000000000000000000e+00 0.000000000000000000e+00 0.000000000000000000e+00 0.000000000000000000e+00
3.258020050125312927e+00 0.000000000000000000e+00 0.000000000000000000e+00 0.000000000000000000e+00 0.000000000000000000e+00 0.000000000000000000e+00 0.000000000000000000e+00 0.000000000000000000e+00 0.000000000000000000e+00
3.358270676691728962e+00 0.000000000000000000e+00 0.000000000000000000e+00 0.000000000000000000e+00 0.000000000000000000e+00 0.000000000000000000e+00 0.000000000000000000e+00 0.000000000000000000e+00 0.000000000000000000e+00
3.458521303258144997e+00 0.000000000000000000e+00 0.000000000000000000e+00 0.000000000000000000e+00 0.000000000000000000e+00 0.000000000000000000e+00 0.000000000000000000e+00 0.000000000000000000e+00 0.000000000000000000e+00
3.558771929824561031e+00 0.000000000000000000e+00 0.000000000000000000e+00 0.000000000000000000e+00 0.000000000000000000e+00 0.000000000000000000e+00 0.000000000000000000e+00 0.000000000000000000e+00 0.000000000000000000e+00
3.659022556390977066e+00 0.000000000000000000e+00 0.000000000000000000e+00 0.000000000000000000e+00 0.000000000000000000e+00 0.000000000000000000e+00 0.000000000000000000e+00 0.000000000000000000e+00 0.000000000000000000e+00
3.759273182957393100e+00 0.000000000000000000e+00 0.000000000000000000e+00 0.000000000000000000e+00 0.000000000000000000e+00 0.000000000000000000e+00 0.000000000000000000e+00 0.000000000000000000e+00 0.000000000000000000e+00
3.859523809523809135e+00 0.000000000000000000e+00 0.000000000000000000e+00 0.000000000000000000e+00 0.000000000000000000e+00 0.000000000000000000e+00 0.000000000000000000e+00 0.000000000000000000e+00 0.000000000000000000e+00
3.959774436090225169e+00 0.000000000000000000e+00 0.000000000000000000e+00 0.000000000000000000e+00 0.000000000000000000e+00 0.000000000000000000e+00 0.000000000000000000e+00 0.000000000000000000e+00 0.000000000000000000e+00
4.060025062656641204e+00 0.000000000000000000e+00 0.000000000000000000e+00 0.000000000000000000e+00 0.000000000000000000e+00 0.000000000000000000e+00 0.000000000000000000e+00 0.000000000000000000e+00 0.000000000000000000e+00
4.160275689223056794e+00 0.000000000000000000e+00 0.000000000000000000e+00 0.000000000000000000e+00 0.000000000000000000e+00 0.000000000000000000e+00 0.000000000000000000e+00 0.000000000000000000e+00 0.000000000000000000e+00
4.260526315789473273e+00 0.000000000000000000e+00 0.000000000000000000e+00 0.000000000000000000e+00 0.000000000000000000e+00 0.000000000000000000e+00 0.000000000000000000e+00 0.000000000000000000e+00 0.000000000000000000e+00
4.360776942355889751e+00 0.000000000000000000e+00 0.000000000000000000e+00 0.000000000000000000e+00 0.000000000000000000e+00 0.000000000000000000e+00 0.000000000000000000e+00 0.000000000000000000e+00 0.000000000000000000e+00
4.461027568922305342e+00 0.000000000000000000e+00 0.000000000000000000e+00 0.000000000000000000e+00 0.000000000000000000e+00 0.000000000000000000e+00 0.000000000000000000e+00 0.000000000000000000e+00 0.000000000000000000e+00
4.561278195488720932e+00 0.000000000000000000e+00 0.000000000000000000e+00 0.000000000000000000e+00 0.000000000000000000e+00 0.000000000000000000e+00 0.000000000000000000e+00 0.000000000000000000e+00 0.000000000000000000e+00
4.661528822055137411e+00 0.000000000000000000e+00 0.000000000000000000e+00 0.000000000000000000e+00 0.000000000000000000e+00 0.000000000000000000e+00 0.000000000000000000e+00 0.000000000000000000e+00 0.000000000000000000e+00
4.761779448621553890e+00 0.000000000000000000e+00 0.000000000000000000e+00 0.000000000000000000e+00 0.000000000000000000e+00 0.000000000000000000e+00 0.000000000000000000e+00 0.000000000000000000e+00 0.000000000000000000e+00
4.862030075187969480e+00 0.000000000000000000e+00 0.000000000000000000e+00 0.000000000000000000e+00 0.000000000000000000e+00 0.000000000000000000e+00 0.000000000000000000e+00 0.000000000000000000e+00 0.000000000000000000e+00
4.962280701754385071e+00 0.000000000000000000e+00 0.000000000000000000e+00 0.000000000000000000e+00 0.000000000000000000e+00 0.000000000000000000e+00 0.000000000000000000e+00 0.000000000000000000e+00 0.000000000000000000e+00
5.062531328320801549e+00 0.000000000000000000e+00 0.000000000000000000e+00 0.000000000000000000e+00 0.000000000000000000e+00 0.000000000000000000e+00 0.000000000000000000e+00 0.000000000000000000e+00 0.000000000000000000e+00
5.162781954887218028e+00 0.000000000000000000e+00 0.000000000000000000e+00 0.000000000000000000e+00 0.000000000000000000e+00 0.000000000000000000e+00 0.000000000000000000e+00 0.000000000000000000e+00 0.000000000000000000e+00
5.263032581453633618e+00 0.000000000000000000e+00 0.000000000000000000e+00 0.000000000000000000e+00 0.000000000000000000e+00 0.000000000000000000e+00 0.000000000000000000e+00 0.000000000000000000e+00 0.000000000000000000e+00
5.363283208020049209e+00 0.000000000000000000e+00 0.000000000000000000e+00 0.000000000000000000e+00 0.000000000000000000e+00 0.000000000000000000e+00 0.000000000000000000e+00 0.000000000000000000e+00 0.000000000000000000e+00
5.463533834586465687e+00 0.000000000000000000e+00 0.000000000000000000e+00 0.000000000000000000e+00 0.000000000000000000e+00 0.000000000000000000e+00 0.000000000000000000e+00 0.000000000000000000e+00 0.000000000000000000e+00
5.563784461152882166e+00 0.000000000000000000e+00 0.000000000000000000e+00 0.000000000000000000e+00 0.000000000000000000e+00 0.000000000000000000e+00 0.000000000000000000e+00 0.000000000000000000e+00 0.000000000000000000e+00
5.664035087719297756e+00 0.000000000000000000e+00 0.000000000000000000e+00 0.000000000000000000e+00 0.000000000000000000e+00 0.000000000000000000e+00 0.000000000000000000e+00 0.000000000000000000e+00 0.000000000000000000e+00
5.764285714285713347e+00 0.000000000000000000e+00 0.000000000000000000e+00 0.000000000000000000e+00 0.000000000000000000e+00 0.000000000000000000e+00 0.000000000000000000e+00 0.000000000000000000e+00 0.000000000000000000e+00
5.864536340852129825e+00 0.000000000000000000e+00 0.000000000000000000e+00 0.000000000000000000e+00 0.000000000000000000e+00 0.000000000000000000e+00 0.000000000000000000e+00 0.000000000000000000e+00 0.000000000000000000e+00
5.964786967418546304e+00 0.000000000000000000e+00 0.000000000000000000e+00 0.000000000000000000e+00 0.000000000000000000e+00 0.000000000000000000e+00 0.000000000000000000e+00 0.000000000000000000e+00 0.000000000000000000e+00
6.065037593984961894e+00 0.000000000000000000e+00 0.000000000000000000e+00 0.000000000000000000e+00 0.000000000000000000e+00 0.000000000000000000e+00 0.000000000000000000e+00 0.000000000000000000e+00 0.000000000000000000e+00
6.165288220551377485e+00 0.000000000000000000e+00 0.000000000000000000e+00 0.000000000000000000e+00 0.000000000000000000e+00 0.000000000000000000e+00 0.000000000000000000e+00 0.000000000000000000e+00 0.000000000000000000e+00
6.265538847117793964e+00 0.000000000000000000e+00 0.000000000000000000e+00 0.000000000000000000e+00 0.000000000000000000e+00 0.000000000000000000e+00 0.000000000000000000e+00 0.000000000000000000e+00 0.000000000000000000e+00
6.365789473684210442e+00 0.000000000000000000e+00 0.000000000000000000e+00 0.000000000000000000e+00 0.000000000000000000e+00 0.000000000000000000e+00 0.000000000000000000e+00 0.000000000000000000e+00 0.000000000000000000e+00
6.466040100250626033e+00 0.000000000000000000e+00 0.000000000000000000e+00 0.000000000000000000e+00 0.000000000000000000e+00 0.000000000000000000e+00 0.000000000000000000e+00 0.000000000000000000e+00 0.000000000000000000e+00
6.566290726817041623e+00 0.000000000000000000e+00 0.000000000000000000e+00 0.000000000000000000e+00 0.000000000000000000e+00 0.000000000000000000e+00 0.000000000000000000e+00 0.000000000000000000e+00 0.000000000000000000e+00
6.666541353383458102e+00 0.000000000000000000e+00 0.000000000000000000e+00 0.000000000000000000e+00 0.000000000000000000e+00 0.000000000000000000e+00 0.000000000000000000e+00 0.000000000000000000e+00 0.000000000000000000e+00
6.766791979949874580e+00 0.000000000000000000e+00 0.000000000000000000e+00 0.000000000000000000e+00 0.000000000000000000e+00 0.000000000000000000e+00 0.000000000000000000e+00 0.000000000000000000e+00 0.000000000000000000e+00
6.867042606516290171e+00 0.000000000000000000e+00 0.000000000000000000e+00 0.000000000000000000e+00 0.000000000000000000e+00 0.000000000000000000e+00 0.000000000000000000e+00 0.000000000000000000e+00 0.000000000000000000e+00
6.967293233082705761e+00 0.000000000000000000e+00 0.000000000000000000e+00 0.000000000000000000e+00 0.000000000000000000e+00 0.000000000000000000e+00 0.000000000000000000e+00 0.000000000000000000e+00 0.000000000000000000e+00
7.067543859649122240e+00 0.000000000000000000e+00 0.000000000000000000e+00 0.000000000000000000e+00 0.000000000000000000e+00 0.000000000000000000e+00 0.000000000000000000e+00 0.000000000000000000e+00 0.000000000000000000e+00
7.167794486215538718e+00 0.000000000000000000e+00 0.000000000000000000e+00 0.000000000000000000e+00 0.000000000000000000e+00 0.000000000000000000e+00 0.000000000000000000e+00 0.000000000000000000e+00 0.000000000000000000e+00
7.268045112781954309e+00 0.000000000000000000e+00 0.000000000000000000e+00 0.000000000000000000e+00 0.000000000000000000e+00 0.000000000000000000e+00 0.000000000000000000e+00 0.000000000000000000e+00 0.000000000000000000e+00
7.368295739348369899e+00 0.000000000000000000e+00 0.000000000000000000e+00 0.000000000000000000e+00 0.000000000000000000e+00 0.000000000000000000e+00 0.000000000000000000e+00 0.000000000000000000e+00 0.000000000000000000e+00
7.468546365914786378e+00 0.000000000000000000e+00 0.000000000000000000e+00 0.000000000000000000e+00 0.000000000000000000e+00 0.000000000000000000e+00 0.000000000000000000e+00 0.000000000000000000e+00 0.000000000000000000e+00
7.568796992481202857e+00 0.000000000000000000e+00 0.000000000000000000e+00 0.000000000000000000e+00 0.000000000000000000e+00 0.000000000000000000e+00 0.000000000000000000e+00 0.000000000000000000e+00 0.000000000000000000e+00
7.669047619047618447e+00 0.000000000000000000e+00 0.000000000000000000e+00 0.000000000000000000e+00 0.000000000000000000e+00 0.000000000000000000e+00 0.000000000000000000e+00 0.000000000000000000e+00 0.000000000000000000e+00
7.769298245614034037e+00 0.000000000000000000e+00 0.000000000000000000e+00 0.000000000000000000e+00 0.000000000000000000e+00 0.000000000000000000e+00 0.000000000000000000e+00 0.000000000000000000e+00 0.000000000000000000e+00
7.869548872180450516e+00 0.000000000000000000e+00 0.000000000000000000e+00 0.000000000000000000e+00 0.000000000000000000e+00 0.000000000000000000e+00 0.000000000000000000e+00 0.000000000000000000e+00 0.000000000000000000e+00
7.969799498746866995e+00 0.000000000000000000e+00 0.000000000000000000e+00 0.000000000000000000e+00 0.000000000000000000e+00 0.000000000000000000e+00 0.000000000000000000e+00 0.000000000000000000e+00 0.000000000000000000e+00
8.070050125313283473e+00 0.000000000000000000e+00 0.000000000000000000e+00 0.000000000000000000e+00 0.000000000000000000e+00 0.000000000000000000e+00 0.000000000000000000e+00 0.000000000000000000e+00 0.000000000000000000e+00
8.170300751879699064e+00 0.000000000000000000e+00 0.000000000000000000e+00 0.000000000000000000e+00 0.000000000000000000e+00 0.000000000000000000e+00 0.000000000000000000e+00 0.000000000000000000e+00 0.000000000000000000e+00
8.270551378446114654e+00 0.000000000000000000e+00 0.000000000000000000e+00 0.000000000000000000e+00 0.000000000000000000e+00 0.000000000000000000e+00 0.000000000000000000e+00 0.000000000000000000e+00 0.000000000000000000e+00
8.370802005012532021e+00 0.000000000000000000e+00 0.000000000000000000e+00 0.000000000000000000e+00 0.000000000000000000e+00 0.000000000000000000e+00 0.000000000000000000e+00 0.000000000000000000e+00 0.000000000000000000e+00
8.471052631578947612e+00 0.000000000000000000e+00 0.000000000000000000e+00 0.000000000000000000e+00 0.000000000000000000e+00 0.000000000000000000e+00 0.000000000000000000e+00 0.000000000000000000e+00 0.000000000000000000e+00
8.571303258145363202e+00 0.000000000000000000e+00 0.000000000000000000e+00 0.000000000000000000e+00 0.000000000000000000e+00 0.000000000000000000e+00 0.000000000000000000e+00 0.000000000000000000e+00 0.000000000000000000e+00
8.671553884711780569e+00 0.000000000000000000e+00 0.000000000000000000e+00 0.000000000000000000e+00 0.000000000000000000e+00 0.000000000000000000e+00 0.000000000000000000e+00 0.000000000000000000e+00 0.000000000000000000e+00
8.771804511278196159e+00 0.000000000000000000e+00 0.000000000000000000e+00 0.000000000000000000e+00 0.000000000000000000e+00 0.000000000000000000e+00 0.000000000000000000e+00 0.000000000000000000e+00 0.000000000000000000e+00
8.872055137844611750e+00 0.000000000000000000e+00 0.000000000000000000e+00 0.000000000000000000e+00 0.000000000000000000e+00 0.000000000000000000e+00 0.000000000000000000e+00 0.000000000000000000e+00 0.000000000000000000e+00
8.972305764411027340e+00 0.000000000000000000e+00 0.000000000000000000e+00 0.000000000000000000e+00 0.000000000000000000e+00 0.000000000000000000e+00 0.000000000000000000e+00 0.000000000000000000e+00 0.000000000000000000e+00
9.072556390977442931e+00 0.000000000000000000e+00 0.000000000000000000e+00 0.000000000000000000e+00 0.000000000000000000e+00 0.000000000000000000e+00 0.000000000000000000e+00 0.000000000000000000e+00 0.000000000000000000e+00
9.172807017543860297e+00 0.000000000000000000e+00 0.000000000000000000e+00 0.000000000000000000e+00 0.000000000000000000e+00 0.000000000000000000e+00 0.000000000000000000e+00 0.000000000000000000e+00 0.000000000000000000e+00
9.273057644110275888e+00 0.000000000000000000e+00 0.000000000000000000e+00 0.000000000000000000e+00 0.000000000000000000e+00 0.000000000000000000e+00 0.000000000000000000e+00 0.000000000000000000e+00 0.000000000000000000e+00
9.373308270676691478e+00 0.000000000000000000e+00 0.000000000000000000e+00 0.000000000000000000e+00 0.000000000000000000e+00 0.000000000000000000e+00 0.000000000000000000e+00 0.000000000000000000e+00 0.000000000000000000e+00
9.473558897243108845e+00 0.000000000000000000e+00 0.000000000000000000e+00 0.000000000000000000e+00 0.000000000000000000e+00 0.000000000000000000e+00 0.000000000000000000e+00 0.000000000000000000e+00 0.000000000000000000e+00
9.573809523809524435e+00 0.000000000000000000e+00 0.000000000000000000e+00 0.000000000000000000e+00 0.000000000000000000e+00 0.000000000000000000e+00 0.000000000000000000e+00 0.000000000000000000e+00 0.000000000000000000e+00
9.674060150375940026e+00 0.000000000000000000e+00 0.000000000000000000e+00 0.000000000000000000e+00 0.000000000000000000e+00 0.000000000000000000e+00 0.000000000000000000e+00 0.000000000000000000e+00 0.000000000000000000e+00
9.774310776942355616e+00 0.000000000000000000e+00 0.000000000000000000e+00 0.000000000000000000e+00 0.000000000000000000e+00 0.000000000000000000e+00 0.000000000000000000e+00 0.000000000000000000e+00 0.000000000000000000e+00
9.874561403508771207e+00 0.000000000000000000e+00 0.000000000000000000e+00 0.000000000000000000e+00 0.000000000000000000e+00 0.000000000000000000e+00 0.000000000000000000e+00 0.000000000000000000e+00 0.000000000000000000e+00
9.974812030075188574e+00 0.000000000000000000e+00 0.000000000000000000e+00 0.000000000000000000e+00 0.000000000000000000e+00 0.000000000000000000e+00 0.000000000000000000e+00 0.000000000000000000e+00 0.000000000000000000e+00
1.007506265664160416e+01 0.000000000000000000e+00 0.000000000000000000e+00 0.000000000000000000e+00 0.000000000000000000e+00 0.000000000000000000e+00 0.000000000000000000e+00 0.000000000000000000e+00 0.000000000000000000e+00
1.017531328320801975e+01 0.000000000000000000e+00 0.000000000000000000e+00 0.000000000000000000e+00 0.000000000000000000e+00 0.000000000000000000e+00 0.000000000000000000e+00 0.000000000000000000e+00 0.000000000000000000e+00
1.027556390977443712e+01 0.000000000000000000e+00 0.000000000000000000e+00 0.000000000000000000e+00 0.000000000000000000e+00 0.000000000000000000e+00 0.000000000000000000e+00 0.000000000000000000e+00 0.000000000000000000e+00
1.037581453634085271e+01 0.000000000000000000e+00 0.000000000000000000e+00 0.000000000000000000e+00 0.000000000000000000e+00 0.000000000000000000e+00 0.000000000000000000e+00 0.000000000000000000e+00 0.000000000000000000e+00
1.047606516290726830e+01 0.000000000000000000e+00 0.000000000000000000e+00 0.000000000000000000e+00 0.000000000000000000e+00 0.000000000000000000e+00 0.000000000000000000e+00 0.000000000000000000e+00 0.000000000000000000e+00
1.057631578947368389e+01 0.000000000000000000e+00 0.000000000000000000e+00 0.000000000000000000e+00 0.000000000000000000e+00 0.000000000000000000e+00 0.000000000000000000e+00 0.000000000000000000e+00 0.000000000000000000e+00
1.067656641604009948e+01 0.000000000000000000e+00 0.000000000000000000e+00 0.000000000000000000e+00 0.000000000000000000e+00 0.000000000000000000e+00 0.000000000000000000e+00 0.000000000000000000e+00 0.000000000000000000e+00
1.077681704260651685e+01 0.000000000000000000e+00 0.000000000000000000e+00 0.000000000000000000e+00 0.000000000000000000e+00 0.000000000000000000e+00 0.000000000000000000e+00 0.000000000000000000e+00 0.000000000000000000e+00
1.087706766917293244e+01 0.000000000000000000e+00 0.000000000000000000e+00 0.000000000000000000e+00 0.000000000000000000e+00 0.000000000000000000e+00 0.000000000000000000e+00 0.000000000000000000e+00 0.000000000000000000e+00
1.097731829573934803e+01 0.000000000000000000e+00 0.000000000000000000e+00 0.000000000000000000e+00 0.000000000000000000e+00 0.000000000000000000e+00 0.000000000000000000e+00 0.000000000000000000e+00 0.000000000000000000e+00
1.107756892230576540e+01 0.000000000000000000e+00 0.000000000000000000e+00 0.000000000000000000e+00 0.000000000000000000e+00 0.000000000000000000e+00 0.000000000000000000e+00 0.000000000000000000e+00 0.000000000000000000e+00
1.117781954887218099e+01 0.000000000000000000e+00 0.000000000000000000e+00 0.000000000000000000e+00 0.000000000000000000e+00 0.000000000000000000e+00 0.000000000000000000e+00 0.000000000000000000e+00 0.000000000000000000e+00
1.127807017543859658e+01 0.000000000000000000e+00 0.000000000000000000e+00 0.000000000000000000e+00 0.000000000000000000e+00 0.000000000000000000e+00 0.000000000000000000e+00 0.000000000000000000e+00 0.000000000000000000e+00
1.137832080200501217e+01 0.000000000000000000e+00 0.000000000000000000e+00 0.000000000000000000e+00 0.000000000000000000e+00 0.000000000000000000e+00 0.000000000000000000e+00 0.000000000000000000e+00 0.000000000000000000e+00
1.147857142857142776e+01 0.000000000000000000e+00 0.000000000000000000e+00 0.000000000000000000e+00 0.000000000000000000e+00 0.000000000000000000e+00 0.000000000000000000e+00 0.000000000000000000e+00 0.000000000000000000e+00
1.157882205513784513e+01 0.000000000000000000e+00 0.000000000000000000e+00 0.000000000000000000e+00 0.000000000000000000e+00 0.000000000000000000e+00 0.000000000000000000e+00 0.000000000000000000e+00 0.000000000000000000e+00
1.167907268170426072e+01 0.000000000000000000e+00 0.000000000000000000e+00 0.000000000000000000e+00 0.000000000000000000e+00 0.000000000000000000e+00 0.000000000000000000e+00 0.000000000000000000e+00 0.000000000000000000e+00
1.177932330827067631e+01 0.000000000000000000e+00 0.000000000000000000e+00 0.000000000000000000e+00 0.000000000000000000e+00 0.000000000000000000e+00 0.000000000000000000e+00 0.000000000000000000e+00 0.000000000000000000e+00
1.187957393483709367e+01 0.000000000000000000e+00 0.000000000000000000e+00 0.000000000000000000e+00 0.000000000000000000e+00 0.000000000000000000e+00 0.000000000000000000e+00 0.000000000000000000e+00 0.000000000000000000e+00
1.197982456140350926e+01 0.000000000000000000e+00 0.000000000000000000e+00 0.000000000000000000e+00 0.000000000000000000e+00 0.000000000000000000e+00 0.000000000000000000e+00 0.000000000000000000e+00 0.000000000000000000e+00
1.208007518796992485e+01 5.463436082261319965e-02 1.394696740972249313e-02 7.912583975732159726e-04 4.833831559716875864e-02 -8.327906978136304095e-03 4.125438853486226159e-02 -4.190567106499857621e-03 3.956820298032305561e-02
1.218032581453634045e+01 1.099349130953253401e-01 2.635845720005510623e-02 3.320157005139602515e-03 3.155943841901319435e-02 4.914082596768383146e-03 3.344017698150467122e-02 4.907475739132738206e-03 2.587486860839554453e-02
1.228057644110275604e+01 1.098283224633095079e-01 2.743657866412610793e-02 1.496312459681787177e-04 3.061770598357055687e-02 1.778634175949392283e-03 2.778527001887824352e-02 2.293943927673779484e-03 2.796640361980655409e-02
1.238082706766917340e+01 1.092753835597273931e-01 2.626407809980056685e-02 -3.106872933114348916e-03 2.954105033463572116e-02 8.343063774874508480e-04 3.410688568264913512e-02 1.487444952998849632e-03 2.749533568222285729e-02
1.248107769423558899e+01 1.082627725555770221e-01 2.707877639996919550e-02 2.225511775235613880e-03 3.651432319837712159e-02 -9.440878829516910660e-04 3.018522967928408129e-02 -1.358089386221473030e-03 2.985231009619578046e-02
1.258132832080200458e+01 1.068770943393712453e-01 2.712148031907592183e-02 1.740808371233387719e-03 2.979197824547396081e-02 8.626822688229403399e-05 2.844085579806992017e-02 3.061899224361685351e-03 2.651736806550378245e-02
1.268157894736842195e+01 1.073234426109375278e-01 2.700738824065416696e-02 -3.171985474918760997e-03 3.104679480747579365e-02 1.561205799424605261e-03 3.281689727387618327e-02 -4.162379157097880616e-03 2.505152223346394577e-02
1.278182957393483754e+01 1.075832572764761075e-01 2.625563448924967888e-02 -5.611309561514158176e-03 3.387929677122904215e-02 -7.958259979944831740e-04 3.013627413688652057e-02 4.917647512516994807e-03 2.607398050925447547e-02
1.288208020050125313e+01 1.078697196000186487e-01 2.809570013599846372e-02 -2.222665068010124412e-04 2.721589988258188431e-02 7.255685772089670409e-03 3.182928813983016553e-02 2.136665295003774333e-04 3.209256544400272693e-02
1.298233082706766872e+01 1.063774507517970536e-01 2.728407884492288493e-02 2.109081829696658229e-03 3.253736414509781488e-02 3.643899452998221756e-03 3.349038337906576346e-02 -1.113198568016292560e-03 2.824629948781574168e-02
1.308258145363408431e+01 1.079629864030325070e-01 2.448973050801891288e-02 -1.174561531949446045e-03 3.173241347322883904e-02 1.111015858206529849e-03 2.882626524739680118e-02 2.791143120093039949e-03 2.986595433382192855e-02
1.318283208020050168e+01 1.082627725555770221e-01 2.783492577657985245e-02 4.352100528453730667e-03 3.355531634430096444e-02 2.190359902206999877e-03 3.609525326010674245e-02 1.322821827271266097e-03 2.839352444265606790e-02
1.328308270676691727e+01 1.099615607533292877e-01 2.806996232248622214e-02 -2.646980624749875697e-03 2.821548186460667851e-02 -3.446779019485672049e-04 2.769497666597101754e-02 -4.858661890032663251e-03 2.607163806149123339e-02
1.338333333333333286e+01 1.086225159386304401e-01 2.637888918834576518e-02 -1.756659205246262952e-03 3.040487319326192622e-02 9.388514357794814974e-04 3.334084111472179757e-02 -3.725986507610648535e-03 2.879754983231607585e-02
1.348358395989975023e+01 1.089422878346779366e-01 2.792740271344221203e-02 1.331321062156672281e-03 3.121687767612205122e-02 -7.585334928050713101e-04 2.972246671319329556e-02 -3.048624053855446357e-03 3.269515582919609725e-02
1.358383458646616582e+01 1.090355546376917811e-01 2.645158517173589255e-02 1.416781860674357725e-03 3.040441512662546419e-02 4.941998569938532530e-03 3.207167987444382862e-02 7.570135234787275531e-04 2.700249786414819081e-02
1.368408521303258141e+01 1.097017460877907080e-01 2.689583365636157714e-02 -4.461681599457800566e-03 3.159693473260778013e-02 -4.122064942486675446e-03 3.278492230735542690e-02 2.645137685461814141e-03 2.860388191199959157e-02
1.378433583959899700e+01 1.108342715529588851e-01 2.806598323033141981e-02 2.599995100558722284e-03 2.896974759792649012e-02 -6.418922971553085895e-03 3.133271362733345416e-02 -2.792214275828455564e-04 3.448790076557429335e-02
1.388458646616541259e+01 1.091421452697076133e-01 2.590243769215900410e-02 3.410836491247223445e-03 2.920278310633887472e-02 -2.222288561836296885e-03 3.048437699084014657e-02 -2.623738633998539890e-03 3.074096526228771789e-02
1.398483709273182996e+01 1.103412898798856873e-01 2.650582394873720118e-02 4.832900897578861280e-03 3.404211877247954876e-02 -1.541628418866524764e-03 3.120993642922521502e-02 4.286899325169263092e-04 2.544284548957644054e-02
1.408508771929824555e+01 1.096417888572818050e-01 2.501354707413368933e-02 -1.182839005339093516e-03 3.642002769665424883e-02 1.256381323165156952e-03 2.581507012117987068e-02 -1.942847710324458962e-04 2.684098823108579945e-02
1.418533834586466114e+01 1.094286075932501545e-01 2.565462015453158148e-02 -4.289598493915868643e-03 3.138126345378599441e-02 -1.257088775959979169e-03 3.263905392771039582e-02 5.217219865119378415e-04 3.113233698804339020e-02
1.428558897243107850e+01 1.089622735781809043e-01 2.591276140924692051e-02 -1.470549751178881282e-03 3.483292859121080859e-02 2.697975314477080253e-03 3.503211910228810205e-02 1.549930873732591847e-03 2.856520535862423077e-02
1.438583959899749409e+01 1.112140006795152847e-01 2.559576909158686395e-02 -5.608586162007327298e-03 3.158572851568943601e-02 5.175006858696619243e-03 3.004160623890788154e-02 -1.777188662713855385e-04 2.670204690575314621e-02
1.448609022556390968e+01 1.113605627985370383e-01 2.497848751702973560e-02 2.709795570981573956e-04 2.990825936848907213e-02 -1.138246717546295694e-04 3.189231900322349322e-02 7.953416666573712070e-04 2.852157275760250355e-02
1.458634085213032527e+01 1.106810475194361376e-01 2.599188779778143638e-02 1.074608618532397510e-03 3.422104612126303236e-02 -1.351005707207970962e-03 2.966682082834481982e-02 1.976227012100616621e-03 2.759921230750164711e-02
1.468659147869674086e+01 1.113339151405330907e-01 2.565438834073435065e-02 -2.473926698101797713e-03 3.543572304743873580e-02 1.008029805286119168e-03 3.442207777809232205e-02 4.305660214609421379e-04 2.707903502959411665e-02
1.478684210526315823e+01 1.096817603442877403e-01 2.522615010191524634e-02 4.689412214947346821e-03 3.052058647455852328e-02 1.472810526007854639e-03 3.199195477924123704e-02 -4.365892759884674079e-05 3.016278201457795946e-02
1.488709273182957382e+01 1.110607766459925233e-01 2.528480392679597830e-02 -3.995066285659171906e-03 2.892146161519096315e-02 -4.769801775785255209e-03 3.011205676528695349e-02 -7.141764376851921945e-04 2.699243207331734201e-02
1.498734335839598941e+01 1.116869966090855149e-01 2.488461387874661701e-02 -1.932147331599613814e-04 3.478253776148813176e-02 2.131236510681179096e-03 3.389031864275306866e-02 -3.644696629477259166e-03 3.226707686440578871e-02
1.508759398496240678e+01 1.097883509763035725e-01 2.518133183937414782e-02 -4.937128509707844337e-03 2.988323632920025438e-02 1.506521544079518233e-03 3.054307356183664016e-02 -2.455260899292779041e-03 2.865154158985619426e-02
1.518784461152882237e+01 1.106077664599252469e-01 2.410701096394558818e-02 -2.470529101276305439e-03 2.982978035330631841e-02 -5.827495944138557510e-03 3.143699216885239428e-02 2.564525115313445215e-03 3.183017129083084984e-02
1.528809523809523796e+01 1.083693631875928542e-01 2.385133887178118167e-02 7.776641273096005381e-04 3.168737478386367268e-02 3.605725385398951197e-03 3.263113408818284905e-02 9.674295240526603265e-04 2.803756741820116055e-02
1.538834586466165355e+01 1.097883509763035725e-01 2.370069128668365194e-02 -5.962190999507468135e-03 3.174957058078365507e-02 -3.727392346191488615e-03 3.202521111307543578e-02 -1.388755458988651754e-04 2.676750550829101738e-02
1.548859649122806914e+01 1.090155688941888135e-01 2.249509049891502271e-02 -1.114997382157809254e-03 3.091851535385512287e-02 2.090277865918457358e-03 3.180840922144272803e-02 5.578521148799331060e-04 2.924332139174374082e-02
1.558884711779448651e+01 1.092021025002165163e-01 2.255049300659588835e-02 -2.691328584675696089e-03 3.292093103467081533e-02 -1.283309287530674456e-03 3.559094222247435185e-02 7.833045682488559225e-04 2.932092118930818003e-02
1.568909774436090210e+01 1.094352695077511345e-01 2.087462939785606625e-02 6.387192382644586025e-03 3.342413812783177895e-02 -5.043220998179550468e-03 2.879227108486891867e-02 -8.392612171631208193e-04 2.629826840920028788e-02
1.578934837092731769e+01 1.102680088203747966e-01 2.414821883736325073e-02 -1.017399688642940149e-02 3.175827716662119743e-02 3.103806781840509621e-03 2.840154096919414103e-02 -2.061741021134048685e-03 2.862606766974966355e-02
1.588959899749373506e+01 1.111407196200043940e-01 2.255174762073160546e-02 1.390561790796495355e-03 2.915488069432284682e-02 6.011884422354022740e-03 2.962386764541940359e-02 1.898108160632097164e-03 2.835190035465081498e-02
1.598984962406015065e+01 1.101947277608639197e-01 2.251413595041892521e-02 -1.602528511027782572e-03 3.063719327786675051e-02 1.272165774157414837e-03 3.310097435021620849e-02 -3.427513844650543606e-03 3.029316571536105202e-02
1.609010025062656624e+01 1.110807623894954910e-01 2.171592435555898953e-02 -3.096639628416518897e-03 3.360616211431623201e-02 -8.864267655993883022e-04 3.042271424867745017e-02 4.486225754442323653e-03 2.747299555571780169e-02
1.619035087719298360e+01 1.105344854004143701e-01 2.261436505086384524e-02 -2.980417575688991340e-04 3.051924982744757056e-02 -1.924972372819234740e-03 3.271227985430640028e-02 -7.059649172961670086e-05 2.873497832943075828e-02
1.629060150375939742e+01 1.117136442670894764e-01 2.163957499382723054e-02 -7.612381457543741922e-04 3.173645658906235067e-02 1.702745096864795348e-03 3.017862492456287529e-02 6.802412007022133611e-03 2.840066655904239373e-02
1.639085213032581478e+01 1.120733876501428944e-01 2.250324410274908218e-02 3.260338167451015071e-03 3.245398161997406494e-02 -5.001255148571193999e-03 2.467745525637781573e-02 -6.072356840268950014e-03 2.674411966036138733e-02
1.649110275689222860e+01 1.128461697322576535e-01 2.340369439265289897e-02 2.834201977711996601e-03 2.871964308142692032e-02 -7.095307014963342547e-03 2.769858629488001003e-02 4.849910439902367382e-04 2.731269975874865349e-02
1.659135338345864596e+01 1.112539721665212200e-01 2.370424889476552971e-02 -4.168137174143364369e-03 3.144453664585050018e-02 -4.123301698756635242e-03 3.178957049640538518e-02 1.795589537558781772e-03 2.755557352257071921e-02
1.669160401002506333e+01 1.131992512008100915e-01 2.376290614922521929e-02 1.289470167906828211e-05 3.492882222598088504e-02 2.684031208264605131e-03 3.044255543665778246e-02 4.137355433843994696e-04 2.408271451325834714e-02
1.679185463659147715e+01 1.126662980407309445e-01 2.279899087626558601e-02 2.133172844214509950e-03 3.197766609470517607e-02 4.655191769619332169e-03 3.447935032441593051e-02 6.969329045341141017e-04 2.410494866774976278e-02
1.689210526315789451e+01 1.146582104765267451e-01 2.687583347802836864e-02 -1.078585249511355331e-03 3.011086034803268224e-02 -9.465854629013658976e-04 3.299594989566873027e-02 -4.578857804712241700e-03 2.996931420144542668e-02
1.699235588972431188e+01 1.140053428554297921e-01 2.328006093860704451e-02 5.682581155889506082e-04 2.785278068376607907e-02 8.973644058446924839e-04 2.709563416807602917e-02 3.453992576195721365e-04 2.629107561683140595e-02
1.709260651629072569e+01 1.126662980407309445e-01 2.610489367166321517e-02 3.557653075845242877e-03 3.039782296187781147e-02 -2.955813891483258151e-03 2.841733302759420765e-02 -4.123197692995531180e-04 2.701423433345948727e-02
1.719285714285714306e+01 1.130260414237843625e-01 2.470128299933491839e-02 -3.185324581476203787e-03 3.346182417399645725e-02 -1.232468836430555478e-03 3.414156558095908511e-02 -2.556357848364675372e-03 2.630153309368222364e-02
1.729310776942356043e+01 1.124531167766992940e-01 2.457316495568755144e-02 3.794806804567033617e-03 3.126987141095104866e-02 7.731213729035997170e-03 2.633432681261372796e-02 -2.091559771500979201e-03 2.785544306773565446e-02
1.739335839598997424e+01 1.127329171857408413e-01 2.419964261118575516e-02 -2.618197378228473773e-03 3.201388442975515447e-02 -9.309434237830951442e-04 2.954198422282308667e-02 4.524821817146483342e-03 2.816605581782180220e-02
1.749360902255639161e+01 1.117336300105924440e-01 2.480650077798132735e-02 3.541033606326096390e-04 3.243128424747918764e-02 1.490750015475598338e-03 2.903314335890571501e-02 -1.489147103265690613e-03 2.807441697896324515e-02
1.759385964912280542e+01 1.109075526124697758e-01 2.340797685993298294e-02 3.798435314820301952e-03 3.354439459846954297e-02 -6.513922662051666208e-04 2.755878839865323268e-02 -9.600114216676509720e-04 2.730582102676066755e-02
1.769411027568922279e+01 1.111873530215113232e-01 2.543272568868975431e-02 -1.176768907025438392e-03 3.158373534582255282e-02 3.280533463774980388e-05 3.184595468064859575e-02 4.368236679127976245e-03 2.610466390674038434e-02
1.779436090225564016e+01 1.095618458832699343e-01 2.332077748874514592e-02 -1.218935256294502098e-03 3.049482455624449515e-02 2.980940226199391748e-03 3.260227044151142728e-02 -1.552846046619042915e-03 2.814553013083465408e-02
1.789461152882205397e+01 1.108609192109628466e-01 2.290228138041821779e-02 -1.180876138241902708e-03 3.158577334658508456e-02 -2.095428230697020822e-03 2.881794671358081997e-02 1.719515266771744254e-03 2.916062964831603321e-02
1.799486215538847134e+01 1.106677236904341638e-01 2.438174792634103388e-02 3.136990897338987061e-03 3.462079630063023133e-02 5.351433301909675269e-03 3.012873993368636594e-02 2.809503611331179342e-03 2.653763588271926960e-02
1.809511278195488515e+01 1.129460984497724918e-01 2.415059691428880079e-02 -3.627455835855154104e-03 3.119440093155364385e-02 -2.026333747950329230e-03 2.872855674087517255e-02 -5.072073105854741932e-04 3.020754665944115278e-02
1.819536340852130252e+01 1.121533306241547651e-01 2.165980404800954551e-02 4.778188420140022354e-05 3.248414295306204652e-02 6.545743629056955098e-04 2.908860029548120119e-02 7.330529531311669698e-04 2.775611512195986369e-02
1.829561403508771988e+01 1.126796218697329183e-01 2.385133235919549566e-02 -2.540553098264912348e-03 3.110232452576605633e-02 -6.043178534160442619e-04 3.067821332908208035e-02 -4.214352165642729769e-03 2.707275275537195450e-02
1.839586466165413370e+01 1.107210190064420730e-01 2.389854468182458710e-02 -2.897348140541015568e-03 2.771638103674659015e-02 4.001080741907816173e-03 3.239120107982794428e-02 -4.687687409604533728e-03 2.961011357475147598e-02
1.849611528822055107e+01 1.115071249175588058e-01 2.446361317319625459e-02 -1.925860956398221682e-04 3.030385593775864958e-02 1.814476799053062086e-05 3.105333459811266544e-02 -1.941200808333678552e-03 3.172923065471207338e-02
1.859636591478696843e+01 1.122266116836656558e-01 2.427084943442733844e-02 -2.319867347813679096e-03 2.577657563080354777e-02 3.457192603667795430e-03 2.972529268407438779e-02 2.362926241703644948e-03 2.412851466609124487e-02
1.869661654135338225e+01 1.125796931522180799e-01 2.436048075220170750e-02 -3.977738562572569886e-03 3.392791634738837742e-02 -3.438884111926262654e-03 3.001969456478164461e-02 2.525522514930076973e-03 3.057519908737088565e-02
1.879686716791979961e+01 1.126996076132358859e-01 2.448469832528747323e-02 3.856153344540239405e-03 2.615560307425419603e-02 -3.174589795335474793e-03 3.125256946245632411e-02 -1.418487866281477067e-03 3.057983150916755016e-02
1.889711779448621698e+01 1.126196646392240153e-01 2.377703922280343177e-02 1.524736337104790540e-03 3.074694454950514452e-02 -4.228026139887362724e-04 3.170446752933830242e-02 -1.627515897109839491e-03 2.634512676301853720e-02
1.899736842105263079e+01 1.123398642301824679e-01 2.574046090807213805e-02 5.166763105492213053e-04 2.736352518691813687e-02 -1.106021365145139386e-03 3.333720004007544035e-02 3.041690630218043655e-03 2.870717984746081614e-02
1.909761904761904816e+01 1.121400067951527912e-01 2.604715795537838885e-02 2.710728464673080399e-05 2.886727445463502240e-02 -1.343855574334011909e-03 3.160710180382549778e-02 2.664072552400321633e-03 3.135746810728647083e-02
1.919786967418546197e+01 1.124064833751923648e-01 2.458902715302491507e-02 6.419370049323438977e-04 3.122914960662363099e-02 1.157483591303211205e-03 3.082217196934299019e-02 -1.151358314206502292e-03 2.715684951498394464e-02
1.929812030075187934e+01 1.136322756433743864e-01 2.496418661840530198e-02 9.131845452079304960e-04 3.096467103945382826e-02 -5.825545359482232942e-04 3.098679146322601621e-02 4.304925786506227578e-03 3.034620389706504245e-02
1.939837092731829671e+01 1.111007481329984586e-01 2.397212987157617756e-02 -2.162177223299117847e-03 3.055443456117976075e-02 -7.445169280904641524e-04 2.759407541013541784e-02 -1.749391611975561469e-03 2.754756316450934425e-02
1.949862155388471052e+01 1.124930882637052293e-01 2.434289812370164438e-02 4.503247980765245212e-03 3.344133323722692230e-02 1.136512825899756466e-03 3.238655923398316844e-02 -6.178443966407733828e-03 2.771665660008676771e-02
1.959887218045112789e+01 1.110741004749944971e-01 2.506329728006448723e-02 -5.232138916972558541e-03 3.015865232882115887e-02 -7.889002002608648968e-04 3.288275316325977443e-02 3.082133602721746565e-03 2.724893121849852537e-02
1.969912280701754170e+01 1.125796931522180799e-01 2.466195309343822972e-02 1.170528546210259637e-03 3.104556524153522651e-02 -5.864663510430510786e-04 2.994050826302045720e-02 -4.116048117206535899e-03 2.768223203470306440e-02
1.979937343358395907e+01 1.126729599552319383e-01 2.387302522389877363e-02 4.688076738626834397e-03 2.443466814191679048e-02 1.621254393492270159e-03 3.660620484604361347e-02 -4.147007470155158158e-03 3.116489162290111276e-02
1.989962406015037644e+01 1.134324182083447097e-01 2.450296257911430825e-02 1.157331529862212641e-03 3.254063220484038066e-02 1.106897777810813936e-03 3.222044345870229282e-02 1.934120779396172060e-03 2.721060976892006322e-02
1.999987468671679025e+01 1.125263978362101708e-01 2.299993443500477491e-02 -3.541580894885010614e-03 3.361299605137735291e-02 3.821213228023351456e-03 3.054431639656449496e-02 1.897334544403462067e-03 2.670073732898206598e-02
2.010012531328320762e+01 1.127928744162497443e-01 2.319450463714108762e-02 -1.567177558774088741e-03 3.233524349767063349e-02 -1.082048884299192850e-03 3.059784719153580898e-02 6.106724776772263705e-04 2.918294660049250075e-02
2.020037593984962498e+01 1.122998927431765326e-01 2.260407420731294290e-02 -1.695323505546064745e-03 3.017882165252421325e-02 5.168980610715390037e-04 3.062870054314537072e-02 -2.350617617638475678e-03 3.526548738009663980e-02
2.030062656641603880e+01 1.124597786912002739e-01 2.392799719564929137e-02 -5.542373249075017950e-04 2.986773967700178181e-02 -2.611547453087805643e-03 3.046682482491522292e-02 5.219978924818759018e-03 2.382847993371376913e-02
2.040087719298245617e+01 1.129594222787744795e-01 2.279938798447904771e-02 3.080822810564685238e-03 3.054604252514033641e-02 -7.536947790268372447e-05 3.228876229368436018e-02 -1.614135811791050880e-03 2.714652377621201707e-02
2.050112781954887353e+01 1.116869966090855149e-01 2.303835578612684412e-02 3.555764040768191660e-03 3.007883214313393158e-02 4.864002306401810256e-03 2.889902723066325313e-02 -6.348543859322144586e-03 2.680015718698591440e-02
2.060137844611528735e+01 1.117269680960914502e-01 2.432963554785258151e-02 4.656076804010199875e-03 3.326401231084411686e-02 -3.243202178701014207e-03 3.315513562711111528e-02 2.672542536310488614e-03 2.943383087223427549e-02
2.070162907268170471e+01 1.100814752143470937e-01 2.391304765793875881e-02 -4.688057241994275127e-03 3.072402227895429730e-02 6.872893603365634293e-04 2.804270840959231792e-02 -8.819101018394891710e-04 2.780205902291913930e-02
2.080187969924811853e+01 1.107343428354440468e-01 2.334306322502831960e-02 -3.395458452408745085e-03 3.092247566685638743e-02 3.704292886786767478e-04 2.929996951608806674e-02 2.376787438158325591e-03 2.342039498171077580e-02
2.090213032581453589e+01 1.110274670734875818e-01 2.386104343994854132e-02 -2.517938354751334592e-04 2.774448315011012606e-02 3.773760077134703707e-03 3.265035649563013953e-02 1.680209845066423305e-03 2.851018288796607417e-02
2.100238095238095326e+01 1.118735302151132177e-01 2.319116737184120924e-02 -6.268323466361331187e-05 2.899518648681684990e-02 -3.767570570865591377e-03 2.891055511979022039e-02 -1.554496375344584886e-03 2.850750846564917285e-02
2.110263157894736707e+01 1.114804772595548443e-01 2.467036018803690431e-02 -1.211458249804259635e-03 2.927897808069564872e-02 4.725236063015171052e-03 3.223294905277251238e-02 3.285600337716890109e-03 2.606181367378848646e-02
2.120288220551378444e+01 1.124930882637052293e-01 2.255882430527205232e-02 7.389057452516409850e-04 3.045389111773309093e-02 1.882606464809528316e-03 2.898791883716343373e-02 -1.246339815386263671e-03 3.106680907464528033e-02
2.130313283208019826e+01 1.106277522034282146e-01 2.098615577129380252e-02 3.503558219044919288e-03 2.860848705295234926e-02 -1.723864758532928716e-04 3.119518280365655288e-02 2.768858531543930308e-03 2.690526419425462099e-02
2.140338345864661562e+01 1.096617746007847727e-01 2.138545012223005276e-02 -5.921242362103736057e-04 3.232421661314436451e-02 5.258269208527735321e-03 2.717119834859940339e-02 -6.179712102065641061e-03 2.941545310193659571e-02
2.150363408521303299e+01 1.113006055680281353e-01 2.305142848517592602e-02 -4.691664802322792309e-03 3.041936203632165936e-02 -8.369098999896429705e-03 3.386141279482601102e-02 1.451637910215443578e-03 2.723000397052816740e-02
2.160388471177944680e+01 1.100015322403352230e-01 2.305701601510159321e-02 3.261112483635607512e-04 3.002254791602333717e-02 -3.136898018129647466e-03 2.658902452720608711e-02 -1.094795378699705462e-03 2.909297062222982941e-02
2.170413533834586417e+01 1.112806198245251676e-01 2.236517314642594983e-02 3.644674723412304543e-03 3.057812561241047764e-02 5.684437076773652189e-03 2.824387562426487405e-02 2.920241008095009107e-03 2.910528155871247927e-02
2.180438596491228154e+01 1.106210902889272346e-01 2.250788226077650445e-02 9.840240237440059032e-04 2.771620241335672266e-02 -2.942268072699077389e-04 2.758329027342302717e-02 2.373772694755956012e-03 2.539267500887605264e-02
2.190463659147869535e+01 1.107743143224499821e-01 2.262915760063540296e-02 -2.302563591447434957e-03 3.289952568436495250e-02 -5.155239900459410857e-03 3.085315886283581180e-02 3.615862757211983722e-03 2.643986212491696366e-02
2.200488721804511272e+01 1.100215179838381907e-01 2.321490815434699984e-02 -6.790416606974312465e-03 2.706311012266647553e-02 -4.596590940716211099e-04 3.337333805151494748e-02 -2.148251185747335375e-03 2.745439130658612267e-02
2.210513784461153008e+01 1.103612756233886549e-01 2.200131329723147011e-02 2.266497314903654064e-03 3.038760482503413338e-02 -6.492691789771137898e-04 2.920361249665524850e-02 -2.894577094284922058e-03 3.066786968382475415e-02
2.220538847117794390e+01 1.099482369243273139e-01 2.175212919677574352e-02 1.780684794230019794e-04 3.074276683996545606e-02 -4.190482000120347023e-03 2.802755238374251764e-02 -1.365776840727087526e-03 2.989093852398808440e-02
2.230563909774436127e+01 1.079829721465354747e-01 2.350723248993867240e-02 4.681236806634602940e-03 3.597402942553390437e-02 -1.030284649903710943e-03 3.103527011535639132e-02 1.809454350640015774e-03 3.340268449482920732e-02
2.240588972431077508e+01 1.099016035228203847e-01 2.160873995576528470e-02 8.766719532184665984e-04 2.843794971161846957e-02 -2.123416676745305560e-03 2.707541591745712267e-02 -7.057240408397968436e-04 2.736984313938348526e-02
2.250614035087719245e+01 1.086358397676324278e-01 2.104622156033756492e-02 -5.167293964071929379e-04 3.254969166248750101e-02 4.833693929648747757e-03 2.924121054958335464e-02 4.268663252200138175e-03 2.587666766344641142e-02
2.260639097744360981e+01 1.098882796938184109e-01 2.203279040629036248e-02 4.332346784944026384e-03 3.082790647983589885e-02 1.382484258231910044e-03 2.718623793876452296e-02 1.555071625867348066e-04 2.502703543997503513e-02
2.270664160401002363e+01 1.089955831506858458e-01 1.994971337055002902e-02 2.192315425630547102e-03 2.673089716166640595e-02 -3.194233351911475102e-03 2.848546534722817478e-02 -2.772278274918737496e-03 2.582719434694556726e-02
2.280689223057644099e+01 1.107210190064420730e-01 2.177906094986900923e-02 -2.600125807494360662e-04 3.256470744655116933e-02 -6.077145659365323568e-03 3.548028408017278590e-02 -1.535056453024802271e-03 2.910960874420532793e-02
2.290714285714285481e+01 1.085359110501175894e-01 2.266278741090260382e-02 1.289087198484948705e-03 3.104069962351109838e-02 8.009766480250491913e-03 3.285881496314919936e-02 -1.694527365956283648e-03 2.571012087973822621e-02
2.300739348370927218e+01 1.105011758279094286e-01 2.464271890305909374e-02 -3.478849339026261062e-03 3.016303215063256479e-02 -5.319020935751191635e-03 3.171776273004504876e-02 3.077591999083729556e-03 2.593300123551261008e-02
2.310764411027568954e+01 1.082694344700780159e-01 2.514084730014265467e-02 9.905622904001246901e-04 3.294432494081551976e-02 -6.414254549513698092e-04 3.114129643575342526e-02 -8.688106707045237373e-04 3.099691688495241279e-02
2.320789473684210336e+01 1.092553978162244255e-01 2.366170986015662600e-02 -5.155429482631927046e-04 3.001039379171996369e-02 -6.090409499754276777e-04 3.460164592349733448e-02 3.329201859837434383e-04 2.690466998661397713e-02
2.330814536340852072e+01 1.085159253066146218e-01 2.408904343261837611e-02 -1.619623517338366096e-03 2.840361545121741771e-02 4.187360365584332986e-03 3.203475234554354484e-02 2.882238178315644876e-03 2.655795777476289282e-02
2.340839598997493809e+01 1.078697196000186487e-01 2.313280720251508979e-02 8.150945176412065230e-04 2.995867917429716892e-02 3.209557333552193713e-03 3.187528220672136009e-02 -3.464429482493622085e-03 2.829748481612007205e-02
2.350864661654135190e+01 1.072168519789216956e-01 2.407631384858377813e-02 -4.417463910471153385e-04 3.143910219126636041e-02 2.606468235634583699e-03 3.397898522473096622e-02 2.582227625271670142e-04 2.817280217210936522e-02
2.360889724310776927e+01 1.076632002504879920e-01 2.395435760808539011e-02 4.369813619667032266e-03 3.179465346052538083e-02 1.861488008707284144e-03 3.216948415270390327e-02 3.608122053347730378e-03 2.750262415392615289e-02
2.370914786967418664e+01 1.078697196000186487e-01 2.438455096462668545e-02 -1.637639768329123826e-03 3.122242701378889068e-02 4.447135648747238719e-03 3.231820162433524796e-02 -2.281927334379580015e-03 2.873982635205166516e-02
2.380939849624060045e+01 1.084359823326027372e-01 2.294927632473403589e-02 -4.484296033747179992e-04 3.355830987082651651e-02 -4.237794256439606118e-04 2.993458832365897271e-02 -1.859299867531874267e-03 2.858044544765881226e-02
2.390964912280701782e+01 1.104278947683985379e-01 2.624322864511654738e-02 -3.511399970957378418e-03 3.218952148560568632e-02 -3.509608337009709200e-03 3.307048241788373283e-02 3.111716908593521649e-03 2.961573807076916046e-02
2.400989974937343163e+01 1.089689354926818843e-01 2.263311404717295236e-02 2.114942489553803609e-03 3.164752862054422827e-02 -4.370472847912367301e-03 2.986421109376269020e-02 -2.597364586750570883e-03 2.816787446063823142e-02
2.411015037593984900e+01 1.075965811054780952e-01 2.432401649164155077e-02 2.274101106328017732e-03 3.300857586107047714e-02 2.569421532407047386e-03 3.661840187588561585e-02 2.887836408739200000e-03 2.909632465483515465e-02
2.421040100250626637e+01 1.087557542286502338e-01 2.463294123041899833e-02 -2.633904122674875312e-03 3.603519272551680697e-02 9.080751695592379023e-04 3.127228314356617772e-02 -1.072445130770185691e-03 2.860320776974054763e-02
2.431065162907268018e+01 1.094485933367531222e-01 2.303198237101368104e-02 -8.122555151158471480e-05 2.885504234740724969e-02 2.010383482131271240e-03 3.027407931840785105e-02 2.532454776546109055e-03 2.736710993522463442e-02
2.441090225563909755e+01 1.085159253066146218e-01 2.187622905062834577e-02 3.274325322992877041e-03 2.847691004917684079e-02 2.355279987492983704e-03 2.931630283876244039e-02 -4.113145489901382608e-04 2.964296392253909854e-02
2.451115288220551136e+01 1.096484507717827989e-01 2.241496051011844515e-02 -2.213773809128532447e-03 2.994926758614097767e-02 2.866840043978675576e-03 3.322202470440757671e-02 -1.263758439722051981e-03 2.726033661763246907e-02
2.461140350877192873e+01 1.105544711439173378e-01 2.330420631615196664e-02 1.938331361193717248e-03 3.387943053316989223e-02 3.534807260539310665e-03 2.948992272323032460e-02 -6.059882525446646639e-04 2.589774951820801238e-02
2.471165413533834609e+01 1.092021025002165163e-01 2.371448433821169224e-02 2.991383567831122203e-03 2.825729827886408821e-02 -4.331275811235687882e-03 3.509787883593364077e-02 5.351213877878509967e-03 3.002957839306471394e-02
2.481190476190475991e+01 1.097017460877907080e-01 2.420229711840524156e-02 2.124481317270429388e-04 3.053480197463653845e-02 -7.778734983295837804e-03 3.283337722049580604e-02 -3.702739487952889062e-03 2.488647066172806205e-02
2.491215538847117728e+01 1.113405770550340707e-01 2.344589896349820457e-02 -4.326088944248083004e-03 3.463494052251284150e-02 -1.013835222189755431e-04 3.302672943553260076e-02 -8.228788405862386135e-04 2.907806608576704935e-02
2.501240601503759464e+01 1.103945851958935964e-01 2.342272579802462049e-02 2.704481826574005755e-03 2.968104451163456822e-02 2.932841576490768367e-04 2.889364712524157552e-02 -2.734113275992626577e-03 3.228234587897631236e-02
2.511265664160400846e+01 1.109741717574796588e-01 2.609365354646876398e-02 7.470624059668334437e-04 3.075826038572654006e-02 -5.580103015402843383e-04 2.422296654036888014e-02 2.920539747259375679e-03 2.583011386620705577e-02
2.521290726817042582e+01 1.090288927231907873e-01 2.259405171351141009e-02 3.252571103266719069e-03 3.546601001097785671e-02 1.668601136875788073e-03 3.032586162130694249e-02 5.973238533743447948e-04 2.828910250499043488e-02
2.531315789473684319e+01 1.103146422218817257e-01 2.557569539071830739e-02 -4.307694351708194619e-03 2.974896761823745198e-02 3.439807941692019089e-03 3.007900287488948429e-02 3.326017609150245993e-03 2.989629529935143235e-02
2.541340852130325700e+01 1.123265404011804941e-01 2.412862202873942291e-02 -3.862409425844933776e-03 3.461183388116770981e-02 -1.070546891093042364e-03 2.913523824341588547e-02 1.948590897990845356e-03 2.865773325134206989e-02
2.551365914786967437e+01 1.127662267582457828e-01 2.445655050465558172e-02 1.428860591880611909e-03 3.213386383864437479e-02 -3.886602660950780287e-04 3.192884826971142259e-02 -3.135492201226900300e-04 2.776073828217440545e-02
2.561390977443608818e+01 1.123531880591844417e-01 2.500630606534036404e-02 -3.778930078993698091e-03 3.160750904610440393e-02 2.075008413049752101e-03 2.815981255332528077e-02 -3.232043376138057315e-03 2.969520359869996448e-02
2.571416040100250555e+01 1.119135017021191530e-01 2.387764265311057357e-02 -4.748232206390774930e-03 3.221736215747077886e-02 -6.326353371652984104e-05 2.953789667031045743e-02 5.592333219889566737e-04 2.457490188720527075e-02
2.581441102756892292e+01 1.111074100474994525e-01 2.581602841349692895e-02 -3.501809893606520636e-03 3.346720070761752958e-02 2.643477900859116450e-03 3.774795772518780429e-02 1.386870588242797905e-03 2.775798418570916970e-02
2.591466165413533673e+01 1.127595648437447889e-01 2.495464961499516479e-02 3.448798407686832091e-03 2.865634016411925181e-02 -3.069320994570542949e-04 3.301836710455511442e-02 -5.854255080679801430e-03 2.972851596234398278e-02
2.601491228070175410e+01 1.125263978362101708e-01 2.500430401472929567e-02 2.389952705407895166e-03 3.466209037893996925e-02 5.167829221984551052e-03 3.213104519495535438e-02 2.001914311008603457e-03 2.794789370692830205e-02
2.611516290726816791e+01 1.134590658663486712e-01 2.524077908153816302e-02 -5.520146480365588533e-04 3.045958757745585721e-02 2.133724790920171841e-03 3.289050241296739840e-02 -1.825978806429175627e-03 2.883675332764680868e-02
2.621541353383458528e+01 1.122332735981666357e-01 2.454270550035395418e-02 -1.530662927370143259e-03 3.257354512637773009e-02 4.870989051404298401e-03 2.871355420324235228e-02 3.738732304533954514e-04 2.731077715171162379e-02
2.631566416040100265e+01 1.128594935612596412e-01 2.640742825481087741e-02 -2.032907145897355425e-03 3.210209070658079367e-02 8.299271195769358615e-04 3.196509000870274841e-02 -1.271148089816986253e-03 2.529897508260980574e-02
2.641591478696741646e+01 1.135523326693625157e-01 2.691287720071270512e-02 1.567130988799870237e-03 2.800148998247639978e-02 6.092000433727583555e-03 2.721862003025642823e-02 -1.780027349340999919e-03 2.611352655838240777e-02
2.651616541353383383e+01 1.139253998814179214e-01 2.526675353308075953e-02 3.358908344048791485e-03 3.115014442970885991e-02 -3.727463482075688700e-03 3.385162076021238503e-02 4.433520912819465670e-03 2.766535923952978537e-02
2.661641604010025119e+01 1.131592797138041562e-01 2.357640529667602569e-02 -3.621708423288134103e-03 3.587177214635849792e-02 -1.270372342829773332e-03 3.076279522863520008e-02 2.747605072873021605e-03 2.661296985171505633e-02
2.671666666666666501e+01 1.127862125017487505e-01 2.523054452373217627e-02 1.193644859290830817e-04 3.222763364568059091e-02 -7.901082271719235897e-03 2.778347609897736936e-02 7.857725492790767693e-04 2.878386054817338655e-02
2.681691729323308238e+01 1.148980393985623571e-01 2.501288614508154207e-02 2.915411729821501758e-04 3.065456618993616170e-02 -2.622132336803986719e-04 2.875332465782655736e-02 -4.423903213396152608e-04 2.826931219152869351e-02
2.691716791979949974e+01 1.118935159586161854e-01 2.489647918920139327e-02 -4.217546849520209355e-03 2.507408520819139064e-02 1.982999403303348988e-04 2.756691858426449024e-02 -3.997493634368153026e-03 3.327054010404418422e-02
2.701741854636591356e+01 1.134790516098516389e-01 2.511006636199825115e-02 6.575229625254620791e-03 2.985999617754798302e-02 5.805024354973279711e-03 3.403900553502627740e-02 -3.635624456304767469e-03 2.847951868966543121e-02
2.711766917293233092e+01 1.127662267582457828e-01 2.630433214339739090e-02 3.930886214595104462e-03 2.898369995263388316e-02 2.406010113164426707e-03 2.731177199687459534e-02 4.349721433211392943e-03 2.612091287619417931e-02
2.721791979949874474e+01 1.138054854204001154e-01 2.562613548646005060e-02 -3.239952229497819990e-04 2.669920513011871110e-02 -3.027371234298983482e-03 3.055614947081034677e-02 4.636776083787207646e-03 2.562021204694162405e-02
2.731817042606516210e+01 1.139253998814179214e-01 2.904311959292014272e-02 3.447998592673839555e-03 3.325372933708000550e-02 -6.328070377684786099e-03 3.107920460584225747e-02 -3.890661291214970660e-03 2.489840001131819400e-02
2.741842105263157947e+01 1.151911636366058922e-01 3.049252146689989534e-02 5.596171194586599916e-03 3.149343514846050102e-02 6.077851262374590370e-03 3.291626716117231760e-02 2.791520994126833830e-03 3.142759669020438185e-02
2.751867167919799329e+01 1.146182389895208098e-01 2.865682361501881159e-02 1.752415293612429297e-03 3.192345344857028255e-02 -3.553895449292848643e-04 2.817620982199171842e-02 -1.165634469755028090e-03 2.713082421009813811e-02
2.761892230576441065e+01 1.140719620004396889e-01 2.996748853257700379e-02 4.733403720869217035e-04 3.208959195377885515e-02 -2.067450537591210454e-03 3.259714676254835131e-02 -1.006935513887028018e-03 3.007634197539418158e-02
2.771917293233082447e+01 1.157107929676830516e-01 3.221456843053029095e-02 -3.880356726779170436e-03 3.634536609569151422e-02 -3.369455294315796927e-03 3.129113560381546755e-02 2.019512586963939042e-03 2.814195202690687389e-02
2.781942355889724183e+01 1.137388662753902185e-01 3.100201275914475987e-02 -2.157285103651072206e-03 3.329147547815086705e-02 1.089893833461646686e-03 3.129866823437801870e-02 -1.302585659100367367e-03 2.646551136675540442e-02
2.791967418546365920e+01 1.150179538595801632e-01 3.072527762930640088e-02 1.646661798708109851e-03 3.018644273086228125e-02 -1.365895782080332570e-03 3.187254310127821122e-02 4.575220799545043522e-03 2.968363870649920119e-02
2.801992481203007301e+01 1.138387949929050569e-01 3.183395408627874568e-02 -1.945562957927863624e-03 3.092540635971841728e-02 5.052068682151860009e-03 3.083348218976541405e-02 -6.860051093737515836e-03 2.760269404632511442e-02
2.812017543859649038e+01 1.141319192309485919e-01 3.292912030406872081e-02 -3.999992563067624601e-03 3.031232076869692926e-02 6.432929178875514652e-03 3.258864946891982389e-02 -4.824024137278167836e-05 2.761304168051293556e-02
2.822042606516290775e+01 1.143384385804792625e-01 3.268246649249857694e-02 -3.933163452020496491e-03 3.591046250742914447e-02 -1.878251587761476911e-03 3.077127694983774683e-02 -3.684966083631693472e-05 2.773970859612706272e-02
2.832067669172932156e+01 1.150779110900890662e-01 3.120872239266847536e-02 2.484246276053857141e-03 3.251480518942641285e-02 2.791086472240733411e-03 2.807899820103203561e-02 -1.273936104730203711e-03 2.959753930533419800e-02
2.842092731829573893e+01 1.153244019266256720e-01 3.183390041170312823e-02 -8.589772362279898864e-04 3.142927172732543767e-02 -8.403692481607612447e-04 3.139506879214738061e-02 2.390359330954738978e-04 2.624563012061000705e-02
2.852117794486215629e+01 1.154243306441405104e-01 3.231140066613005790e-02 -4.825835022936838300e-04 2.959863066061389769e-02 1.144290900120978035e-03 2.974241234528348515e-02 -1.167613445922208220e-04 3.485120786819199956e-02
2.862142857142857011e+01 1.159506218897186636e-01 3.191569860921088936e-02 -1.545016335904319301e-03 2.971554730155566079e-02 4.596690310801162973e-04 2.886366701234126947e-02 3.129446859052135987e-04 3.037190881057497821e-02
2.872167919799498748e+01 1.119667970181270761e-01 3.193292037955452328e-02 -5.237815963580516425e-03 3.106622301388576105e-02 4.200438743760145401e-03 3.023725220993299379e-02 -2.191008242341159658e-03 2.809865566555805327e-02
2.882192982456140129e+01 1.127862125017487505e-01 3.131092728313861207e-02 -8.152334579208820459e-03 3.065772447745624199e-02 -2.326187251105811017e-03 3.676843300129908204e-02 -3.790573100790029740e-04 2.975742744953740332e-02
2.892218045112781866e+01 1.084559680761057049e-01 3.131397461327312115e-02 4.940084628739354602e-04 3.315750048249665322e-02 9.490431742474009051e-04 3.252284914611278804e-02 -6.790672366330602555e-04 3.098164299164351751e-02
2.902243107769423602e+01 1.022936971626906139e-01 3.022121911244806530e-02 6.452317952024466587e-04 3.598913267602215499e-02 1.374387610255731283e-03 2.998095105150405323e-02 -2.808139328172688971e-03 2.876189510283435821e-02
2.912268170426064984e+01 9.372647511441838108e-02 2.906529929267184786e-02 8.041689927794442271e-04 3.629623087562030420e-02 4.165858230006550629e-05 3.838210954023782429e-02 -8.073665932777541890e-04 3.176115513374776905e-02
2.922293233082706720e+01 8.403338951547896507e-02 2.627295904513574781e-02 6.550280732174312837e-03 4.064764478924838553e-02 6.524301193703810516e-03 3.766206948898732226e-02 2.035836394881461366e-03 3.927310354762679478e-02
2.932318295739348102e+01 6.767838941555023857e-02 2.216367893229782143e-02 7.159723062054224388e-03 3.648512181056579040e-02 -1.127679480073965094e-03 4.140011429897012818e-02 4.630135573169547047e-03 3.440643647119806525e-02
2.942343358395989839e+01 5.414137914953999486e-02 1.957080794838335705e-02 -3.883579299276701362e-03 5.180700133266865487e-02 -4.505162044449731278e-03 4.992069433652993049e-02 -1.708161724599314719e-03 3.923203251057209157e-02
2.952368421052631575e+01 3.889225685677549782e-02 1.599796869914003883e-02 1.692461060182497796e-03 5.593926042120501291e-02 4.470647807946998703e-03 5.865917319677381447e-02 6.313550477344407295e-03 3.965158586951466474e-02
2.962393483709272957e+01 2.647444822693145391e-02 1.240784750274521141e-02 8.581860291817841992e-04 6.417093163820120072e-02 1.551572599389921354e-03 6.280020614112878652e-02 -3.592161675891266531e-03 4.969346991467313984e-02
2.972418546365914693e+01 1.670141965398016029e-02 8.150032202862761074e-03 -1.530963425531031534e-02 9.248002324022849829e-02 3.589684954452028801e-03 9.493770703787313137e-02 -6.465547063235990537e-03 5.805700171459748232e-02
2.982443609022556430e+01 9.679761769937443930e-03 5.868125748373507339e-03 -2.084085663210317237e-03 1.003224087979300017e-01 1.306426713728520205e-05 1.491301346017573359e-01 8.281607962482709709e-03 7.712609601952020999e-02
2.992468671679197811e+01 5.109688422258788949e-03 3.407430881569039911e-03 2.330850706722390267e-02 1.615236472760779307e-01 5.058017556864352528e-04 1.464012973173837440e-01 1.563389764058094886e-03 9.768326311280858820e-02
3.002493734335839548e+01 2.085179238809649078e-03 2.210822348078940978e-03 -4.124564912729640508e-04 2.224372649899358234e-01 6.834399222124082351e-02 2.070999999544612113e-01 -3.274709591498739091e-03 1.423926584808479223e-01
3.012518796992481285e+01 8.860346286315761094e-04 1.281635311013701274e-03 1.347425626052749931e-02 2.520107224798032730e-01 3.239595472481515692e-02 2.494874645918284672e-01 -1.027696175045437338e-02 1.183575972590007602e-01
3.022543859649122666e+01 3.064480670455075641e-04 5.915239896986314739e-04 3.233346541722615340e-03 1.819433658757207140e-01 -5.008896986643474047e-03 1.885505838784949095e-01 -1.085895856221517040e-02 6.323685164136358394e-02
3.032568922305764403e+01 5.329531600791435219e-05 2.435018604395139353e-04 -3.244243462880452237e-03 6.533260016767944434e-02 -7.390899658203125069e-03 6.380483544377139882e-02 -7.079823811848961600e-04 4.222922454072434995e-02
3.042593984962405784e+01 1.998574350296788123e-05 1.476181644171180177e-04 3.813892602920532010e-04 2.725559421388004666e-02 2.065525054931640746e-03 4.032467479519523390e-02 4.774856567382812565e-04 4.031214687695866376e-03
3.052619047619047521e+01 0.000000000000000000e+00 0.000000000000000000e+00 0.000000000000000000e+00 0.000000000000000000e+00 0.000000000000000000e+00 0.000000000000000000e+00 0.000000000000000000e+00 0.000000000000000000e+00
3.062644110275689258e+01 0.000000000000000000e+00 0.000000000000000000e+00 0.000000000000000000e+00 0.000000000000000000e+00 0.000000000000000000e+00 0.000000000000000000e+00 0.000000000000000000e+00 0.000000000000000000e+00
3.072669172932330639e+01 0.000000000000000000e+00 0.000000000000000000e+00 0.000000000000000000e+00 0.000000000000000000e+00 0.000000000000000000e+00 0.000000000000000000e+00 0.000000000000000000e+00 0.000000000000000000e+00
3.082694235588972376e+01 0.000000000000000000e+00 0.000000000000000000e+00 0.000000000000000000e+00 0.000000000000000000e+00 0.000000000000000000e+00 0.000000000000000000e+00 0.000000000000000000e+00 0.000000000000000000e+00
3.092719298245613757e+01 0.000000000000000000e+00 0.000000000000000000e+00 0.000000000000000000e+00 0.000000000000000000e+00 0.000000000000000000e+00 0.000000000000000000e+00 0.000000000000000000e+00 0.000000000000000000e+00
3.102744360902255494e+01 0.000000000000000000e+00 0.000000000000000000e+00 0.000000000000000000e+00 0.000000000000000000e+00 0.000000000000000000e+00 0.000000000000000000e+00 0.000000000000000000e+00 0.000000000000000000e+00
3.112769423558897230e+01 0.000000000000000000e+00 0.000000000000000000e+00 0.000000000000000000e+00 0.000000000000000000e+00 0.000000000000000000e+00 0.000000000000000000e+00 0.000000000000000000e+00 0.000000000000000000e+00
3.122794486215538612e+01 0.000000000000000000e+00 0.000000000000000000e+00 0.000000000000000000e+00 0.000000000000000000e+00 0.000000000000000000e+00 0.000000000000000000e+00 0.000000000000000000e+00 0.000000000000000000e+00
3.132819548872180349e+01 0.000000000000000000e+00 0.000000000000000000e+00 0.000000000000000000e+00 0.000000000000000000e+00 0.000000000000000000e+00 0.000000000000000000e+00 0.000000000000000000e+00 0.000000000000000000e+00
3.142844611528822085e+01 0.000000000000000000e+00 0.000000000000000000e+00 0.000000000000000000e+00 0.000000000000000000e+00 0.000000000000000000e+00 0.000000000000000000e+00 0.000000000000000000e+00 0.000000000000000000e+00
3.152869674185463467e+01 0.000000000000000000e+00 0.000000000000000000e+00 0.000000000000000000e+00 0.000000000000000000e+00 0.000000000000000000e+00 0.000000000000000000e+00 0.000000000000000000e+00 0.000000000000000000e+00
3.162894736842105203e+01 0.000000000000000000e+00 0.000000000000000000e+00 0.000000000000000000e+00 0.000000000000000000e+00 0.000000000000000000e+00 0.000000000000000000e+00 0.000000000000000000e+00 0.000000000000000000e+00
3.172919799498746940e+01 0.000000000000000000e+00 0.000000000000000000e+00 0.000000000000000000e+00 0.000000000000000000e+00 0.000000000000000000e+00 0.000000000000000000e+00 0.000000000000000000e+00 0.000000000000000000e+00
3.182944862155388321e+01 0.000000000000000000e+00 0.000000000000000000e+00 0.000000000000000000e+00 0.000000000000000000e+00 0.000000000000000000e+00 0.000000000000000000e+00 0.000000000000000000e+00 0.000000000000000000e+00
3.192969924812030058e+01 0.000000000000000000e+00 0.000000000000000000e+00 0.000000000000000000e+00 0.000000000000000000e+00 0.000000000000000000e+00 0.000000000000000000e+00 0.000000000000000000e+00 0.000000000000000000e+00
3.202994987468671440e+01 0.000000000000000000e+00 0.000000000000000000e+00 0.000000000000000000e+00 0.000000000000000000e+00 0.000000000000000000e+00 0.000000000000000000e+00 0.000000000000000000e+00 0.000000000000000000e+00
3.213020050125312821e+01 0.000000000000000000e+00 0.000000000000000000e+00 0.000000000000000000e+00 0.000000000000000000e+00 0.000000000000000000e+00 0.000000000000000000e+00 0.000000000000000000e+00 0.000000000000000000e+00
3.223045112781954202e+01 0.000000000000000000e+00 0.000000000000000000e+00 0.000000000000000000e+00 0.000000000000000000e+00 0.000000000000000000e+00 0.000000000000000000e+00 0.000000000000000000e+00 0.000000000000000000e+00
3.233070175438596294e+01 0.000000000000000000e+00 0.000000000000000000e+00 0.000000000000000000e+00 0.000000000000000000e+00 0.000000000000000000e+00 0.000000000000000000e+00 0.000000000000000000e+00 0.000000000000000000e+00
3.243095238095237676e+01 0.000000000000000000e+00 0.000000000000000000e+00 0.000000000000000000e+00 0.000000000000000000e+00 0.000000000000000000e+00 0.000000000000000000e+00 0.000000000000000000e+00 0.000000000000000000e+00
3.253120300751879057e+01 0.000000000000000000e+00 0.000000000000000000e+00 0.000000000000000000e+00 0.000000000000000000e+00 0.000000000000000000e+00 0.000000000000000000e+00 0.000000000000000000e+00 0.000000000000000000e+00
3.263145363408521149e+01 0.000000000000000000e+00 0.000000000000000000e+00 0.000000000000000000e+00 0.000000000000000000e+00 0.000000000000000000e+00 0.000000000000000000e+00 0.000000000000000000e+00 0.000000000000000000e+00
3.273170426065162530e+01 0.000000000000000000e+00 0.000000000000000000e+00 0.000000000000000000e+00 0.000000000000000000e+00 0.000000000000000000e+00 0.000000000000000000e+00 0.000000000000000000e+00 0.000000000000000000e+00
3.283195488721803912e+01 0.000000000000000000e+00 0.000000000000000000e+00 0.000000000000000000e+00 0.000000000000000000e+00 0.000000000000000000e+00 0.000000000000000000e+00 0.000000000000000000e+00 0.000000000000000000e+00
3.293220551378445293e+01 0.000000000000000000e+00 0.000000000000000000e+00 0.000000000000000000e+00 0.000000000000000000e+00 0.000000000000000000e+00 0.000000000000000000e+00 0.000000000000000000e+00 0.000000000000000000e+00
3.303245614035087385e+01 0.000000000000000000e+00 0.000000000000000000e+00 0.000000000000000000e+00 0.000000000000000000e+00 0.000000000000000000e+00 0.000000000000000000e+00 0.000000000000000000e+00 0.000000000000000000e+00
3.313270676691728767e+01 0.000000000000000000e+00 0.000000000000000000e+00 0.000000000000000000e+00 0.000000000000000000e+00 0.000000000000000000e+00 0.000000000000000000e+00 0.000000000000000000e+00 0.000000000000000000e+00
3.323295739348370148e+01 0.000000000000000000e+00 0.000000000000000000e+00 0.000000000000000000e+00 0.000000000000000000e+00 0.000000000000000000e+00 0.000000000000000000e+00 0.000000000000000000e+00 0.000000000000000000e+00
3.333320802005012240e+01 0.000000000000000000e+00 0.000000000000000000e+00 0.000000000000000000e+00 0.000000000000000000e+00 0.000000000000000000e+00 0.000000000000000000e+00 0.000000000000000000e+00 0.000000000000000000e+00
3.343345864661653621e+01 0.000000000000000000e+00 0.000000000000000000e+00 0.000000000000000000e+00 0.000000000000000000e+00 0.000000000000000000e+00 0.000000000000000000e+00 0.000000000000000000e+00 0.000000000000000000e+00
3.353370927318295003e+01 0.000000000000000000e+00 0.000000000000000000e+00 0.000000000000000000e+00 0.000000000000000000e+00 0.000000000000000000e+00 0.000000000000000000e+00 0.000000000000000000e+00 0.000000000000000000e+00
3.363395989974937095e+01 0.000000000000000000e+00 0.000000000000000000e+00 0.000000000000000000e+00 0.000000000000000000e+00 0.000000000000000000e+00 0.000000000000000000e+00 0.000000000000000000e+00 0.000000000000000000e+00
3.373421052631578476e+01 0.000000000000000000e+00 0.000000000000000000e+00 0.000000000000000000e+00 0.000000000000000000e+00 0.000000000000000000e+00 0.000000000000000000e+00 0.000000000000000000e+00 0.000000000000000000e+00
3.383446115288219858e+01 0.000000000000000000e+00 0.000000000000000000e+00 0.000000000000000000e+00 0.000000000000000000e+00 0.000000000000000000e+00 0.000000000000000000e+00 0.000000000000000000e+00 0.000000000000000000e+00
3.393471177944861950e+01 0.000000000000000000e+00 0.000000000000000000e+00 0.000000000000000000e+00 0.000000000000000000e+00 0.000000000000000000e+00 0.000000000000000000e+00 0.000000000000000000e+00 0.000000000000000000e+00
3.403496240601503331e+01 0.000000000000000000e+00 0.000000000000000000e+00 0.000000000000000000e+00 0.000000000000000000e+00 0.000000000000000000e+00 0.000000000000000000e+00 0.000000000000000000e+00 0.000000000000000000e+00
3.413521303258144712e+01 0.000000000000000000e+00 0.000000000000000000e+00 0.000000000000000000e+00 0.000000000000000000e+00 0.000000000000000000e+00 0.000000000000000000e+00 0.000000000000000000e+00 0.000000000000000000e+00
3.423546365914786804e+01 0.000000000000000000e+00 0.000000000000000000e+00 0.000000000000000000e+00 0.000000000000000000e+00 0.000000000000000000e+00 0.000000000000000000e+00 0.000000000000000000e+00 0.000000000000000000e+00
3.433571428571428186e+01 0.000000000000000000e+00 0.000000000000000000e+00 0.000000000000000000e+00 0.000000000000000000e+00 0.000000000000000000e+00 0.000000000000000000e+00 0.000000000000000000e+00 0.000000000000000000e+00
3.443596491228069567e+01 0.000000000000000000e+00 0.000000000000000000e+00 0.000000000000000000e+00 0.000000000000000000e+00 0.000000000000000000e+00 0.000000000000000000e+00 0.000000000000000000e+00 0.000000000000000000e+00
3.453621553884711659e+01 0.000000000000000000e+00 0.000000000000000000e+00 0.000000000000000000e+00 0.000000000000000000e+00 0.000000000000000000e+00 0.000000000000000000e+00 0.000000000000000000e+00 0.000000000000000000e+00
3.463646616541353040e+01 0.000000000000000000e+00 0.000000000000000000e+00 0.000000000000000000e+00 0.000000000000000000e+00 0.000000000000000000e+00 0.000000000000000000e+00 0.000000000000000000e+00 0.000000000000000000e+00
3.473671679197994422e+01 0.000000000000000000e+00 0.000000000000000000e+00 0.000000000000000000e+00 0.000000000000000000e+00 0.000000000000000000e+00 0.000000000000000000e+00 0.000000000000000000e+00 0.000000000000000000e+00
3.483696741854635803e+01 0.000000000000000000e+00 0.000000000000000000e+00 0.000000000000000000e+00 0.000000000000000000e+00 0.000000000000000000e+00 0.000000000000000000e+00 0.000000000000000000e+00 0.000000000000000000e+00
3.493721804511277895e+01 0.000000000000000000e+00 0.000000000000000000e+00 0.000000000000000000e+00 0.000000000000000000e+00 0.000000000000000000e+00 0.000000000000000000e+00 0.000000000000000000e+00 0.000000000000000000e+00
3.503746867167919277e+01 0.000000000000000000e+00 0.000000000000000000e+00 0.000000000000000000e+00 0.000000000000000000e+00 0.000000000000000000e+00 0.000000000000000000e+00 0.000000000000000000e+00 0.000000000000000000e+00
3.513771929824560658e+01 0.000000000000000000e+00 0.000000000000000000e+00 0.000000000000000000e+00 0.000000000000000000e+00 0.000000000000000000e+00 0.000000000000000000e+00 0.000000000000000000e+00 0.000000000000000000e+00
3.523796992481202750e+01 0.000000000000000000e+00 0.000000000000000000e+00 0.000000000000000000e+00 0.000000000000000000e+00 0.000000000000000000e+00 0.000000000000000000e+00 0.000000000000000000e+00 0.000000000000000000e+00
3.533822055137844131e+01 0.000000000000000000e+00 0.000000000000000000e+00 0.000000000000000000e+00 0.000000000000000000e+00 0.000000000000000000e+00 0.000000000000000000e+00 0.000000000000000000e+00 0.000000000000000000e+00
3.543847117794485513e+01 0.000000000000000000e+00 0.000000000000000000e+00 0.000000000000000000e+00 0.000000000000000000e+00 0.000000000000000000e+00 0.000000000000000000e+00 0.000000000000000000e+00 0.000000000000000000e+00
3.553872180451127605e+01 0.000000000000000000e+00 0.000000000000000000e+00 0.000000000000000000e+00 0.000000000000000000e+00 0.000000000000000000e+00 0.000000000000000000e+00 0.000000000000000000e+00 0.000000000000000000e+00
3.563897243107768986e+01 0.000000000000000000e+00 0.000000000000000000e+00 0.000000000000000000e+00 0.000000000000000000e+00 0.000000000000000000e+00 0.000000000000000000e+00 0.000000000000000000e+00 0.000000000000000000e+00
3.573922305764410368e+01 0.000000000000000000e+00 0.000000000000000000e+00 0.000000000000000000e+00 0.000000000000000000e+00 0.000000000000000000e+00 0.000000000000000000e+00 0.000000000000000000e+00 0.000000000000000000e+00
3.583947368421052460e+01 0.000000000000000000e+00 0.000000000000000000e+00 0.000000000000000000e+00 0.000000000000000000e+00 0.000000000000000000e+00 0.000000000000000000e+00 0.000000000000000000e+00 0.000000000000000000e+00
3.593972431077693841e+01 0.000000000000000000e+00 0.000000000000000000e+00 0.000000000000000000e+00 0.000000000000000000e+00 0.000000000000000000e+00 0.000000000000000000e+00 0.000000000000000000e+00 0.000000000000000000e+00
3.603997493734335222e+01 0.000000000000000000e+00 0.000000000000000000e+00 0.000000000000000000e+00 0.000000000000000000e+00 0.000000000000000000e+00 0.000000000000000000e+00 0.000000000000000000e+00 0.000000000000000000e+00
3.614022556390976604e+01 0.000000000000000000e+00 0.000000000000000000e+00 0.000000000000000000e+00 0.000000000000000000e+00 0.000000000000000000e+00 0.000000000000000000e+00 0.000000000000000000e+00 0.000000000000000000e+00
3.624047619047618696e+01 0.000000000000000000e+00 0.000000000000000000e+00 0.000000000000000000e+00 0.000000000000000000e+00 0.000000000000000000e+00 0.000000000000000000e+00 0.000000000000000000e+00 0.000000000000000000e+00
3.634072681704260077e+01 0.000000000000000000e+00 0.000000000000000000e+00 0.000000000000000000e+00 0.000000000000000000e+00 0.000000000000000000e+00 0.000000000000000000e+00 0.000000000000000000e+00 0.000000000000000000e+00
3.644097744360901459e+01 0.000000000000000000e+00 0.000000000000000000e+00 0.000000000000000000e+00 0.000000000000000000e+00 0.000000000000000000e+00 0.000000000000000000e+00 0.000000000000000000e+00 0.000000000000000000e+00
3.654122807017543551e+01 0.000000000000000000e+00 0.000000000000000000e+00 0.000000000000000000e+00 0.000000000000000000e+00 0.000000000000000000e+00 0.000000000000000000e+00 0.000000000000000000e+00 0.000000000000000000e+00
3.664147869674184932e+01 0.000000000000000000e+00 0.000000000000000000e+00 0.000000000000000000e+00 0.000000000000000000e+00 0.000000000000000000e+00 0.000000000000000000e+00 0.000000000000000000e+00 0.000000000000000000e+00
3.674172932330826313e+01 0.000000000000000000e+00 0.000000000000000000e+00 0.000000000000000000e+00 0.000000000000000000e+00 0.000000000000000000e+00 0.000000000000000000e+00 0.000000000000000000e+00 0.000000000000000000e+00
3.684197994987468405e+01 0.000000000000000000e+00 0.000000000000000000e+00 0.000000000000000000e+00 0.000000000000000000e+00 0.000000000000000000e+00 0.000000000000000000e+00 0.000000000000000000e+00 0.000000000000000000e+00
3.694223057644109787e+01 0.000000000000000000e+00 0.000000000000000000e+00 0.000000000000000000e+00 0.000000000000000000e+00 0.000000000000000000e+00 0.000000000000000000e+00 0.000000000000000000e+00 0.000000000000000000e+00
3.704248120300751168e+01 0.000000000000000000e+00 0.000000000000000000e+00 0.000000000000000000e+00 0.000000000000000000e+00 0.000000000000000000e+00 0.000000000000000000e+00 0.000000000000000000e+00 0.000000000000000000e+00
3.714273182957393260e+01 0.000000000000000000e+00 0.000000000000000000e+00 0.000000000000000000e+00 0.000000000000000000e+00 0.000000000000000000e+00 0.000000000000000000e+00 0.000000000000000000e+00 0.000000000000000000e+00
3.724298245614034641e+01 0.000000000000000000e+00 0.000000000000000000e+00 0.000000000000000000e+00 0.000000000000000000e+00 0.000000000000000000e+00 0.000000000000000000e+00 0.000000000000000000e+00 0.000000000000000000e+00
3.734323308270676023e+01 0.000000000000000000e+00 0.000000000000000000e+00 0.000000000000000000e+00 0.000000000000000000e+00 0.000000000000000000e+00 0.000000000000000000e+00 0.000000000000000000e+00 0.000000000000000000e+00
3.744348370927318115e+01 0.000000000000000000e+00 0.000000000000000000e+00 0.000000000000000000e+00 0.000000000000000000e+00 0.000000000000000000e+00 0.000000000000000000e+00 0.000000000000000000e+00 0.000000000000000000e+00
3.754373433583959496e+01 0.000000000000000000e+00 0.000000000000000000e+00 0.000000000000000000e+00 0.000000000000000000e+00 0.000000000000000000e+00 0.000000000000000000e+00 0.000000000000000000e+00 0.000000000000000000e+00
3.764398496240600878e+01 0.000000000000000000e+00 0.000000000000000000e+00 0.000000000000000000e+00 0.000000000000000000e+00 0.000000000000000000e+00 0.000000000000000000e+00 0.000000000000000000e+00 0.000000000000000000e+00
3.774423558897242970e+01 0.000000000000000000e+00 0.000000000000000000e+00 0.000000000000000000e+00 0.000000000000000000e+00 0.000000000000000000e+00 0.000000000000000000e+00 0.000000000000000000e+00 0.000000000000000000e+00
3.784448621553884351e+01 0.000000000000000000e+00 0.000000000000000000e+00 0.000000000000000000e+00 0.000000000000000000e+00 0.000000000000000000e+00 0.000000000000000000e+00 0.000000000000000000e+00 0.000000000000000000e+00
3.794473684210525732e+01 0.000000000000000000e+00 0.000000000000000000e+00 0.000000000000000000e+00 0.000000000000000000e+00 0.000000000000000000e+00 0.000000000000000000e+00 0.000000000000000000e+00 0.000000000000000000e+00
3.804498746867167114e+01 0.000000000000000000e+00 0.000000000000000000e+00 0.000000000000000000e+00 0.000000000000000000e+00 0.000000000000000000e+00 0.000000000000000000e+00 0.000000000000000000e+00 0.000000000000000000e+00
3.814523809523809206e+01 0.000000000000000000e+00 0.000000000000000000e+00 0.000000000000000000e+00 0.000000000000000000e+00 0.000000000000000000e+00 0.000000000000000000e+00 0.000000000000000000e+00 0.000000000000000000e+00
3.824548872180450587e+01 0.000000000000000000e+00 0.000000000000000000e+00 0.000000000000000000e+00 0.000000000000000000e+00 0.000000000000000000e+00 0.000000000000000000e+00 0.000000000000000000e+00 0.000000000000000000e+00
3.834573934837091969e+01 0.000000000000000000e+00 0.000000000000000000e+00 0.000000000000000000e+00 0.000000000000000000e+00 0.000000000000000000e+00 0.000000000000000000e+00 0.000000000000000000e+00 0.000000000000000000e+00
3.844598997493734061e+01 0.000000000000000000e+00 0.000000000000000000e+00 0.000000000000000000e+00 0.000000000000000000e+00 0.000000000000000000e+00 0.000000000000000000e+00 0.000000000000000000e+00 0.000000000000000000e+00
3.854624060150375442e+01 0.000000000000000000e+00 0.000000000000000000e+00 0.000000000000000000e+00 0.000000000000000000e+00 0.000000000000000000e+00 0.000000000000000000e+00 0.000000000000000000e+00 0.000000000000000000e+00
3.864649122807016823e+01 0.000000000000000000e+00 0.000000000000000000e+00 0.000000000000000000e+00 0.000000000000000000e+00 0.000000000000000000e+00 0.000000000000000000e+00 0.000000000000000000e+00 0.000000000000000000e+00
3.874674185463658915e+01 0.000000000000000000e+00 0.000000000000000000e+00 0.000000000000000000e+00 0.000000000000000000e+00 0.000000000000000000e+00 0.000000000000000000e+00 0.000000000000000000e+00 0.000000000000000000e+00
3.884699248120300297e+01 0.000000000000000000e+00 0.000000000000000000e+00 0.000000000000000000e+00 0.000000000000000000e+00 0.000000000000000000e+00 0.000000000000000000e+00 0.000000000000000000e+00 0.000000000000000000e+00
3.894724310776941678e+01 0.000000000000000000e+00 0.000000000000000000e+00 0.000000000000000000e+00 0.000000000000000000e+00 0.000000000000000000e+00 0.000000000000000000e+00 0.000000000000000000e+00 0.000000000000000000e+00
3.904749373433583770e+01 0.000000000000000000e+00 0.000000000000000000e+00 0.000000000000000000e+00 0.000000000000000000e+00 0.000000000000000000e+00 0.000000000000000000e+00 0.000000000000000000e+00 0.000000000000000000e+00
3.914774436090225151e+01 0.000000000000000000e+00 0.000000000000000000e+00 0.000000000000000000e+00 0.000000000000000000e+00 0.000000000000000000e+00 0.000000000000000000e+00 0.000000000000000000e+00 0.000000000000000000e+00
3.924799498746866533e+01 0.000000000000000000e+00 0.000000000000000000e+00 0.000000000000000000e+00 0.000000000000000000e+00 0.000000000000000000e+00 0.000000000000000000e+00 0.000000000000000000e+00 0.000000000000000000e+00
3.934824561403507914e+01 0.000000000000000000e+00 0.000000000000000000e+00 0.000000000000000000e+00 0.000000000000000000e+00 0.000000000000000000e+00 0.000000000000000000e+00 0.000000000000000000e+00 0.000000000000000000e+00
3.944849624060150006e+01 0.000000000000000000e+00 0.000000000000000000e+00 0.000000000000000000e+00 0.000000000000000000e+00 0.000000000000000000e+00 0.000000000000000000e+00 0.000000000000000000e+00 0.000000000000000000e+00
3.954874686716791388e+01 0.000000000000000000e+00 0.000000000000000000e+00 0.000000000000000000e+00 0.000000000000000000e+00 0.000000000000000000e+00 0.000000000000000000e+00 0.000000000000000000e+00 0.000000000000000000e+00
3.964899749373432769e+01 0.000000000000000000e+00 0.000000000000000000e+00 0.000000000000000000e+00 0.000000000000000000e+00 0.000000000000000000e+00 0.000000000000000000e+00 0.000000000000000000e+00 0.000000000000000000e+00
3.974924812030074861e+01 0.000000000000000000e+00 0.000000000000000000e+00 0.000000000000000000e+00 0.000000000000000000e+00 0.000000000000000000e+00 0.000000000000000000e+00 0.000000000000000000e+00 0.000000000000000000e+00
3.984949874686716242e+01 0.000000000000000000e+00 0.000000000000000000e+00 0.000000000000000000e+00 0.000000000000000000e+00 0.000000000000000000e+00 0.000000000000000000e+00 0.000000000000000000e+00 0.000000000000000000e+00
3.994974937343357624e+01 0.000000000000000000e+00 0.000000000000000000e+00 0.000000000000000000e+00 0.000000000000000000e+00 0.000000000000000000e+00 0.000000000000000000e+00 0.000000000000000000e+00 0.000000000000000000e+00
4.004999999999999716e+01 0.000000000000000000e+00 0.000000000000000000e+00 0.000000000000000000e+00 0.000000000000000000e+00 0.000000000000000000e+00 0.000000000000000000e+00 0.000000000000000000e+00 0.000000000000000000e+00
