# Command line was: maicos density_planar -s in.lammpsdata -top data -f out.dcd -sel "type 13" -shift True -nbins 800 -dz 0.5 -dens number -o data/number_density_type_13.dat -b 50000 -e -1
# number density profile [nm^(-3)]
# statistics over 150107.0 picoseconds 
# positions [nm]
6.027337551108340186e-03 0.000000000000000000e+00 0.000000000000000000e+00
1.808201265332502056e-02 0.000000000000000000e+00 0.000000000000000000e+00
3.013668775554169746e-02 0.000000000000000000e+00 0.000000000000000000e+00
4.219136285775837436e-02 0.000000000000000000e+00 0.000000000000000000e+00
5.424603795997505473e-02 0.000000000000000000e+00 0.000000000000000000e+00
6.630071306219173510e-02 0.000000000000000000e+00 0.000000000000000000e+00
7.835538816440840160e-02 0.000000000000000000e+00 0.000000000000000000e+00
9.041006326662509585e-02 0.000000000000000000e+00 0.000000000000000000e+00
1.024647383688417623e-01 0.000000000000000000e+00 0.000000000000000000e+00
1.145194134710584566e-01 0.000000000000000000e+00 0.000000000000000000e+00
1.265740885732751231e-01 0.000000000000000000e+00 0.000000000000000000e+00
1.386287636754918173e-01 0.000000000000000000e+00 0.000000000000000000e+00
1.506834387777084838e-01 0.000000000000000000e+00 0.000000000000000000e+00
1.627381138799251781e-01 0.000000000000000000e+00 0.000000000000000000e+00
1.747927889821418446e-01 0.000000000000000000e+00 0.000000000000000000e+00
1.868474640843585388e-01 0.000000000000000000e+00 0.000000000000000000e+00
1.989021391865752053e-01 0.000000000000000000e+00 0.000000000000000000e+00
2.109568142887918718e-01 0.000000000000000000e+00 0.000000000000000000e+00
2.230114893910085661e-01 0.000000000000000000e+00 0.000000000000000000e+00
2.350661644932252325e-01 0.000000000000000000e+00 0.000000000000000000e+00
2.471208395954419268e-01 0.000000000000000000e+00 0.000000000000000000e+00
2.591755146976585933e-01 0.000000000000000000e+00 0.000000000000000000e+00
2.712301897998752875e-01 0.000000000000000000e+00 0.000000000000000000e+00
2.832848649020919818e-01 0.000000000000000000e+00 0.000000000000000000e+00
2.953395400043086205e-01 0.000000000000000000e+00 0.000000000000000000e+00
3.073942151065253148e-01 0.000000000000000000e+00 0.000000000000000000e+00
3.194488902087420090e-01 0.000000000000000000e+00 0.000000000000000000e+00
3.315035653109586478e-01 0.000000000000000000e+00 0.000000000000000000e+00
3.435582404131753420e-01 0.000000000000000000e+00 0.000000000000000000e+00
3.556129155153920363e-01 0.000000000000000000e+00 0.000000000000000000e+00
3.676675906176087305e-01 0.000000000000000000e+00 0.000000000000000000e+00
3.797222657198253692e-01 0.000000000000000000e+00 0.000000000000000000e+00
3.917769408220420635e-01 0.000000000000000000e+00 0.000000000000000000e+00
4.038316159242587577e-01 0.000000000000000000e+00 0.000000000000000000e+00
4.158862910264753965e-01 0.000000000000000000e+00 0.000000000000000000e+00
4.279409661286920907e-01 0.000000000000000000e+00 0.000000000000000000e+00
4.399956412309087850e-01 0.000000000000000000e+00 0.000000000000000000e+00
4.520503163331254792e-01 0.000000000000000000e+00 0.000000000000000000e+00
4.641049914353421180e-01 0.000000000000000000e+00 0.000000000000000000e+00
4.761596665375588122e-01 0.000000000000000000e+00 0.000000000000000000e+00
4.882143416397755065e-01 0.000000000000000000e+00 0.000000000000000000e+00
5.002690167419920897e-01 0.000000000000000000e+00 0.000000000000000000e+00
5.123236918442087839e-01 0.000000000000000000e+00 0.000000000000000000e+00
5.243783669464254782e-01 0.000000000000000000e+00 0.000000000000000000e+00
5.364330420486421724e-01 0.000000000000000000e+00 0.000000000000000000e+00
5.484877171508588667e-01 0.000000000000000000e+00 0.000000000000000000e+00
5.605423922530755609e-01 0.000000000000000000e+00 0.000000000000000000e+00
5.725970673552921442e-01 0.000000000000000000e+00 0.000000000000000000e+00
5.846517424575088384e-01 0.000000000000000000e+00 0.000000000000000000e+00
5.967064175597255327e-01 0.000000000000000000e+00 0.000000000000000000e+00
6.087610926619422269e-01 0.000000000000000000e+00 0.000000000000000000e+00
6.208157677641589212e-01 0.000000000000000000e+00 0.000000000000000000e+00
6.328704428663756154e-01 0.000000000000000000e+00 0.000000000000000000e+00
6.449251179685923097e-01 0.000000000000000000e+00 0.000000000000000000e+00
6.569797930708088929e-01 0.000000000000000000e+00 0.000000000000000000e+00
6.690344681730255871e-01 0.000000000000000000e+00 0.000000000000000000e+00
6.810891432752422814e-01 0.000000000000000000e+00 0.000000000000000000e+00
6.931438183774589756e-01 0.000000000000000000e+00 0.000000000000000000e+00
7.051984934796756699e-01 0.000000000000000000e+00 0.000000000000000000e+00
7.172531685818923641e-01 0.000000000000000000e+00 0.000000000000000000e+00
7.293078436841090584e-01 0.000000000000000000e+00 0.000000000000000000e+00
7.413625187863256416e-01 0.000000000000000000e+00 0.000000000000000000e+00
7.534171938885423359e-01 0.000000000000000000e+00 0.000000000000000000e+00
7.654718689907590301e-01 0.000000000000000000e+00 0.000000000000000000e+00
7.775265440929757244e-01 0.000000000000000000e+00 0.000000000000000000e+00
7.895812191951924186e-01 0.000000000000000000e+00 0.000000000000000000e+00
8.016358942974091129e-01 0.000000000000000000e+00 0.000000000000000000e+00
8.136905693996258071e-01 0.000000000000000000e+00 0.000000000000000000e+00
8.257452445018423903e-01 0.000000000000000000e+00 0.000000000000000000e+00
8.377999196040590846e-01 0.000000000000000000e+00 0.000000000000000000e+00
8.498545947062757788e-01 0.000000000000000000e+00 0.000000000000000000e+00
8.619092698084924731e-01 0.000000000000000000e+00 0.000000000000000000e+00
8.739639449107091673e-01 0.000000000000000000e+00 0.000000000000000000e+00
8.860186200129258616e-01 0.000000000000000000e+00 0.000000000000000000e+00
8.980732951151425558e-01 0.000000000000000000e+00 0.000000000000000000e+00
9.101279702173591390e-01 0.000000000000000000e+00 0.000000000000000000e+00
9.221826453195758333e-01 0.000000000000000000e+00 0.000000000000000000e+00
9.342373204217925275e-01 0.000000000000000000e+00 0.000000000000000000e+00
9.462919955240092218e-01 0.000000000000000000e+00 0.000000000000000000e+00
9.583466706262259160e-01 0.000000000000000000e+00 0.000000000000000000e+00
9.704013457284426103e-01 0.000000000000000000e+00 0.000000000000000000e+00
9.824560208306593045e-01 0.000000000000000000e+00 0.000000000000000000e+00
9.945106959328758878e-01 0.000000000000000000e+00 0.000000000000000000e+00
1.006565371035092804e+00 0.000000000000000000e+00 0.000000000000000000e+00
1.018620046137309387e+00 0.000000000000000000e+00 0.000000000000000000e+00
1.030674721239526193e+00 0.000000000000000000e+00 0.000000000000000000e+00
1.042729396341742776e+00 0.000000000000000000e+00 0.000000000000000000e+00
1.054784071443959359e+00 0.000000000000000000e+00 0.000000000000000000e+00
1.066838746546176164e+00 0.000000000000000000e+00 0.000000000000000000e+00
1.078893421648392748e+00 0.000000000000000000e+00 0.000000000000000000e+00
1.090948096750609553e+00 0.000000000000000000e+00 0.000000000000000000e+00
1.103002771852826136e+00 0.000000000000000000e+00 0.000000000000000000e+00
1.115057446955042941e+00 0.000000000000000000e+00 0.000000000000000000e+00
1.127112122057259525e+00 0.000000000000000000e+00 0.000000000000000000e+00
1.139166797159476108e+00 0.000000000000000000e+00 0.000000000000000000e+00
1.151221472261692913e+00 0.000000000000000000e+00 0.000000000000000000e+00
1.163276147363909496e+00 0.000000000000000000e+00 0.000000000000000000e+00
1.175330822466126302e+00 0.000000000000000000e+00 0.000000000000000000e+00
1.187385497568342885e+00 0.000000000000000000e+00 0.000000000000000000e+00
1.199440172670559690e+00 0.000000000000000000e+00 0.000000000000000000e+00
1.211494847772776273e+00 0.000000000000000000e+00 0.000000000000000000e+00
1.223549522874992856e+00 0.000000000000000000e+00 0.000000000000000000e+00
1.235604197977209662e+00 0.000000000000000000e+00 0.000000000000000000e+00
1.247658873079426245e+00 0.000000000000000000e+00 0.000000000000000000e+00
1.259713548181643050e+00 0.000000000000000000e+00 0.000000000000000000e+00
1.271768223283859633e+00 0.000000000000000000e+00 0.000000000000000000e+00
1.283822898386076439e+00 0.000000000000000000e+00 0.000000000000000000e+00
1.295877573488293022e+00 0.000000000000000000e+00 0.000000000000000000e+00
1.307932248590509605e+00 0.000000000000000000e+00 0.000000000000000000e+00
1.319986923692726410e+00 0.000000000000000000e+00 0.000000000000000000e+00
1.332041598794942994e+00 0.000000000000000000e+00 0.000000000000000000e+00
1.344096273897159799e+00 0.000000000000000000e+00 0.000000000000000000e+00
1.356150948999376382e+00 0.000000000000000000e+00 0.000000000000000000e+00
1.368205624101593187e+00 0.000000000000000000e+00 0.000000000000000000e+00
1.380260299203809771e+00 0.000000000000000000e+00 0.000000000000000000e+00
1.392314974306026354e+00 0.000000000000000000e+00 0.000000000000000000e+00
1.404369649408243159e+00 0.000000000000000000e+00 0.000000000000000000e+00
1.416424324510459742e+00 0.000000000000000000e+00 0.000000000000000000e+00
1.428478999612676548e+00 0.000000000000000000e+00 0.000000000000000000e+00
1.440533674714893131e+00 0.000000000000000000e+00 0.000000000000000000e+00
1.452588349817109936e+00 0.000000000000000000e+00 0.000000000000000000e+00
1.464643024919326519e+00 0.000000000000000000e+00 0.000000000000000000e+00
1.476697700021543103e+00 0.000000000000000000e+00 0.000000000000000000e+00
1.488752375123759908e+00 0.000000000000000000e+00 0.000000000000000000e+00
1.500807050225976491e+00 0.000000000000000000e+00 0.000000000000000000e+00
1.512861725328193296e+00 0.000000000000000000e+00 0.000000000000000000e+00
1.524916400430409880e+00 0.000000000000000000e+00 0.000000000000000000e+00
1.536971075532626685e+00 0.000000000000000000e+00 0.000000000000000000e+00
1.549025750634843268e+00 0.000000000000000000e+00 0.000000000000000000e+00
1.561080425737059851e+00 0.000000000000000000e+00 0.000000000000000000e+00
1.573135100839276657e+00 0.000000000000000000e+00 0.000000000000000000e+00
1.585189775941493240e+00 0.000000000000000000e+00 0.000000000000000000e+00
1.597244451043710045e+00 0.000000000000000000e+00 0.000000000000000000e+00
1.609299126145926628e+00 0.000000000000000000e+00 0.000000000000000000e+00
1.621353801248143434e+00 0.000000000000000000e+00 0.000000000000000000e+00
1.633408476350360017e+00 0.000000000000000000e+00 0.000000000000000000e+00
1.645463151452576600e+00 0.000000000000000000e+00 0.000000000000000000e+00
1.657517826554793405e+00 0.000000000000000000e+00 0.000000000000000000e+00
1.669572501657009989e+00 0.000000000000000000e+00 0.000000000000000000e+00
1.681627176759226794e+00 0.000000000000000000e+00 0.000000000000000000e+00
1.693681851861443377e+00 4.453354890856321056e-05 4.453340056896852703e-05
1.705736526963660182e+00 4.453354890856321056e-05 4.453340056896852703e-05
1.717791202065876766e+00 4.453354890856321056e-05 4.453340056896852703e-05
1.729845877168093349e+00 5.789361358113216628e-04 1.605610409310483826e-04
1.741900552270310154e+00 8.016038803541375869e-04 1.889285178917281098e-04
1.753955227372526737e+00 8.016038803541375869e-04 1.889285178917281098e-04
1.766009902474743543e+00 2.137610347611035300e-03 3.084881426525823379e-04
1.778064577576960126e+00 2.449345189970978959e-03 3.302091262247170756e-04
1.790119252679176931e+00 3.250949070325119799e-03 3.804022763438583404e-04
1.802173927781393514e+00 5.032291026667641554e-03 4.732198987243311583e-04
1.814228602883610098e+00 6.056562651564591053e-03 5.191106404601259416e-04
1.826283277985826903e+00 6.457364591741657570e-03 5.359958734020076662e-04
1.838337953088043486e+00 6.056562651564591053e-03 5.191106404601259416e-04
1.850392628190260291e+00 5.833894907021775454e-03 5.094873014846763989e-04
1.862447303292476875e+00 4.765089733216263876e-03 4.604943981452569836e-04
1.874501978394693680e+00 3.651751010502188484e-03 4.031582737544006363e-04
1.886556653496910263e+00 2.449345189970978959e-03 3.302091262247170756e-04
1.898611328599126846e+00 1.914942603068218400e-03 2.919841790164192166e-04
1.910666003701343651e+00 2.004009700885345160e-03 2.986953454832574255e-04
1.922720678803560235e+00 2.538412287788105719e-03 3.361570785750500178e-04
1.934775353905777040e+00 4.230687146313507653e-03 4.339219667712559134e-04
1.946830029007993623e+00 6.368297493924532544e-03 5.433526795911965612e-04
1.958884704110210428e+00 9.262978172981127523e-03 6.449094159494465862e-04
1.970939379212427012e+00 1.304832983020898403e-02 7.667379814980754965e-04
1.982994054314643595e+00 1.781341956342522709e-02 8.983578030796241952e-04
1.995048729416860400e+00 2.338011317699560318e-02 1.024430200283506362e-03
2.007103404519077205e+00 2.903587388838322486e-02 1.134660288321282873e-03
2.019158079621293567e+00 3.273215844779420874e-02 1.206029898692204810e-03
2.031212754723510372e+00 3.972392562643907443e-02 1.332066381344769370e-03
2.043267429825727177e+00 4.854156831033513281e-02 1.468989573394368199e-03
2.055322104927943982e+00 4.903143734832936251e-02 1.476288436367213710e-03
2.067376780030160344e+00 6.158989814054496859e-02 1.652103331845952445e-03
2.079431455132377149e+00 6.519711560213883872e-02 1.701462237838076647e-03
2.091486130234593954e+00 6.831446402573845833e-02 1.744398765838689859e-03
2.103540805336810315e+00 7.379209054149206415e-02 1.811540649330450675e-03
2.115595480439027121e+00 8.211986418739392057e-02 1.910975656780489890e-03
2.127650155541243926e+00 9.009136944202721098e-02 2.003384115548669138e-03
2.139704830643460731e+00 9.864181083247190729e-02 2.095593396718900981e-03
2.151759505745677092e+00 1.074594535163679865e-01 2.185418083781481054e-03
2.163814180847893898e+00 1.225563265963682813e-01 2.335166210219753562e-03
2.175868855950110703e+00 1.386774713012648153e-01 2.479282876891596848e-03
2.187923531052327064e+00 1.533735424410876680e-01 2.600157574287367736e-03
2.199978206154543869e+00 1.698509555372529345e-01 2.751399216699527972e-03
2.212032881256760675e+00 1.952350784151287155e-01 2.935825574872395760e-03
2.224087556358977480e+00 2.087732772833293671e-01 3.041869205033554801e-03
2.236142231461193841e+00 2.168783831846863297e-01 3.096923329172555223e-03
2.248196906563410646e+00 2.387888892476947855e-01 3.253224671227175711e-03
2.260251581665627452e+00 2.578492481805557124e-01 3.376531596669435972e-03
2.272306256767843813e+00 2.744157283745381481e-01 3.484745359143709160e-03
2.284360931870060618e+00 2.923182150357768183e-01 3.597848882885532756e-03
2.296415606972277423e+00 3.041196054965435436e-01 3.672416930598734752e-03
2.308470282074494229e+00 3.122692449468090214e-01 3.722335034794247138e-03
2.320524957176710590e+00 3.291029264342422711e-01 3.804473444281555178e-03
2.332579632278927395e+00 3.415723201286375854e-01 3.877255296670577018e-03
2.344634307381144200e+00 3.437099304762480934e-01 3.878042768778553352e-03
2.356688982483360562e+00 3.513251673396109998e-01 3.933698300611361554e-03
2.368743657585577367e+00 3.563574583662773576e-01 3.962090622395227947e-03
2.380798332687794172e+00 3.613452158440356166e-01 4.000441426152015999e-03
2.392853007790010977e+00 3.688268520606727829e-01 4.023588062197108392e-03
2.404907682892227339e+00 3.824541180266902152e-01 4.094340682394880318e-03
2.416962357994444144e+00 3.928749684712919965e-01 4.160853775062232224e-03
2.429017033096660949e+00 3.966603201285190394e-01 4.189108670376485641e-03
2.441071708198877310e+00 4.057006305569554327e-01 4.237739537068984687e-03
2.453126383301094116e+00 4.101539854478111202e-01 4.267073753611068214e-03
2.465181058403310921e+00 4.210647049304068190e-01 4.318478803877491209e-03
2.477235733505527726e+00 4.303276831033863714e-01 4.384904767750260300e-03
2.489290408607744087e+00 4.381210541623831722e-01 4.406620726925663742e-03
2.501345083709960893e+00 4.445784187541234056e-01 4.429481411723836318e-03
2.513399758812177698e+00 4.425298755043300392e-01 4.422335257945444846e-03
2.525454433914394059e+00 4.534405949869254604e-01 4.467436072603330442e-03
2.537509109016610864e+00 4.478739013733561980e-01 4.438007194013588938e-03
2.549563784118827670e+00 4.494771091340638569e-01 4.443626994482848501e-03
2.561618459221044475e+00 4.698734745341822117e-01 4.557975920781933907e-03
2.573673134323260836e+00 4.600760937743003653e-01 4.501189058471265214e-03
2.585727809425477641e+00 4.692945383983712082e-01 4.555109015663747971e-03
2.597782484527694447e+00 4.673350622463949278e-01 4.542064633854628677e-03
2.609837159629910808e+00 4.642177138227960853e-01 4.544630198643364802e-03
2.621891834732127613e+00 4.683148003223829292e-01 4.551425393956190155e-03
2.633946509834344418e+00 4.635942441380760393e-01 4.528004508244500709e-03
2.646001184936561224e+00 4.669787938551260287e-01 4.547981181543894053e-03
2.658055860038777585e+00 4.782903152778986144e-01 4.593558213198957810e-03
2.670110535140994390e+00 4.766871075171909000e-01 4.592509581990248356e-03
2.682165210243211195e+00 4.840796766360105363e-01 4.628672518179816238e-03
2.694219885345427556e+00 4.839015424403764198e-01 4.613776263505425801e-03
2.706274560447644362e+00 4.939215909448013697e-01 4.673162287937397685e-03
2.718329235549861167e+00 4.970834729173088662e-01 4.692743809524602822e-03
2.730383910652077972e+00 4.939661244937098017e-01 4.680551888229147160e-03
2.742438585754294333e+00 4.847476798696389588e-01 4.624991812893985803e-03
2.754493260856511139e+00 4.943223928849786453e-01 4.675213648352462108e-03
2.766547935958727944e+00 4.946341277273381132e-01 4.662887982105249664e-03
2.778602611060944305e+00 4.919175812439161577e-01 4.655652388752161246e-03
2.790657286163161110e+00 4.849703476141820069e-01 4.628908326866072558e-03
2.802711961265377916e+00 4.889783670159520423e-01 4.647484320717838908e-03
2.814766636367594721e+00 4.891565012115861033e-01 4.642662870668902084e-03
2.826821311469811082e+00 4.891565012115861033e-01 4.651624929396178977e-03
2.838875986572027887e+00 4.842578108316457075e-01 4.641812235841085744e-03
2.850930661674244693e+00 4.856828843967187503e-01 4.642529309003147996e-03
2.862985336776461054e+00 4.954357316076917206e-01 4.661895609330115112e-03
2.875040011878677859e+00 4.882212966845061453e-01 4.639686714921788940e-03
2.887094686980894664e+00 4.872860921574269089e-01 4.639273034126766698e-03
2.899149362083111470e+00 4.761081713813796745e-01 4.586644214573583692e-03
2.911204037185327831e+00 4.848367469674562669e-01 4.633069928722193843e-03
2.923258712287544636e+00 4.830108714622056154e-01 4.612248506549679154e-03
2.935313387389761441e+00 4.782012481800815284e-01 4.600522598867903303e-03
2.947368062491977803e+00 4.797153888429727675e-01 4.604643666192045383e-03
2.959422737594194608e+00 4.721001519796097501e-01 4.570349930335876505e-03
2.971477412696411413e+00 4.730798900555978070e-01 4.566635965656478703e-03
2.983532087798628218e+00 4.594971576384890843e-01 4.506646649328733580e-03
2.995586762900844580e+00 4.633270428446247813e-01 4.535188904200040255e-03
3.007641438003061385e+00 4.607440970079282883e-01 4.504477789127455875e-03
3.019696113105278190e+00 4.617238350839164007e-01 4.512168245212753309e-03
3.031750788207494551e+00 4.570478124485181093e-01 4.478956247710230015e-03
3.043805463309711357e+00 4.474730994331794220e-01 4.444751106632372460e-03
3.055860138411928162e+00 4.645294486651555532e-01 4.523202502546462382e-03
3.067914813514144967e+00 4.608776976546540283e-01 4.506807682035063670e-03
3.079969488616361328e+00 4.595862247363058928e-01 4.508346101711313732e-03
3.092024163718578134e+00 4.611894324970140513e-01 4.515168526344919865e-03
3.104078838820794939e+00 4.600760937743003653e-01 4.502951125198735756e-03
3.116133513923011300e+00 4.615457008882824508e-01 4.504371365628004505e-03
3.128188189025228105e+00 4.623473047686361137e-01 4.505144507412980545e-03
3.140242864127444911e+00 4.558008730790789054e-01 4.494388250548892599e-03
3.152297539229661716e+00 4.594080905406717763e-01 4.502304356833094698e-03
3.164352214331878077e+00 4.607886305568368313e-01 4.510387361638903102e-03
3.176406889434094882e+00 4.607440970079285103e-01 4.515032173496153628e-03
3.188461564536311688e+00 4.499224446231496199e-01 4.464255460343225651e-03
3.200516239638528049e+00 4.506795149545951840e-01 4.463080201410887446e-03
3.212570914740744854e+00 4.519264543240344989e-01 4.475110577187602426e-03
3.224625589842961659e+00 4.501896459166011000e-01 4.459631129494105034e-03
3.236680264945178465e+00 4.467160291017338025e-01 4.450831742613603134e-03
3.248734940047394826e+00 4.457808245746546771e-01 4.457021943670463199e-03
3.260789615149611631e+00 4.509912497969555401e-01 4.464869703752754639e-03
3.272844290251828436e+00 4.460034923191970591e-01 4.442388021743106687e-03
3.284898965354044797e+00 4.435986806781346270e-01 4.420276034442191179e-03
3.296953640456261603e+00 4.494325755851558135e-01 4.458583231364123510e-03
3.309008315558478408e+00 4.423517413086957006e-01 4.421556998145329508e-03
3.321062990660695213e+00 4.434650800314092756e-01 4.420589663879671664e-03
3.333117665762911574e+00 4.361615780104066697e-01 4.402963522764236602e-03
3.345172340865128380e+00 4.403922651567194202e-01 4.412534487775195309e-03
3.357227015967345185e+00 4.438213484226781747e-01 4.436473839323829861e-03
3.369281691069561546e+00 4.377202522222062298e-01 4.389525666258138961e-03
3.381336366171778351e+00 4.367405141462177287e-01 4.396946693949503430e-03
3.393391041273995157e+00 4.411493354881643736e-01 4.392885085480848113e-03
3.405445716376211962e+00 4.479184349222648520e-01 4.444898473300031190e-03
3.417500391478428323e+00 4.349146386409669662e-01 4.376680863226988134e-03
3.429555066580645128e+00 4.347810379942415038e-01 4.380619187706891356e-03
3.441609741682861934e+00 4.344693031518816473e-01 4.378334623728860446e-03
3.453664416785078295e+00 4.398133290209078616e-01 4.397386957217952128e-03
3.465719091887295100e+00 4.388781244938286252e-01 4.405893758985504789e-03
3.477773766989511905e+00 4.372303831842119237e-01 4.397298917104458353e-03
3.489828442091728711e+00 4.366959805973092967e-01 4.389075764348278341e-03
3.501883117193945072e+00 4.312628876304654968e-01 4.362298466226399198e-03
3.513937792296161877e+00 4.407930670968962517e-01 4.412492604248993353e-03
3.525992467398378682e+00 4.380319870645659197e-01 4.399022169253956165e-03
3.538047142500595044e+00 4.417728051728844196e-01 4.411839813019051253e-03
3.550101817602811849e+00 4.432869458357752701e-01 4.426088903944139924e-03
3.562156492705028654e+00 4.382991883580172332e-01 4.403801463096853989e-03
3.574211167807245459e+00 4.387445238471024411e-01 4.394037934683700172e-03
3.586265842909461821e+00 4.417728051728844196e-01 4.420372556800933155e-03
3.598320518011678626e+00 4.440885497161291551e-01 4.424657191289281533e-03
3.610375193113895431e+00 4.518819207751261779e-01 4.463381146495455296e-03
3.622429868216111792e+00 4.464933613571908655e-01 4.433792838496562749e-03
3.634484543318328598e+00 4.519709878729431529e-01 4.470868484797238182e-03
3.646539218420545403e+00 4.471613645908190660e-01 4.454987766182511195e-03
3.658593893522762208e+00 4.513475181882232179e-01 4.465962298973493935e-03
3.670648568624978569e+00 4.528171253022054143e-01 4.466081426707608701e-03
3.682703243727195375e+00 4.436432142270436696e-01 4.433462301251861991e-03
3.694757918829412180e+00 4.453800226344770130e-01 4.430735706614436116e-03
3.706812593931628541e+00 4.432869458357752701e-01 4.432804991759643418e-03
3.718867269033845346e+00 4.467160291017340246e-01 4.452168305772724252e-03
3.730921944136062152e+00 4.420845400152439986e-01 4.408258888672075999e-03
3.742976619238278957e+00 4.495661762318812760e-01 4.454710906561565147e-03
3.755031294340495318e+00 4.435986806781353486e-01 4.443545528788559081e-03
3.767085969442712123e+00 4.410157348414386891e-01 4.414815796824402352e-03
3.779140644544928929e+00 4.454245561833856670e-01 4.434508952269756304e-03
3.791195319647145290e+00 4.457362910257456345e-01 4.441673755352330312e-03
3.803249994749362095e+00 4.468496297484601532e-01 4.457643799330049915e-03
3.815304669851578900e+00 4.417282716239760432e-01 4.420626527297227132e-03
3.827359344953795706e+00 4.503232465633265624e-01 4.447740635685513283e-03
3.839414020056012067e+00 4.473394987864534600e-01 4.449077468195125097e-03
3.851468695158228872e+00 4.417728051728846417e-01 4.429336634311567544e-03
3.863523370260445677e+00 4.379429199667486672e-01 4.399081246325508600e-03
3.875578045362662039e+00 4.438658819715868287e-01 4.447828892281431926e-03
3.887632720464878844e+00 4.453354890855690251e-01 4.439931967305139893e-03
3.899687395567095649e+00 4.477848342755391120e-01 4.446995477733496453e-03
3.911742070669312454e+00 4.464488278082827666e-01 4.444321769360483516e-03
3.923796745771528816e+00 4.472058981397282196e-01 4.457405777342429362e-03
3.935851420873745621e+00 4.492544413895218636e-01 4.452025809316047418e-03
3.947906095975962426e+00 4.404367987056276856e-01 4.396520153157759160e-03
3.959960771078178787e+00 4.441776168139466296e-01 4.445614521874572712e-03
3.972015446180395593e+00 4.430197445423234570e-01 4.411006751407414890e-03
3.984070121282612398e+00 4.356717089724127523e-01 4.387268302179544131e-03
3.996124796384829203e+00 4.503232465633265624e-01 4.464652592608510384e-03
4.008179471487046008e+00 4.401695974121763721e-01 4.413356606536926810e-03
4.020234146589262814e+00 4.466269620039164945e-01 4.445094949636586509e-03
4.032288821691478731e+00 4.419064058196101041e-01 4.418712977291473429e-03
4.044343496793695536e+00 4.476067000799048845e-01 4.439527147803634319e-03
4.056398171895912341e+00 4.472504316886366516e-01 4.456708559779694150e-03
4.068452846998129147e+00 4.464488278082823780e-01 4.427780081848071807e-03
4.080507522100345952e+00 4.317082231195510933e-01 4.375170328313656917e-03
4.092562197202562757e+00 4.382546548091083571e-01 4.400902782441965325e-03
4.104616872304779562e+00 4.319308908640936417e-01 4.366175448029013112e-03
4.116671547406995479e+00 4.388781244938284032e-01 4.393723366193451850e-03
4.128726222509212285e+00 4.353599741300527848e-01 4.399887510485219096e-03
4.140780897611429090e+00 4.371858496353035473e-01 4.405664190021251446e-03
4.152835572713645895e+00 4.339349005649789093e-01 4.382309609476560397e-03
4.164890247815862701e+00 4.297932805164833558e-01 4.351202871650920040e-03
4.176944922918079506e+00 4.372749167331204667e-01 4.400650733011260071e-03
4.188999598020296311e+00 4.317527566684597473e-01 4.376727303605744239e-03
4.201054273122512228e+00 4.362061115593147687e-01 4.386010282307277464e-03
4.213108948224729033e+00 4.304612837501115008e-01 4.353269317306224587e-03
4.225163623326945839e+00 4.337567663693445708e-01 4.385141509641133500e-03
4.237218298429162644e+00 4.320644915108194928e-01 4.370400503213927104e-03
4.249272973531379449e+00 4.208420371858639375e-01 4.316096900180280312e-03
4.261327648633596255e+00 4.310402198859232259e-01 4.383533743709062437e-03
4.273382323735813060e+00 4.283682069514096469e-01 4.341188569812861990e-03
4.285436998838028977e+00 4.198622991098758250e-01 4.312135773792485742e-03
4.297491673940245782e+00 4.157652126102889256e-01 4.295893095078502644e-03
4.309546349042462587e+00 4.244492546474567529e-01 4.326367681119366003e-03
4.321601024144679393e+00 4.210201713814978319e-01 4.301712764557745310e-03
4.333655699246896198e+00 4.159433468059234307e-01 4.297624504226644701e-03
4.345710374349113003e+00 4.160324139037401836e-01 4.292949799472981637e-03
4.357765049451329809e+00 4.153198771212028850e-01 4.284623821040090506e-03
4.369819724553545726e+00 4.154089442190201376e-01 4.286417416044040196e-03
4.381874399655762531e+00 4.128705319312328537e-01 4.275777061370891578e-03
4.393929074757979336e+00 4.205303023435041920e-01 4.305027428546773921e-03
4.405983749860196141e+00 4.139393371050377191e-01 4.267194897860191773e-03
4.418038424962412947e+00 4.268985998374274504e-01 4.339640076485893651e-03
4.430093100064629752e+00 4.212428391260412130e-01 4.330745247363292603e-03
4.442147775166846557e+00 4.204412352456868840e-01 4.317964963730832641e-03
4.454202450269062474e+00 4.192833629740647661e-01 4.309520772339288722e-03
4.466257125371279280e+00 4.279228714623240504e-01 4.347415645335859710e-03
4.478311800473496085e+00 4.191052287784303165e-01 4.305031878603230930e-03
4.490366475575712890e+00 4.249391236854507259e-01 4.321231003532861534e-03
4.502421150677929695e+00 4.285463411470436523e-01 4.356121546294058726e-03
4.514475825780146501e+00 4.269431333863359379e-01 4.341210123414881474e-03
4.526530500882363306e+00 4.315300889239173099e-01 4.379817868243891105e-03
4.538585175984579223e+00 4.313519547282825273e-01 4.353593121132302325e-03
4.550639851086796028e+00 4.301940824566601873e-01 4.357543349558041547e-03
4.562694526189012834e+00 4.247609894898167759e-01 4.345146992143079749e-03
4.574749201291229639e+00 4.290807437339467234e-01 4.353038341909245754e-03
4.586803876393446444e+00 4.237367178649203980e-01 4.334160485591791699e-03
4.598858551495663249e+00 4.255180598212624510e-01 4.337572318988794189e-03
4.610913226597880055e+00 4.304612837501119449e-01 4.379612909663744245e-03
4.622967901700095972e+00 4.315300889239172544e-01 4.377553219459999825e-03
4.635022576802312777e+00 4.345583702496988998e-01 4.380087251320176865e-03
4.647077251904529582e+00 4.393234599829141662e-01 4.416837808589371521e-03
4.659131927006746388e+00 4.306839514946547154e-01 4.371081336816860612e-03
4.671186602108963193e+00 4.335340986248021333e-01 4.384157434250848459e-03
4.683241277211179998e+00 4.375866515754802677e-01 4.399317426549295695e-03
4.695295952313396803e+00 4.310402198859231704e-01 4.369032034171745418e-03
4.707350627415612720e+00 4.297042134186659368e-01 4.355361602101986626e-03
4.719405302517829526e+00 4.316191560217342849e-01 4.366153705986698143e-03
4.731459977620046331e+00 4.380765206134739631e-01 4.395610033679392056e-03
4.743514652722263136e+00 4.321090250597281468e-01 4.359694030392133150e-03
4.755569327824479942e+00 4.286354082448609049e-01 4.343753159898502969e-03
4.767624002926696747e+00 4.370077154396687646e-01 4.386383019472768659e-03
4.779678678028913552e+00 4.353599741300523962e-01 4.380009731818567363e-03
4.791733353131129469e+00 4.320199579619111163e-01 4.380175350829056818e-03
4.803788028233346274e+00 4.333559644291680724e-01 4.389247814042054885e-03
4.815842703335563080e+00 4.369186483418521227e-01 4.389154062906258473e-03
4.827897378437779885e+00 4.376311851243886997e-01 4.388681125699387710e-03
4.839952053539996690e+00 4.342021018584298342e-01 4.386204558887159093e-03
4.852006728642213496e+00 4.327324947444479153e-01 4.377442047149951096e-03
4.864061403744430301e+00 4.377202522222058412e-01 4.385457480027357864e-03
4.876116078846646218e+00 4.357162425213209067e-01 4.383847177810033802e-03
4.888170753948863023e+00 4.397687954719997072e-01 4.408002398226663725e-03
4.900225429051079828e+00 4.364287793038578167e-01 4.388800954283532396e-03
4.912280104153296634e+00 4.359834438147723312e-01 4.402180121515643363e-03
4.924334779255513439e+00 4.421290735641526526e-01 4.412950495843045995e-03
4.936389454357730244e+00 4.417728051728842531e-01 4.417679786627605812e-03
4.948444129459947050e+00 4.380765206134746292e-01 4.417213863750381678e-03
4.960498804562162967e+00 4.437768148737695206e-01 4.431807247830574920e-03
4.972553479664379772e+00 4.414610703305245631e-01 4.430662869330387332e-03
4.984608154766596577e+00 4.441776168139462411e-01 4.427286194145801761e-03
4.996662829868813382e+00 4.394570606296395177e-01 4.401681179215217489e-03
5.008717504971030188e+00 4.393234599829140552e-01 4.408748087174224096e-03
5.020772180073246993e+00 4.372749167331206888e-01 4.396141732745293372e-03
5.032826855175463798e+00 4.392789264340055122e-01 4.402700643963368583e-03
5.044881530277679715e+00 4.410602683903474541e-01 4.418602930267119186e-03
5.056936205379896521e+00 4.317972902173682903e-01 4.356031580256646343e-03
5.068990880482113326e+00 4.382546548091086347e-01 4.402254504498321133e-03
5.081045555584330131e+00 4.377202522222057302e-01 4.395395287818516274e-03
5.093100230686546936e+00 4.321090250597281468e-01 4.368782612784992761e-03
5.105154905788763742e+00 4.361615780104066697e-01 4.390785007940989360e-03
5.117209580890980547e+00 4.423517413086956451e-01 4.415272998632481863e-03
5.129264255993196464e+00 4.388781244938284032e-01 4.396430809460669283e-03
5.141318931095413269e+00 4.333559644291679613e-01 4.368867707429204862e-03
5.153373606197630075e+00 4.427525432488729207e-01 4.437185232673422804e-03
5.165428281299846880e+00 4.545094001607309364e-01 4.476912898161587197e-03
5.177482956402063685e+00 4.544648666118221714e-01 4.471845739794928776e-03
5.189537631504280490e+00 4.487200388026190145e-01 4.463951058026783755e-03
5.201592306606497296e+00 4.506349814056867520e-01 4.459331480883886936e-03
5.213646981708713213e+00 4.499224446231497865e-01 4.466476148485325204e-03
5.225701656810930018e+00 4.427525432488725321e-01 4.426445234507286192e-03
5.237756331913146823e+00 4.501451123676926680e-01 4.450980867082790331e-03
5.249811007015363629e+00 4.435541471292264726e-01 4.429493891645136690e-03
5.261865682117580434e+00 4.410157348414389111e-01 4.417510312792830192e-03
5.273920357219797239e+00 4.455581568301116291e-01 4.443132102824715567e-03
5.285975032322014044e+00 4.359389102658639548e-01 4.398829383867712724e-03
5.298029707424229962e+00 4.402586645099937912e-01 4.422275840218787592e-03
5.310084382526446767e+00 4.462706936126488722e-01 4.468028481642928422e-03
5.322139057628663572e+00 4.407930670968963072e-01 4.425955851706566031e-03
5.334193732730880377e+00 4.424853419554211631e-01 4.422589166518390430e-03
5.346248407833097183e+00 4.362061115593154903e-01 4.396397968509135543e-03
5.358303082935313988e+00 4.376311851243890882e-01 4.403118121250799467e-03
5.370357758037530793e+00 4.340239676627958287e-01 4.384965375831610841e-03
5.382412433139746710e+00 4.353154405811445748e-01 4.402395259688995921e-03
5.394467108241963516e+00 4.303276831033862049e-01 4.364958759042347584e-03
5.406521783344180321e+00 4.322871592553623188e-01 4.382715644289977841e-03
5.418576458446397126e+00 4.357162425213210732e-01 4.394239977447637023e-03
5.430631133548613931e+00 4.356271754235037652e-01 4.391138426394481514e-03
5.442685808650830737e+00 4.355826418745953887e-01 4.388683121665065169e-03
5.454740483753047542e+00 4.309956863370144609e-01 4.369288260150070574e-03
5.466795158855263459e+00 4.361615780104065032e-01 4.383552144397371425e-03
5.478849833957480264e+00 4.344247696029731598e-01 4.375872056280952389e-03
5.490904509059697070e+00 4.301495489077518664e-01 4.351879865580362931e-03
5.502959184161913875e+00 4.289471430872208724e-01 4.352898258050083048e-03
5.515013859264130680e+00 4.313964882771916254e-01 4.365164623606544378e-03
5.527068534366347485e+00 4.313074211793740398e-01 4.364314509177015869e-03
5.539123209468564291e+00 4.324207599020881698e-01 4.374701533043008975e-03
5.551177884570780208e+00 4.272103346797871404e-01 4.337378596475855927e-03
5.563232559672997013e+00 4.350037057387845518e-01 4.403726563203667899e-03
5.575287234775213818e+00 4.245383217452741720e-01 4.335925450497701665e-03
5.587341909877430624e+00 4.228460468867489830e-01 4.328788076913496485e-03
5.599396584979647429e+00 4.277892708155984214e-01 4.345906320797523169e-03
5.611451260081864234e+00 4.285908746959524174e-01 4.361779631778324624e-03
5.623505935184081039e+00 4.278338043645070199e-01 4.352944779151294782e-03
5.635560610286296956e+00 4.178137558600825141e-01 4.306098384582954415e-03
5.647615285388513762e+00 4.318418237662767778e-01 4.373042153724003740e-03
5.659669960490730567e+00 4.207529700880467960e-01 4.310177218737652229e-03
5.671724635592947372e+00 4.230687146312918090e-01 4.328414045977041665e-03
5.683779310695164178e+00 4.220889765553034190e-01 4.331341225230302995e-03
5.695833985797380983e+00 4.182590913491674445e-01 4.290121528950293327e-03
5.707888660899597788e+00 4.240929862561880759e-01 4.327975356831837914e-03
5.719943336001813705e+00 4.146518738875746291e-01 4.278802100290508489e-03
5.731998011104030510e+00 4.223561778487546214e-01 4.316949495117999164e-03
5.744052686206247316e+00 4.128259983823246437e-01 4.280673127168324946e-03
5.756107361308464121e+00 4.066803686329439338e-01 4.240856731926282049e-03
5.768162036410680926e+00 4.187044268382534296e-01 4.306903664713002469e-03
5.780216711512897731e+00 4.049880937744181897e-01 4.226009499081750075e-03
5.792271386615114537e+00 4.041419563451559838e-01 4.239901151607330769e-03
5.804326061717330454e+00 4.038747550517043372e-01 4.218500006098281629e-03
5.816380736819547259e+00 4.041419563451560948e-01 4.224906461542564211e-03
5.828435411921764064e+00 3.998222021010263139e-01 4.212840731120584895e-03
5.840490087023980870e+00 4.005347388835628908e-01 4.202019207130251732e-03
5.852544762126197675e+00 3.907373581236813220e-01 4.163623740359677187e-03
5.864599437228414480e+00 4.057896976547724632e-01 4.247499362371543428e-03
5.876654112330631285e+00 4.118462603063359206e-01 4.259474231036739292e-03
5.888708787432847203e+00 3.966603201285187619e-01 4.180103879934644363e-03
5.900763462535064008e+00 4.010246079215574189e-01 4.212314710432523562e-03
5.912818137637280813e+00 4.042310234429731253e-01 4.226726966640900231e-03
5.924872812739497618e+00 3.923850994332975239e-01 4.165687015282748540e-03
5.936927487841714424e+00 3.964821859328849785e-01 4.193006615522236469e-03
5.948982162943931229e+00 3.951016459167195349e-01 4.186538469821338149e-03
5.961036838046148034e+00 3.947899110743598450e-01 4.183654226456883819e-03
5.973091513148363951e+00 3.971056556176046914e-01 4.199703015534472089e-03
5.985146188250580757e+00 3.951461794656279114e-01 4.178212131445283202e-03
5.997200863352797562e+00 3.960368504437992154e-01 4.169096489786965933e-03
6.009255538455014367e+00 4.057006305569554327e-01 4.230245004811094764e-03
6.021310213557231172e+00 3.911826936127669740e-01 4.155716457816962563e-03
6.033364888659447978e+00 4.012027421171917019e-01 4.210788973909978736e-03
6.045419563761664783e+00 3.977291253023242934e-01 4.191273555112287434e-03
6.057474238863880700e+00 4.010691414704659064e-01 4.217697441270791894e-03
6.069528913966097505e+00 3.932312368625602295e-01 4.158245543490565570e-03
6.081583589068314311e+00 4.040528892473391198e-01 4.226840433822393744e-03
6.093638264170531116e+00 3.963931188350672818e-01 4.176950421264818622e-03
6.105692939272747921e+00 4.041864898940643602e-01 4.229335207517223756e-03
6.117747614374964726e+00 4.004902053346544033e-01 4.212182599816601848e-03
6.129802289477181532e+00 4.079273080023831377e-01 4.255932211215415414e-03
6.141856964579397449e+00 3.974619240088727579e-01 4.187181778431699197e-03
6.153911639681614254e+00 4.089070460783715832e-01 4.245974338784487892e-03
6.165966314783831059e+00 4.112673241705247507e-01 4.276342497247792238e-03
6.178020989886047865e+00 4.033403524648019323e-01 4.216959830010564778e-03
6.190075664988264670e+00 4.098422506054508196e-01 4.248875807240959888e-03
6.202130340090481475e+00 4.088179789805540532e-01 4.251166252021665488e-03
6.214185015192698280e+00 4.039638221495220893e-01 4.225489329511184639e-03
6.226239690294914197e+00 3.995995343564835989e-01 4.203320136114217093e-03
6.238294365397131003e+00 4.086398447849203808e-01 4.251746825196327760e-03
6.250349040499347808e+00 4.010246079215573634e-01 4.213726930117398135e-03
6.262403715601564613e+00 4.129150654801410636e-01 4.275516489100870086e-03
6.274458390703781419e+00 4.140284042028553046e-01 4.280594440062315993e-03
6.286513065805998224e+00 4.061904995949497388e-01 4.234851968896008109e-03
6.298567740908215029e+00 4.127814648334155456e-01 4.267942048340673741e-03
6.310622416010430946e+00 4.047654260298756412e-01 4.238569219591985411e-03
6.322677091112647751e+00 4.078382409045660517e-01 4.235904230130400384e-03
6.334731766214864557e+00 3.996886014543006294e-01 4.194289319772991423e-03
6.346786441317081362e+00 4.130486661268671367e-01 4.280298364319131375e-03
6.358841116419298167e+00 4.003566046879289964e-01 4.212031789977304687e-03
6.370895791521514973e+00 4.177246887622649840e-01 4.287231465455410180e-03
6.382950466623731778e+00 4.123361293443300601e-01 4.275656775211925976e-03
6.395005141725947695e+00 4.214655068705837060e-01 4.309253217264730380e-03
6.407059816828164500e+00 4.138502700072210772e-01 4.282098858973517122e-03
6.419114491930381305e+00 4.211983055771322815e-01 4.309427258106224984e-03
6.431169167032598111e+00 4.334450315269847698e-01 4.375612852114817153e-03
6.443223842134814916e+00 4.257852611147134869e-01 4.330075594928813748e-03
6.455278517237031721e+00 4.205748358924125130e-01 4.313512651049666684e-03
6.467333192339248527e+00 4.307284850435629808e-01 4.367647872216238146e-03
6.479387867441464444e+00 4.303276831033860383e-01 4.356772708888822718e-03
6.491442542543681249e+00 4.232913823758345240e-01 4.321160992376320113e-03
6.503497217645898054e+00 4.320644915108194373e-01 4.365405977107739491e-03
6.515551892748114859e+00 4.310847534348312693e-01 4.364688263658379232e-03
6.527606567850331665e+00 4.418173387217931847e-01 4.414731076077911195e-03
6.539661242952548470e+00 4.394125270807309747e-01 4.405088705124560883e-03
6.551715918054765275e+00 4.378983864178400132e-01 4.398434487893803160e-03
6.563770593156981192e+00 4.380765206134749068e-01 4.404624506960683715e-03
6.575825268259197998e+00 4.325988940977221753e-01 4.363235625390850247e-03
6.587879943361414803e+00 4.474285658842710456e-01 4.450800523117698013e-03
6.599934618463631608e+00 4.332223637824423879e-01 4.367366903770765821e-03
6.611989293565848413e+00 4.411048019392563857e-01 4.416553068058576281e-03
6.624043968668065219e+00 4.489872400960705501e-01 4.460216280973246759e-03
6.636098643770282024e+00 4.417282716239758766e-01 4.403095094309163876e-03
6.648153318872497941e+00 4.440440161672210562e-01 4.432971296843612151e-03
6.660207993974714746e+00 4.470277639440940476e-01 4.440139072132270708e-03
6.672262669076931552e+00 4.394125270807315298e-01 4.405989043101392159e-03
6.684317344179148357e+00 4.430642780912322221e-01 4.415246219782030523e-03
6.696372019281365162e+00 4.389671915916460998e-01 4.416624764956180067e-03
6.708426694383581967e+00 4.295260792230322644e-01 4.355933977955796406e-03
6.720481369485798773e+00 4.321980921575453438e-01 4.369631749091720634e-03
6.732536044588014690e+00 4.395015941785480051e-01 4.389243488499928146e-03
6.744590719690231495e+00 4.358053096191382703e-01 4.394181135962089285e-03
6.756645394792448300e+00 4.419954729174273012e-01 4.424932829023149085e-03
6.768700069894665106e+00 4.371413160863948932e-01 4.397357909162948227e-03
6.780754744996881911e+00 4.412384025859817926e-01 4.406798894392017878e-03
6.792809420099098716e+00 4.377202522222060077e-01 4.390429195722507158e-03
6.804864095201315521e+00 4.371413160863946157e-01 4.388328508913412647e-03
6.816918770303531439e+00 4.464042942593741126e-01 4.451708402444811384e-03
6.828973445405748244e+00 4.463152271615575262e-01 4.458445302061602410e-03
6.841028120507965049e+00 4.442221503628548951e-01 4.422998753447796375e-03
6.853082795610181854e+00 4.477403007266307355e-01 4.446356345512092294e-03
6.865137470712398660e+00 4.435986806781357372e-01 4.438633309127064212e-03
6.877192145814615465e+00 4.407930670968964182e-01 4.417882826652774590e-03
6.889246820916832270e+00 4.464488278082828776e-01 4.443875506318186938e-03
6.901301496019048187e+00 4.462706936126485391e-01 4.446225510350327800e-03
6.913356171121264993e+00 4.532624607912911219e-01 4.454218993495080714e-03
6.925410846223481798e+00 4.527280582043886059e-01 4.457696447351574762e-03
6.937465521325698603e+00 4.575376814865128039e-01 4.494315762830521435e-03
6.949520196427915408e+00 4.592299563450379374e-01 4.509027810100390936e-03
6.961574871530132214e+00 4.472504316886366516e-01 4.449582857246851299e-03
6.973629546632349019e+00 4.508131156013207574e-01 4.460100945330115231e-03
6.985684221734564936e+00 4.431088116401414312e-01 4.419032846817972336e-03
6.997738896836781741e+00 4.419509393685188137e-01 4.421151180496144840e-03
7.009793571938998546e+00 4.389671915916454337e-01 4.409884035331590284e-03
7.021848247041215352e+00 4.365178464016750137e-01 4.387838066642225400e-03
7.033902922143432157e+00 4.273439353265128804e-01 4.337062285470537001e-03
7.045957597245648962e+00 4.248500565876339174e-01 4.341435991545033839e-03
7.058012272347865768e+00 4.270767340330615114e-01 4.344091079599847992e-03
7.070066947450081685e+00 4.219999094574867771e-01 4.324525470662250563e-03
7.082121622552298490e+00 4.103766531923542793e-01 4.277376171555137552e-03
7.094176297654515295e+00 4.142510719473982417e-01 4.281145852088680953e-03
7.106230972756732100e+00 4.033848860137111969e-01 4.231720075734010655e-03
7.118285647858948906e+00 3.986197962804960415e-01 4.203468046201410888e-03
7.130340322961165711e+00 3.975955246555990530e-01 4.198213400221012699e-03
7.142394998063382516e+00 3.937656394494628564e-01 4.174094427778624744e-03
7.154449673165598433e+00 3.971056556176047470e-01 4.200175221659936502e-03
7.166504348267815239e+00 3.864176038795512635e-01 4.140284369061535824e-03
7.178559023370032044e+00 3.777780953912921458e-01 4.083413193563444933e-03
7.190613698472248849e+00 3.771546257065726548e-01 4.083311456376680429e-03
7.202668373574465654e+00 3.671345772021479270e-01 4.037902025309523038e-03
7.214723048676682460e+00 3.624585545667495801e-01 4.005963566930857700e-03
7.226777723778899265e+00 3.442443330631507759e-01 3.894568030034903545e-03
7.238832398881115182e+00 3.420621891666322245e-01 3.905762844359811792e-03
7.250887073983331987e+00 3.346250864989037122e-01 3.861309601169194555e-03
7.262941749085548793e+00 3.204634179459833199e-01 3.782738986578482437e-03
7.274996424187765598e+00 3.203743508481657898e-01 3.761232385027397322e-03
7.287051099289982403e+00 3.138279191586083594e-01 3.735557312098195838e-03
7.299105774392199208e+00 3.094636313655703130e-01 3.708686325654473974e-03
7.311160449494416014e+00 2.953019628126496987e-01 3.615201174432195429e-03
7.323215124596631931e+00 2.877312594981958904e-01 3.571274534174339894e-03
7.335269799698848736e+00 2.815410961999066930e-01 3.541954110113954782e-03
7.347324474801065541e+00 2.646628811635646228e-01 3.424078607064544571e-03
7.359379149903282347e+00 2.522825545669869496e-01 3.353114326553155097e-03
7.371433825005499152e+00 2.415945028289336327e-01 3.276451468753638872e-03
7.383488500107715957e+00 2.189269264344795018e-01 3.122116591043918536e-03
7.395543175209932762e+00 2.114898237667509895e-01 3.067567645565530497e-03
7.407597850312148680e+00 1.929638674207923565e-01 2.929726526098100099e-03
7.419652525414365485e+00 1.869963718670460406e-01 2.880442812396182429e-03
7.431707200516582290e+00 1.729683039608514161e-01 2.773800964071765438e-03
7.443761875618799095e+00 1.610333128533590064e-01 2.679755168310239688e-03
7.455816550721015901e+00 1.512359320934770490e-01 2.588762956047901530e-03
7.467871225823232706e+00 1.461145739689932999e-01 2.555653360100320834e-03
7.479925900925449511e+00 1.361390590134772538e-01 2.463773163966965270e-03
7.491980576027665428e+00 1.263862118025038395e-01 2.379251817596160241e-03
7.504035251129882234e+00 1.123136103474007969e-01 2.234513585329233470e-03
7.516089926232099039e+00 9.957701535955179595e-02 2.100498116584934103e-03
7.528144601334315844e+00 9.343138561016968435e-02 2.037222175668291536e-03
7.540199276436532649e+00 8.621695068698201347e-02 1.957972823531833537e-03
7.552253951538749455e+00 8.100652546467976278e-02 1.896186697439194296e-03
7.564308626640966260e+00 7.299048666113787387e-02 1.799675571150201932e-03
7.576363301743182177e+00 6.662218916721293627e-02 1.719647020396436639e-03
7.588417976845398982e+00 6.047655941783083161e-02 1.637305670169984968e-03
7.600472651947615788e+00 6.368297493924758579e-02 1.677193434556111798e-03
7.612527327049832593e+00 5.513253354880292417e-02 1.561718387813106632e-03
7.624582002152049398e+00 5.308399029900888466e-02 1.534007415396339714e-03
7.636636677254266203e+00 4.578048827800405146e-02 1.424349568588359656e-03
7.648691352356483009e+00 4.244047210986159890e-02 1.371857104845525255e-03
7.660746027458698926e+00 3.228682295870854285e-02 1.197860026973652939e-03
7.672800702560915731e+00 2.284571059009284436e-02 1.006937704253270133e-03
7.684855377663132536e+00 1.576487631363132635e-02 8.369051295764387555e-04
7.696910052765349342e+00 1.304832983020898403e-02 7.615472305498704325e-04
7.708964727867566147e+00 1.171232336295209391e-02 7.215798318654186418e-04
7.721019402969782952e+00 9.307511721889691336e-03 6.433656878736638629e-04
7.733074078071999757e+00 8.505907841535556568e-03 6.150741989706945889e-04
7.745128753174215674e+00 9.040310428438311924e-03 6.340762153798408258e-04
7.757183428276432480e+00 8.327773645901304783e-03 6.086076725646137522e-04
7.769238103378649285e+00 7.258968472095792338e-03 5.682575065291077922e-04
7.781292778480866090e+00 7.036300727552977606e-03 5.594833459038743876e-04
7.793347453583082896e+00 6.368297493924531677e-03 5.322900642963242744e-04
7.805402128685299701e+00 3.785351657227877323e-03 4.104627697392962838e-04
7.817456803787516506e+00 2.226677445428162060e-03 3.148472939880640796e-04
7.829511478889732423e+00 8.016038803541375869e-04 1.889285178917281098e-04
7.841566153991949228e+00 3.117348423599424672e-04 1.178219480959963740e-04
7.853620829094166034e+00 2.226677445428160596e-04 9.957838414072266381e-05
7.865675504196382839e+00 4.453354890856321056e-05 4.453340056896852703e-05
7.877730179298599644e+00 0.000000000000000000e+00 0.000000000000000000e+00
7.889784854400816450e+00 8.906709781712642113e-05 6.297952927866357531e-05
7.901839529503033255e+00 0.000000000000000000e+00 0.000000000000000000e+00
7.913894204605249172e+00 0.000000000000000000e+00 0.000000000000000000e+00
7.925948879707465977e+00 0.000000000000000000e+00 0.000000000000000000e+00
7.938003554809682782e+00 0.000000000000000000e+00 0.000000000000000000e+00
7.950058229911899588e+00 0.000000000000000000e+00 0.000000000000000000e+00
7.962112905014116393e+00 0.000000000000000000e+00 0.000000000000000000e+00
7.974167580116333198e+00 0.000000000000000000e+00 0.000000000000000000e+00
7.986222255218550004e+00 0.000000000000000000e+00 0.000000000000000000e+00
7.998276930320765921e+00 0.000000000000000000e+00 0.000000000000000000e+00
8.010331605422983614e+00 0.000000000000000000e+00 0.000000000000000000e+00
8.022386280525200419e+00 0.000000000000000000e+00 0.000000000000000000e+00
8.034440955627417225e+00 0.000000000000000000e+00 0.000000000000000000e+00
8.046495630729632254e+00 0.000000000000000000e+00 0.000000000000000000e+00
8.058550305831849059e+00 0.000000000000000000e+00 0.000000000000000000e+00
8.070604980934065864e+00 0.000000000000000000e+00 0.000000000000000000e+00
8.082659656036282669e+00 0.000000000000000000e+00 0.000000000000000000e+00
8.094714331138499475e+00 0.000000000000000000e+00 0.000000000000000000e+00
8.106769006240716280e+00 0.000000000000000000e+00 0.000000000000000000e+00
8.118823681342933085e+00 0.000000000000000000e+00 0.000000000000000000e+00
8.130878356445149890e+00 0.000000000000000000e+00 0.000000000000000000e+00
8.142933031547366696e+00 0.000000000000000000e+00 0.000000000000000000e+00
8.154987706649583501e+00 0.000000000000000000e+00 0.000000000000000000e+00
8.167042381751800306e+00 0.000000000000000000e+00 0.000000000000000000e+00
8.179097056854017112e+00 0.000000000000000000e+00 0.000000000000000000e+00
8.191151731956233917e+00 0.000000000000000000e+00 0.000000000000000000e+00
8.203206407058450722e+00 0.000000000000000000e+00 0.000000000000000000e+00
8.215261082160665751e+00 0.000000000000000000e+00 0.000000000000000000e+00
8.227315757262882556e+00 0.000000000000000000e+00 0.000000000000000000e+00
8.239370432365099362e+00 0.000000000000000000e+00 0.000000000000000000e+00
8.251425107467316167e+00 0.000000000000000000e+00 0.000000000000000000e+00
8.263479782569532972e+00 0.000000000000000000e+00 0.000000000000000000e+00
8.275534457671749777e+00 0.000000000000000000e+00 0.000000000000000000e+00
8.287589132773966583e+00 0.000000000000000000e+00 0.000000000000000000e+00
8.299643807876183388e+00 0.000000000000000000e+00 0.000000000000000000e+00
8.311698482978400193e+00 0.000000000000000000e+00 0.000000000000000000e+00
8.323753158080616998e+00 0.000000000000000000e+00 0.000000000000000000e+00
8.335807833182833804e+00 0.000000000000000000e+00 0.000000000000000000e+00
8.347862508285050609e+00 0.000000000000000000e+00 0.000000000000000000e+00
8.359917183387267414e+00 0.000000000000000000e+00 0.000000000000000000e+00
8.371971858489484219e+00 0.000000000000000000e+00 0.000000000000000000e+00
8.384026533591699248e+00 0.000000000000000000e+00 0.000000000000000000e+00
8.396081208693916054e+00 0.000000000000000000e+00 0.000000000000000000e+00
8.408135883796132859e+00 0.000000000000000000e+00 0.000000000000000000e+00
8.420190558898349664e+00 0.000000000000000000e+00 0.000000000000000000e+00
8.432245234000566469e+00 0.000000000000000000e+00 0.000000000000000000e+00
8.444299909102783275e+00 0.000000000000000000e+00 0.000000000000000000e+00
8.456354584205000080e+00 0.000000000000000000e+00 0.000000000000000000e+00
8.468409259307216885e+00 0.000000000000000000e+00 0.000000000000000000e+00
8.480463934409433691e+00 0.000000000000000000e+00 0.000000000000000000e+00
8.492518609511650496e+00 0.000000000000000000e+00 0.000000000000000000e+00
8.504573284613867301e+00 0.000000000000000000e+00 0.000000000000000000e+00
8.516627959716084106e+00 0.000000000000000000e+00 0.000000000000000000e+00
8.528682634818300912e+00 0.000000000000000000e+00 0.000000000000000000e+00
8.540737309920517717e+00 0.000000000000000000e+00 0.000000000000000000e+00
8.552791985022732746e+00 0.000000000000000000e+00 0.000000000000000000e+00
8.564846660124949551e+00 0.000000000000000000e+00 0.000000000000000000e+00
8.576901335227166356e+00 0.000000000000000000e+00 0.000000000000000000e+00
8.588956010329383162e+00 0.000000000000000000e+00 0.000000000000000000e+00
8.601010685431599967e+00 0.000000000000000000e+00 0.000000000000000000e+00
8.613065360533816772e+00 0.000000000000000000e+00 0.000000000000000000e+00
8.625120035636033577e+00 0.000000000000000000e+00 0.000000000000000000e+00
8.637174710738250383e+00 0.000000000000000000e+00 0.000000000000000000e+00
8.649229385840467188e+00 0.000000000000000000e+00 0.000000000000000000e+00
8.661284060942683993e+00 0.000000000000000000e+00 0.000000000000000000e+00
8.673338736044900799e+00 0.000000000000000000e+00 0.000000000000000000e+00
8.685393411147117604e+00 0.000000000000000000e+00 0.000000000000000000e+00
8.697448086249334409e+00 0.000000000000000000e+00 0.000000000000000000e+00
8.709502761351551214e+00 0.000000000000000000e+00 0.000000000000000000e+00
8.721557436453766243e+00 0.000000000000000000e+00 0.000000000000000000e+00
8.733612111555983049e+00 0.000000000000000000e+00 0.000000000000000000e+00
8.745666786658199854e+00 0.000000000000000000e+00 0.000000000000000000e+00
8.757721461760416659e+00 0.000000000000000000e+00 0.000000000000000000e+00
8.769776136862633464e+00 0.000000000000000000e+00 0.000000000000000000e+00
8.781830811964850270e+00 0.000000000000000000e+00 0.000000000000000000e+00
8.793885487067067075e+00 0.000000000000000000e+00 0.000000000000000000e+00
8.805940162169283880e+00 0.000000000000000000e+00 0.000000000000000000e+00
8.817994837271500685e+00 0.000000000000000000e+00 0.000000000000000000e+00
8.830049512373717491e+00 0.000000000000000000e+00 0.000000000000000000e+00
8.842104187475934296e+00 0.000000000000000000e+00 0.000000000000000000e+00
8.854158862578151101e+00 0.000000000000000000e+00 0.000000000000000000e+00
8.866213537680367907e+00 0.000000000000000000e+00 0.000000000000000000e+00
8.878268212782584712e+00 0.000000000000000000e+00 0.000000000000000000e+00
8.890322887884799741e+00 0.000000000000000000e+00 0.000000000000000000e+00
8.902377562987016546e+00 0.000000000000000000e+00 0.000000000000000000e+00
8.914432238089233351e+00 0.000000000000000000e+00 0.000000000000000000e+00
8.926486913191450157e+00 0.000000000000000000e+00 0.000000000000000000e+00
8.938541588293666962e+00 0.000000000000000000e+00 0.000000000000000000e+00
8.950596263395883767e+00 0.000000000000000000e+00 0.000000000000000000e+00
8.962650938498100572e+00 0.000000000000000000e+00 0.000000000000000000e+00
8.974705613600317378e+00 0.000000000000000000e+00 0.000000000000000000e+00
8.986760288702534183e+00 0.000000000000000000e+00 0.000000000000000000e+00
8.998814963804750988e+00 0.000000000000000000e+00 0.000000000000000000e+00
9.010869638906967793e+00 0.000000000000000000e+00 0.000000000000000000e+00
9.022924314009184599e+00 0.000000000000000000e+00 0.000000000000000000e+00
9.034978989111401404e+00 0.000000000000000000e+00 0.000000000000000000e+00
9.047033664213618209e+00 0.000000000000000000e+00 0.000000000000000000e+00
9.059088339315833238e+00 0.000000000000000000e+00 0.000000000000000000e+00
9.071143014418050043e+00 0.000000000000000000e+00 0.000000000000000000e+00
9.083197689520266849e+00 0.000000000000000000e+00 0.000000000000000000e+00
9.095252364622483654e+00 0.000000000000000000e+00 0.000000000000000000e+00
9.107307039724700459e+00 0.000000000000000000e+00 0.000000000000000000e+00
9.119361714826917265e+00 0.000000000000000000e+00 0.000000000000000000e+00
9.131416389929134070e+00 0.000000000000000000e+00 0.000000000000000000e+00
9.143471065031350875e+00 0.000000000000000000e+00 0.000000000000000000e+00
9.155525740133567680e+00 0.000000000000000000e+00 0.000000000000000000e+00
9.167580415235784486e+00 0.000000000000000000e+00 0.000000000000000000e+00
9.179635090338001291e+00 0.000000000000000000e+00 0.000000000000000000e+00
9.191689765440218096e+00 0.000000000000000000e+00 0.000000000000000000e+00
9.203744440542434901e+00 0.000000000000000000e+00 0.000000000000000000e+00
9.215799115644651707e+00 0.000000000000000000e+00 0.000000000000000000e+00
9.227853790746866736e+00 0.000000000000000000e+00 0.000000000000000000e+00
9.239908465849083541e+00 0.000000000000000000e+00 0.000000000000000000e+00
9.251963140951300346e+00 0.000000000000000000e+00 0.000000000000000000e+00
9.264017816053517151e+00 0.000000000000000000e+00 0.000000000000000000e+00
9.276072491155733957e+00 0.000000000000000000e+00 0.000000000000000000e+00
9.288127166257950762e+00 0.000000000000000000e+00 0.000000000000000000e+00
9.300181841360167567e+00 0.000000000000000000e+00 0.000000000000000000e+00
9.312236516462384373e+00 0.000000000000000000e+00 0.000000000000000000e+00
9.324291191564601178e+00 0.000000000000000000e+00 0.000000000000000000e+00
9.336345866666817983e+00 0.000000000000000000e+00 0.000000000000000000e+00
9.348400541769034788e+00 0.000000000000000000e+00 0.000000000000000000e+00
9.360455216871251594e+00 0.000000000000000000e+00 0.000000000000000000e+00
9.372509891973468399e+00 0.000000000000000000e+00 0.000000000000000000e+00
9.384564567075685204e+00 0.000000000000000000e+00 0.000000000000000000e+00
9.396619242177900233e+00 0.000000000000000000e+00 0.000000000000000000e+00
9.408673917280117038e+00 0.000000000000000000e+00 0.000000000000000000e+00
9.420728592382333844e+00 0.000000000000000000e+00 0.000000000000000000e+00
9.432783267484550649e+00 0.000000000000000000e+00 0.000000000000000000e+00
9.444837942586767454e+00 0.000000000000000000e+00 0.000000000000000000e+00
9.456892617688984259e+00 0.000000000000000000e+00 0.000000000000000000e+00
9.468947292791201065e+00 0.000000000000000000e+00 0.000000000000000000e+00
9.481001967893417870e+00 0.000000000000000000e+00 0.000000000000000000e+00
9.493056642995634675e+00 0.000000000000000000e+00 0.000000000000000000e+00
9.505111318097851481e+00 0.000000000000000000e+00 0.000000000000000000e+00
9.517165993200068286e+00 0.000000000000000000e+00 0.000000000000000000e+00
9.529220668302285091e+00 0.000000000000000000e+00 0.000000000000000000e+00
9.541275343404501896e+00 0.000000000000000000e+00 0.000000000000000000e+00
9.553330018506718702e+00 0.000000000000000000e+00 0.000000000000000000e+00
9.565384693608933731e+00 0.000000000000000000e+00 0.000000000000000000e+00
9.577439368711150536e+00 0.000000000000000000e+00 0.000000000000000000e+00
9.589494043813367341e+00 0.000000000000000000e+00 0.000000000000000000e+00
9.601548718915584146e+00 0.000000000000000000e+00 0.000000000000000000e+00
9.613603394017800952e+00 0.000000000000000000e+00 0.000000000000000000e+00
9.625658069120017757e+00 0.000000000000000000e+00 0.000000000000000000e+00
9.637712744222234562e+00 0.000000000000000000e+00 0.000000000000000000e+00
